2.soc-litex/3.build/dump.vcd
$date
	2025-06-25 20:19
$end
$timescale 7692ps $end
$scope dumped_signals $end
$var wire 12 ! main_debug_filter_in $end
$var wire 19 " main_debug_phase2 $end
$var wire 12 # main_debug_xval_downconverted $end
$var wire 12 $ main_debug_yval_downconverted $end
$var wire 16 % main_debug_downsampledX $end
$var wire 16 & main_debug_downsampledY $end
$var wire 16 ' main_debug_upsampledX $end
$var wire 16 ( main_debug_upsampledY $end
$var wire 23 ) main_debug_phase2_inv_alt $end
$var wire 16 * main_debug_xval_upconverted $end
$var wire 16 + main_debug_yval_upconverted $end
$var wire 1 , main_debug_ce_out_down_x $end
$var wire 1 - main_debug_ce_out_up_x $end
$var wire 1 . scope_clk $end
$var wire 1 / scope_trig $end
$unscope  $end
$enddefinitions  $end
$dumpvars
bxxxxxxxxxxxx !
bxxxxxxxxxxxxxxxxxxx "
bxxxxxxxxxxxx #
bxxxxxxxxxxxx $
bxxxxxxxxxxxxxxxx %
bxxxxxxxxxxxxxxxx &
bxxxxxxxxxxxxxxxx '
bxxxxxxxxxxxxxxxx (
bxxxxxxxxxxxxxxxxxxxxxxx )
bxxxxxxxxxxxxxxxx *
bxxxxxxxxxxxxxxxx +
bx ,
bx -
bx .
bx /
$end
#0
b110110000110 !
b1101001100110000000 "
b111100011000 #
b000101010110 $
b1111111111110010 %
b1111111111110010 &
b1111111111110111 '
b1111111111110111 (
b00101100110100000000000 )
b1111111111110110 *
b1111111111110100 +
b0 ,
b0 -
b1 .
b0 /
#1
b0 .
#2
b000000111100 !
b1111101010010001100 "
b110011100000 #
b000000001000 $
b00000101011011101000000 )
b1111111111110010 *
b0000000000000000 +
b1 .
#3
b0 .
#4
b001011000010 !
b0010000111110011000 "
b111011101110 #
b111001111110 $
b11011110000011010000000 )
b1111111111111000 *
b0000000000001010 +
b1 .
#5
b0 .
#6
b001011100010 !
b0100100101010100100 "
b111110011110 #
b000100000110 $
b10110110101010111000000 )
b0000000000000100 *
b0000000000001100 +
b1 .
#7
b0 .
#8
b000001111111 !
b0111000010110110000 "
b110100000000 #
b000011000100 $
b10001111010010100000000 )
b0000000000001100 *
b0000000000000000 +
b1 .
#9
b0 .
#10
b110110110011 !
b1001100000010111100 "
b111000110000 #
b111001101110 $
b01100111111010001000000 )
b0000000000000110 *
b1111111111110110 +
b1 .
#11
b0 .
#12
b110011110111 !
b1011111101111001000 "
b111111110100 #
b000001100000 $
b01000000100001110000000 )
b1111111111111110 *
b1111111111110010 +
b1 .
#13
b0 .
#14
b111011101101 !
b1110011011011010100 "
b110110001000 #
b000101010100 $
b00011001001001011000000 )
b1111111111110100 *
b1111111111111000 +
b1 .
#15
b0 .
#16
b000111011111 !
b0000111000111100000 "
b110110010010 #
b111011000010 $
b11110001110001000000000 )
b1111111111110010 *
b0000000000000110 +
b1 .
#17
b0 .
#18
b001100110010 !
b0011010110011101100 "
b111111111000 #
b111111001000 $
b11001010011000101000000 )
b0000000000000000 *
b0000000000001100 +
b1 .
#19
b0 .
#20
b000110111011 !
b0101110011111111000 "
b111000100100 #
b000110101100 $
b10100011000000010000000 )
b0000000000001010 *
b0000000000000110 +
b1 .
#21
b0 .
#22
b111011000111 !
b1000010001100000100 "
b110100000110 #
b111101001100 $
b01111011100111111000000 )
b0000000000001100 *
b1111111111111100 +
b1 .
#23
b0 .
#24
b110011101101 !
b1010101111000010000 "
b111110101000 #
b111100100100 $
b01010100001111100000000 )
b0000000000000100 *
b1111111111110010 +
b1 .
#25
b0 .
#26
b110111010000 !
b1101001100100011100 "
b111011100010 #
b000110100100 $
b00101100110111001000000 )
b1111111111110110 *
b1111111111110100 +
b1 .
#27
b0 .
#28
b000010101011 !
b1111101010000101000 "
b110011101000 #
b000000001000 $
b00000101011110110000000 )
b1111111111110010 *
b0000000000000000 +
b1 .
#29
b0 .
#30
b001011110100 !
b0010000111100110100 "
b111100100110 #
b111011001010 $
b11011110000110011000000 )
b1111111111111000 *
b0000000000001010 +
b1 .
#31
b0 .
#32
b001010101011 !
b0100100101001000000 "
b111101111100 #
b000101100100 $
b10110110101110000000000 )
b0000000000000100 *
b0000000000001100 +
b1 .
b1 /
#33
b0 .
#34
b000000001110 !
b0111000010101001100 "
b110011101100 #
b000011001100 $
b10001111010101101000000 )
b0000000000001100 *
b0000000000000000 +
b1 .
#35
b0 .
#36
b110101101110 !
b1001100000001011000 "
b111001101100 #
b111010100010 $
b01100111111101010000000 )
b0000000000001010 *
b1111111111110110 +
b1 .
#37
b0 .
#38
b110100011001 !
b1011111101101100100 "
b111111101000 #
b000011001110 $
b01000000100100111000000 )
b1111111111111100 *
b1111111111110100 +
b1 .
#39
b0 .
#40
b111101011010 !
b1110011011001110000 "
b110101100100 #
b000101101000 $
b00011001001100100000000 )
b1111111111110010 *
b1111111111111010 +
b1 .
#41
b0 .
#42
b001000110110 !
b0000111000101111100 "
b110111001010 #
b111011011110 $
b11110001110100001000000 )
b0000000000000110 +
b1 .
#43
b0 .
#44
b001100101001 !
b0011010110010001000 "
b000000001000 #
b000000111100 $
b11001010011011110000000 )
b0000000000000000 *
b0000000000001100 +
b1 .
#45
b0 .
#46
b000101010111 !
b0101110011110010100 "
b110111110100 #
b000111011010 $
b10100011000011011000000 )
b0000000000001010 *
b0000000000000110 +
b1 .
#47
b0 .
#48
b111001100010 !
b1000010001010100000 "
b110100110000 #
b111101011000 $
b01111011101011000000000 )
b1111111111111100 +
b1 .
#49
b0 .
#50
b110011100001 !
b1010101110110101100 "
b111111010010 #
b111110001000 $
b01010100010010101000000 )
b0000000000000010 *
b1111111111110010 +
b1 .
#51
b0 .
#52
b111000100110 !
b1101001100010111000 "
b111010110110 #
b000111101000 $
b00101100111010010000000 )
b1111111111110100 *
b1111111111111000 +
b1 .
#53
b0 .
#54
b000100010110 !
b1111101001111000100 "
b110011110110 #
b000000001010 $
b00000101100001111000000 )
b1111111111110010 *
b0000000000000000 +
b1 .
#55
b0 .
#56
b001100011011 !
b0010000111011010000 "
b111101100000 #
b111100011110 $
b11011110001001100000000 )
b1111111111111000 *
b0000000000001010 +
b1 .
#57
b0 .
#58
b001001100111 !
b0100100100111011100 "
b111101011010 #
b000111000010 $
b10110110110001001000000 )
b0000000000000100 *
b0000000000001100 +
b1 .
#59
b0 .
#60
b111110100000 !
b0111000010011101000 "
b110011101000 #
b000011001110 $
b10001111011000110000000 )
b0000000000001100 *
b0000000000000000 +
b1 .
#61
b0 .
#62
b110100110101 !
b1001011111111110100 "
b111010110000 #
b111011011110 $
b01101000000000011000000 )
b0000000000001000 *
b1111111111110110 +
b1 .
#63
b0 .
#64
b110101001000 !
b1011111101100000000 "
b111111011110 #
b000100110110 $
b01000000101000000000000 )
b1111111111111110 *
b1111111111110010 +
b1 .
#65
b0 .
#66
b111111001001 !
b1110011011000001100 "
b110101001010 #
b000101110110 $
b00011001001111101000000 )
b1111111111110100 *
b1111111111111000 +
b1 .
#67
b0 .
#68
b001010000010 !
b0000111000100011000 "
b111000001100 #
b111100000010 $
b11110001110111010000000 )
b1111111111110010 *
b0000000000000110 +
b1 .
#69
b0 .
#70
b001100001110 !
b0011010110000100100 "
b000000011000 #
b000010101000 $
b11001010011110111000000 )
b0000000000000000 *
b0000000000001100 +
b1 .
#71
b0 .
#72
b000011101110 !
b0101110011100110000 "
b110111010000 #
b000111111110 $
b10100011000110100000000 )
b0000000000001010 *
b0000000000000110 +
b1 .
#73
b0 .
#74
b111000000110 !
b1000010001000111100 "
b110101100110 #
b111101100100 $
b01111011101110001000000 )
b0000000000001100 *
b1111111111111100 +
b1 .
#75
b0 .
#76
b110011100101 !
b1010101110101001000 "
b111111111100 #
b111111110010 $
b01010100010101110000000 )
b0000000000000010 *
b1111111111110010 +
b1 .
#77
b0 .
#78
b111010000101 !
b1101001100001010100 "
b111010010000 #
b001000100010 $
b00101100111101011000000 )
b1111111111110110 *
b1111111111110100 +
b1 .
#79
b0 .
#80
b000101111101 !
b1111101001101100000 "
b110100011010 #
b000000001010 $
b00000101100101000000000 )
b1111111111110010 *
b0000000000000000 +
b1 .
#81
b0 .
#82
b001100101111 !
b0010000111001101100 "
b111110011110 #
b111101111010 $
b11011110001100101000000 )
b1111111111111000 *
b0000000000001010 +
b1 .
#83
b0 .
#84
b001000011000 !
b0100100100101111000 "
b111100111110 #
b001000010100 $
b10110110110100010000000 )
b0000000000000100 *
b0000000000001100 +
b1 .
#85
b0 .
#86
b111100110001 !
b0111000010010000100 "
b110011110000 #
b000011001100 $
b10001111011011111000000 )
b0000000000001100 *
b0000000000000000 +
b1 .
#87
b0 .
#88
b110100001001 !
b1001011111110010000 "
b111011111010 #
b111100100000 $
b01101000000011100000000 )
b0000000000001010 *
b1111111111110110 +
b1 .
#89
b0 .
#90
b110110000101 !
b1011111101010011100 "
b111111010010 #
b000110011100 $
b01000000101011001000000 )
b1111111111111100 *
b1111111111110100 +
b1 .
#91
b0 .
#92
b000000111011 !
b1110011010110101000 "
b110101000000 #
b000101111100 $
b00011001010010110000000 )
b1111111111110100 *
b1111111111111010 +
b1 .
#93
b0 .
#94
b001011000001 !
b0000111000010110100 "
b111001011000 #
b111100101010 $
b11110001111010011000000 )
b1111111111110010 *
b0000000000000110 +
b1 .
#95
b0 .
#96
b001011100110 !
b0011010101111000000 "
b000000100100 #
b000100010010 $
b11001010100010000000000 )
b0000000000000000 *
b0000000000001100 +
b1 .
#97
b0 .
#98
b000010000001 !
b0101110011011001100 "
b110110110100 #
b001000010110 $
b10100011001001101000000 )
b0000000000001010 *
b0000000000000110 +
b1 .
#99
b0 .
#100
b110110110100 !
b1000010000111011000 "
b110110100110 #
b111101110110 $
b01111011110001010000000 )
b0000000000001100 *
b1111111111111100 +
b1 .
#101
b0 .
#102
b110011110101 !
b1010101110011100100 "
b000000100100 #
b000001011000 $
b01010100011000111000000 )
b0000000000000010 *
b1111111111110010 +
b1 .
#103
b0 .
#104
b111011101011 !
b1101001011111110000 "
b111001110000 #
b001001010010 $
b00101101000000100000000 )
b1111111111111000 *
b1111111111110100 +
b1 .
#105
b0 .
#106
b000111011011 !
b1111101001011111100 "
b110101001000 #
b000000001010 $
b00000101101000001000000 )
b1111111111110010 *
b0000000000000000 +
b1 .
#107
b0 .
#108
b001100110100 !
b0010000111000001000 "
b111111100000 #
b111111010010 $
b11011110001111110000000 )
b1111111111111000 *
b0000000000001010 +
b1 .
#109
b0 .
#110
b000110111110 !
b0100100100100010100 "
b111100100100 #
b001001011100 $
b10110110110111011000000 )
b0000000000000100 *
b0000000000001100 +
b1 .
#111
b0 .
#112
b111011000111 !
b0111000010000100000 "
b110100001100 #
b000011000100 $
b10001111011111000000000 )
b0000000000001100 *
b0000000000000000 +
b1 .
#113
b0 .
#114
b110011101111 !
b1001011111100101100 "
b111101001010 #
b111101100100 $
b01101000000110101000000 )
b0000000000001000 *
b1111111111110110 +
b1 .
#115
b0 .
#116
b110111010001 !
b1011111101000111000 "
b111111001010 #
b000111111000 $
b01000000101110010000000 )
b1111111111111110 *
b1111111111110010 +
b1 .
#117
b0 .
#118
b000010101000 !
b1110011010101000100 "
b110101000110 #
b000101111010 $
b00011001010101111000000 )
b1111111111110100 *
b1111111111111010 +
b1 .
#119
b0 .
#120
b001011110100 !
b0000111000001010000 "
b111010101010 #
b111101010100 $
b11110001111101100000000 )
b1111111111110010 *
b0000000000000110 +
b1 .
#121
b0 .
#122
b001010101011 !
b0011010101101011100 "
b000000110010 #
b000101111000 $
b11001010100101001000000 )
b0000000000000000 *
b0000000000001100 +
b1 .
#123
b0 .
#124
b000000001111 !
b0101110011001101000 "
b110110100110 #
b001000100100 $
b10100011001100110000000 )
b0000000000001010 *
b0000000000000110 +
b1 .
#125
b0 .
#126
b110101101111 !
b1000010000101110100 "
b110111110100 #
b111110000110 $
b01111011110100011000000 )
b0000000000001100 *
b1111111111111100 +
b1 .
#127
b0 .
#128
b110100010110 !
b1010101110010000000 "
b000001001100 #
b000011000000 $
b01010100011100000000000 )
b0000000000000100 *
b1111111111110010 +
b1 .
#129
b0 .
#130
b111101011010 !
b1101001011110001100 "
b111001011010 #
b001001111000 $
b00101101000011101000000 )
b1111111111110110 *
b1111111111110100 +
b1 .
#131
b0 .
#132
b001000110100 !
b1111101001010011000 "
b110110000110 #
b000000001010 $
b00000101101011010000000 )
b1111111111110010 *
b0000000000000000 +
b1 .
#133
b0 .
#134
b001100101000 !
b0010000110110100100 "
b000000100010 #
b000000110000 $
b11011110010010111000000 )
b1111111111111000 *
b0000000000001010 +
b1 .
#135
b0 .
#136
b000101011010 !
b0100100100010110000 "
b111100010000 #
b001010010110 $
b10110110111010100000000 )
b0000000000000100 *
b0000000000001100 +
b1 .
#137
b0 .
#138
b111001100010 !
b0111000001110111100 "
b110100110010 #
b000010111100 $
b10001111100010001000000 )
b0000000000001100 *
b0000000000000000 +
b1 .
#139
b0 .
#140
b110011100010 !
b1001011111011001000 "
b111110011110 #
b111110101010 $
b01101000001001110000000 )
b0000000000000110 *
b1111111111110110 +
b1 .
#141
b0 .
#142
b111000100110 !
b1011111100111010100 "
b111111000010 #
b001001001000 $
b01000000110001011000000 )
b1111111111111110 *
b1111111111110010 +
b1 .
#143
b0 .
#144
b000100011000 !
b1110011010011100000 "
b110101010100 #
b000101110100 $
b00011001011001000000000 )
b1111111111110100 *
b1111111111111010 +
b1 .
#145
b0 .
#146
b001100010111 !
b0000110111111101100 "
b111100001000 #
b111110000100 $
b11110010000000101000000 )
b1111111111110010 *
b0000000000000110 +
b1 .
#147
b0 .
#148
b001001100111 !
b0011010101011111000 "
b000001000000 #
b000111010110 $
b11001010101000010000000 )
b1111111111111110 *
b0000000000001110 +
b1 .
#149
b0 .
#150
b111110100000 !
b0101110011000000100 "
b110110100010 #
b001000101010 $
b10100011001111111000000 )
b0000000000001010 *
b0000000000000110 +
b1 .
#151
b0 .
#152
b110100110100 !
b1000010000100010000 "
b111001001100 #
b111110011100 $
b01111011110111100000000 )
b1111111111111100 +
b1 .
#153
b0 .
#154
b110101000110 !
b1010101110000011100 "
b000001110100 #
b000100100010 $
b01010100011111001000000 )
b0000000000000010 *
b1111111111110010 +
b1 .
#155
b0 .
#156
b111111000110 !
b1101001011100101000 "
b111001001100 #
b001010001110 $
b00101101000110110000000 )
b1111111111111000 *
b1111111111110100 +
b1 .
#157
b0 .
#158
b001001111111 !
b1111101001000110100 "
b110111010000 #
b000000001010 $
b00000101101110011000000 )
b1111111111110010 *
b0000000000000000 +
b1 .
#159
b0 .
#160
b001100001100 !
b0010000110101000000 "
b000001100000 #
b000010001000 $
b11011110010110000000000 )
b1111111111111000 *
b0000000000001010 +
b1 .
#161
b0 .
#162
b000011101111 !
b0100100100001001100 "
b111100000000 #
b001011001000 $
b10110110111101101000000 )
b0000000000000100 *
b0000000000001100 +
b1 .
#163
b0 .
#164
b111000000110 !
b0111000001101011000 "
b110101101100 #
b000010101110 $
b10001111100101010000000 )
b0000000000001100 *
b0000000000000000 +
b1 .
#165
b0 .
#166
b110011100101 !
b1001011111001100100 "
b111111110100 #
b111111110100 $
b01101000001100111000000 )
b0000000000001010 *
b1111111111110110 +
b1 .
#167
b0 .
#168
b111010000110 !
b1011111100101110000 "
b111110111010 #
b001010001110 $
b01000000110100100000000 )
b1111111111111100 *
b1111111111110010 +
b1 .
#169
b0 .
#170
b000101111110 !
b1110011010001111100 "
b110101110000 #
b000101100100 $
b00011001011100001000000 )
b1111111111110100 *
b1111111111111010 +
b1 .
#171
b0 .
#172
b001100101100 !
b0000110111110001000 "
b111101101100 #
b111110110110 $
b11110010000011110000000 )
b1111111111110010 *
b0000000000000110 +
b1 .
#173
b0 .
#174
b001000010110 !
b0011010101010010100 "
b000001001110 #
b001000101110 $
b11001010101011011000000 )
b1111111111111110 *
b0000000000001100 +
b1 .
#175
b0 .
#176
b111100110001 !
b0101110010110100000 "
b110110101100 #
b001000100010 $
b10100011010011000000000 )
b0000000000001010 *
b0000000000000110 +
b1 .
#177
b0 .
#178
b110100001010 !
b1000010000010101100 "
b111010101110 #
b111110110010 $
b01111011111010101000000 )
b0000000000001100 *
b1111111111111100 +
b1 .
#179
b0 .
#180
b110110000100 !
b1010101101110111000 "
b000010011010 #
b000110000000 $
b01010100100010010000000 )
b0000000000000010 *
b1111111111110010 +
b1 .
#181
b0 .
#182
b000000111100 !
b1101001011011000100 "
b111001000110 #
b001010011010 $
b00101101001001111000000 )
b1111111111110110 *
b1111111111110100 +
b1 .
#183
b0 .
#184
b001011000001 !
b1111101000111010000 "
b111000100100 #
b000000001000 $
b00000101110001100000000 )
b1111111111110010 *
b0000000000000000 +
b1 .
#185
b0 .
#186
b001011100010 !
b0010000110011011100 "
b000010100010 #
b000011100100 $
b11011110011001001000000 )
b1111111111111000 *
b0000000000001000 +
b1 .
#187
b0 .
#188
b000010000000 !
b0100100011111101000 "
b111011110100 #
b001011101000 $
b10110111000000110000000 )
b0000000000000100 *
b0000000000001100 +
b1 .
#189
b0 .
#190
b110110110100 !
b0111000001011110100 "
b110110101100 #
b000010011110 $
b10001111101000011000000 )
b0000000000001100 *
b0000000000000000 +
b1 .
#191
b0 .
#192
b110011110111 !
b1001011111000000000 "
b000001001000 #
b000000111100 $
b01101000010000000000000 )
b0000000000001000 *
b1111111111110110 +
b1 .
#193
b0 .
#194
b111011101101 !
b1011111100100001100 "
b111110110110 #
b001011001000 $
b01000000110111101000000 )
b0000000000000000 *
b1111111111110010 +
b1 .
#195
b0 .
#196
b000111011111 !
b1110011010000011000 "
b110110011100 #
b000101010000 $
b00011001011111010000000 )
b1111111111110100 *
b1111111111111010 +
b1 .
#197
b0 .
#198
b001100110001 !
b0000110111100100100 "
b111111001100 #
b111111100110 $
b11110010000110111000000 )
b1111111111110010 *
b0000000000000110 +
b1 .
#199
b0 .
#200
b000110111011 !
b0011010101000110000 "
b000001011000 #
b001001111000 $
b11001010101110100000000 )
b1111111111111110 *
b0000000000001100 +
b1 .
#201
b0 .
#202
b111011000100 !
b0101110010100111100 "
b110111000010 #
b001000010000 $
b10100011010110001000000 )
b0000000000001010 *
b0000000000000110 +
b1 .
#203
b0 .
#204
b110011101101 !
b1000010000001001000 "
b111100010110 #
b111111001010 $
b01111011111101110000000 )
b0000000000001100 *
b1111111111111100 +
b1 .
#205
b0 .
#206
b110111010000 !
b1010101101101010100 "
b000010111100 #
b000111010100 $
b01010100100101011000000 )
b0000000000000010 *
b1111111111110010 +
b1 .
#207
b0 .
#208
b000010101011 !
b1101001011001100000 "
b111001001010 #
b001010010110 $
b00101101001101000000000 )
b1111111111111000 *
b1 .
#209
b0 .
#210
b001011110100 !
b1111101000101101100 "
b111010000110 #
b000000000110 $
b00000101110100101000000 )
b1111111111110010 *
b0000000000000000 +
b1 .
#211
b0 .
#212
b001010101011 !
b0010000110001111000 "
b000011011110 #
b000100110100 $
b11011110011100010000000 )
b1111111111111000 *
b0000000000001010 +
b1 .
#213
b0 .
#214
b000000001111 !
b0100100011110000100 "
b111011110000 #
b001011111100 $
b10110111000011111000000 )
b0000000000000100 *
b0000000000001100 +
b1 .
#215
b0 .
#216
b110101101111 !
b0111000001010010000 "
b110111111100 #
b000010001000 $
b10001111101011100000000 )
b0000000000001100 *
b0000000000000010 +
b1 .
#217
b0 .
#218
b110100011000 !
b1001011110110011100 "
b000010011110 #
b000010000100 $
b01101000010011001000000 )
b0000000000001010 *
b1111111111110110 +
b1 .
#219
b0 .
#220
b111101011000 !
b1011111100010101000 "
b111110110010 #
b001011110010 $
b01000000111010110000000 )
b1111111111111100 *
b1111111111110010 +
b1 .
#221
b0 .
#222
b001000110110 !
b1110011001110110100 "
b110111010010 #
b000100110010 $
b00011001100010011000000 )
b1111111111110010 *
b1111111111111010 +
b1 .
#223
b0 .
#224
b001100101000 !
b0000110111011000000 "
b000000110110 #
b000000011000 $
b11110010001010000000000 )
b0000000000000110 +
b1 .
#225
b0 .
#226
b000101011001 !
b0011010100111001100 "
b000001100010 #
b001010111000 $
b11001010110001101000000 )
b1111111111111110 *
b0000000000001100 +
b1 .
#227
b0 .
#228
b111001100011 !
b0101110010011011000 "
b110111100000 #
b000111110010 $
b10100011011001010000000 )
b0000000000001010 *
b0000000000000110 +
b1 .
#229
b0 .
#230
b110011100000 !
b1000001111111100100 "
b111110000010 #
b111111100100 $
b01111100000000111000000 )
b0000000000001100 *
b1111111111111100 +
b1 .
#231
b0 .
#232
b111000100101 !
b1010101101011110000 "
b000011011010 #
b001000100010 $
b01010100101000100000000 )
b0000000000000010 *
b1111111111110010 +
b1 .
#233
b0 .
#234
b000100011000 !
b1101001010111111100 "
b111001010100 #
b001010001000 $
b00101101010000001000000 )
b1111111111110110 *
b1111111111110110 +
b1 .
#235
b0 .
#236
b001100011001 !
b1111101000100001000 "
b111011101100 #
b000000000100 $
b00000101110111110000000 )
b1111111111110010 *
b0000000000000000 +
b1 .
#237
b0 .
#238
b001001100111 !
b0010000110000010100 "
b000100011000 #
b000110000100 $
b11011110011111011000000 )
b1111111111111000 *
b0000000000001010 +
b1 .
#239
b0 .
#240
b111110011111 !
b0100100011100100000 "
b111011101110 #
b001100000000 $
b10110111000111000000000 )
b0000000000000100 *
b0000000000001100 +
b1 .
#241
b0 .
#242
b110100110101 !
b0111000001000101100 "
b111001010100 #
b000001110010 $
b10001111101110101000000 )
b0000000000001100 *
b0000000000000010 +
b1 .
#243
b0 .
#244
b110101001001 !
b1001011110100111000 "
b000011110000 #
b000011001100 $
b01101000010110010000000 )
b0000000000001000 *
b1111111111110110 +
b1 .
#245
b0 .
#246
b111111001001 !
b1011111100001000100 "
b111110110000 #
b001100001110 $
b01000000111101111000000 )
b1111111111111110 *
b1111111111110010 +
b1 .
#247
b0 .
#248
b001010000001 !
b1110011001101010000 "
b111000010110 #
b000100001110 $
b00011001100101100000000 )
b1111111111110010 *
b1111111111111010 +
b1 .
#249
b0 .
#250
b001100001101 !
b0000110111001011100 "
b000010011000 #
b000001001010 $
b11110010001101001000000 )
b0000000000000100 +
b1 .
#251
b0 .
#252
b000011110001 !
b0011010100101101000 "
b000001101100 #
b001011101100 $
b11001010110100110000000 )
b1111111111111110 *
b0000000000001100 +
b1 .
#253
b0 .
#254
b111000000110 !
b0101110010001110100 "
b111000001010 #
b000111001110 $
b10100011011100011000000 )
b0000000000001010 *
b0000000000000110 +
b1 .
#255
b0 .
#256
b110011100100 !
b1000001111110000000 "
b111111110000 #
b111111111110 $
b01111100000100000000000 )
b0000000000001100 *
b1111111111111100 +
b1 .
#257
b0 .
#258
b111010000110 !
b1010101101010001100 "
b000011110100 #
b001001100000 $
b01010100101011101000000 )
b0000000000000100 *
b1111111111110010 +
b1 .
#259
b0 .
#260
b000101111110 !
b1101001010110011000 "
b111001100110 #
b001001101100 $
b00101101010011010000000 )
b1111111111111000 *
b1111111111110100 +
b1 .
#261
b0 .
#262
b001100101111 !
b1111101000010100100 "
b111101010110 #
b000000000010 $
b00000101111010111000000 )
b1111111111110010 *
b0000000000000000 +
b1 .
#263
b0 .
#264
b001000010111 !
b0010000101110110000 "
b000101001010 #
b000111001010 $
b11011110100010100000000 )
b1111111111111000 *
b0000000000001010 +
b1 .
#265
b0 .
#266
b111100110001 !
b0100100011010111100 "
b111011110100 #
b001011111000 $
b10110111001010001000000 )
b0000000000000100 *
b0000000000001100 +
b1 .
#267
b0 .
#268
b110100001001 !
b0111000000111001000 "
b111010110010 #
b000001011010 $
b10001111110001110000000 )
b0000000000001100 *
b0000000000000010 +
b1 .
#269
b0 .
#270
b110110000101 !
b1001011110011010100 "
b000100111100 #
b000100001010 $
b01101000011001011000000 )
b0000000000001000 *
b1111111111110110 +
b1 .
#271
b0 .
#272
b000000111000 !
b1011111011111100000 "
b111110110000 #
b001100011100 $
b01000001000001000000000 )
b1111111111111110 *
b1111111111110010 +
b1 .
#273
b0 .
#274
b001011000010 !
b1110011001011101100 "
b111001100000 #
b000011100110 $
b00011001101000101000000 )
b1111111111110010 *
b1111111111111010 +
b1 .
#275
b0 .
#276
b001011100100 !
b0000110110111111000 "
b000011111010 #
b000001111010 $
b11110010010000010000000 )
b0000000000000100 +
b1 .
#277
b0 .
#278
b000010000000 !
b0011010100100000100 "
b000001110000 #
b001100010000 $
b11001010110111111000000 )
b1111111111111110 *
b0000000000001100 +
b1 .
#279
b0 .
#280
b110110110100 !
b0101110010000010000 "
b111000111100 #
b000110100010 $
b10100011011111100000000 )
b0000000000001010 *
b0000000000000110 +
b1 .
#281
b0 .
#282
b110011110101 !
b1000001111100011100 "
b000001011110 #
b000000010100 $
b01111100000111001000000 )
b0000000000001100 *
b1111111111111100 +
b1 .
#283
b0 .
#284
b111011101011 !
b1010101101000101000 "
b000100001100 #
b001010010110 $
b01010100101110110000000 )
b0000000000000100 *
b1111111111110010 +
b1 .
#285
b0 .
#286
b000111011101 !
b1101001010100110100 "
b111010000010 #
b001001000100 $
b00101101010110011000000 )
b1111111111110110 *
b1111111111110100 +
b1 .
#287
b0 .
#288
b001100110100 !
b1111101000001000000 "
b111111001000 #
b000000000000 $
b00000101111110000000000 )
b1111111111110010 *
b0000000000000000 +
b1 .
#289
b0 .
#290
b000110111110 !
b0010000101101001100 "
b000101111000 #
b001000000110 $
b11011110100101101000000 )
b1111111111111000 *
b0000000000001100 +
b1 .
#291
b0 .
#292
b111011000101 !
b0100100011001011000 "
b111011111100 #
b001011100000 $
b10110111001101010000000 )
b0000000000000100 *
b1 .
#293
b0 .
#294
b110011101101 !
b0111000000101100100 "
b111100011000 #
b000000111100 $
b10001111110100111000000 )
b0000000000001100 *
b0000000000000010 +
b1 .
#295
b0 .
#296
b110111010000 !
b1001011110001110000 "
b000110000010 #
b000101000110 $
b01101000011100100000000 )
b0000000000001000 *
b1111111111110110 +
b1 .
#297
b0 .
#298
b000010101001 !
b1011111011101111100 "
b111110110010 #
b001100011000 $
b01000001000100001000000 )
b1111111111111110 *
b1111111111110010 +
b1 .
#299
b0 .
#300
b001011110010 !
b1110011001010001000 "
b111010110110 #
b000010110110 $
b00011001101011110000000 )
b1111111111110100 *
b1111111111111010 +
b1 .
#301
b0 .
#302
b001010101011 !
b0000110110110010100 "
b000101010110 #
b000010101000 $
b11110010010011011000000 )
b1111111111110010 *
b0000000000000110 +
b1 .
#303
b0 .
#304
b000000010001 !
b0011010100010100000 "
b000001110110 #
b001100100100 $
b11001010111011000000000 )
b1111111111111110 *
b0000000000001100 +
b1 .
#305
b0 .
#306
b110101101110 !
b0101110001110101100 "
b111001111000 #
b000101101100 $
b10100011100010101000000 )
b0000000000001010 *
b0000000000000110 +
b1 .
#307
b0 .
#308
b110100010110 !
b1000001111010111000 "
b000011001010 #
b000000101100 $
b01111100001010010000000 )
b0000000000001100 *
b1111111111111100 +
b1 .
#309
b0 .
#310
b111101011001 !
b1010101100111000100 "
b000100011110 #
b001010111110 $
b01010100110001111000000 )
b0000000000000010 *
b1111111111110010 +
b1 .
#311
b0 .
#312
b001000110100 !
b1101001010011010000 "
b111010100100 #
b001000010010 $
b00101101011001100000000 )
b1111111111110110 *
b1111111111110100 +
b1 .
#313
b0 .
#314
b001100101000 !
b1111100111111011100 "
b000000110110 #
b111111111110 $
b00000110000001001000000 )
b1111111111110010 *
b0000000000000000 +
b1 .
#315
b0 .
#316
b000101011010 !
b0010000101011101000 "
b000110011110 #
b001000111010 $
b11011110101000110000000 )
b1111111111111000 *
b0000000000001100 +
b1 .
#317
b0 .
#318
b111001100011 !
b0100100010111110100 "
b111100001010 #
b001010111010 $
b10110111010000011000000 )
b0000000000000100 *
b1 .
#319
b0 .
#320
b110011100010 !
b0111000000100000000 "
b111110000100 #
b000000100010 $
b10001111111000000000000 )
b0000000000001100 *
b0000000000000010 +
b1 .
#321
b0 .
#322
b111000100110 !
b1001011110000001100 "
b000111000010 #
b000101111000 $
b01101000011111101000000 )
b0000000000001000 *
b1111111111110110 +
b1 .
#323
b0 .
#324
b000100010110 !
b1011111011100011000 "
b111110110100 #
b001100001000 $
b01000001000111010000000 )
b1111111111111100 *
b1111111111110010 +
b1 .
#325
b0 .
#326
b001100010111 !
b1110011001000100100 "
b111100001100 #
b000010000100 $
b00011001101110111000000 )
b1111111111110100 *
b1111111111111010 +
b1 .
#327
b0 .
#328
b001001101000 !
b0000110110100110000 "
b000110101010 #
b000011010000 $
b11110010010110100000000 )
b1111111111110010 *
b0000000000000110 +
b1 .
#329
b0 .
#330
b111110011111 !
b0011010100000111100 "
b000001111000 #
b001100101010 $
b11001010111110001000000 )
b1111111111111110 *
b0000000000001100 +
b1 .
#331
b0 .
#332
b110100110111 !
b0101110001101001000 "
b111010111000 #
b000100110000 $
b10100011100101110000000 )
b0000000000001010 *
b0000000000000110 +
b1 .
#333
b0 .
#334
b110101000110 !
b1000001111001010100 "
b000100110010 #
b000001000010 $
b01111100001101011000000 )
b1111111111111100 +
b1 .
#335
b0 .
#336
b111111001001 !
b1010101100101100000 "
b000100101000 #
b001011011000 $
b01010100110101000000000 )
b0000000000000010 *
b1111111111110010 +
b1 .
#337
b0 .
#338
b001010000000 !
b1101001010001101100 "
b111011001110 #
b000111010100 $
b00101101011100101000000 )
b1111111111110110 *
b1111111111110100 +
b1 .
#339
b0 .
#340
b001100001101 !
b1111100111101111000 "
b000010101010 #
b111111111010 $
b00000110000100010000000 )
b1111111111110010 *
b0000000000000000 +
b1 .
#341
b0 .
#342
b000011110000 !
b0010000101010000100 "
b000110111100 #
b001001100000 $
b11011110101011111000000 )
b1111111111111000 *
b0000000000001010 +
b1 .
#343
b0 .
#344
b111000000111 !
b0100100010110010000 "
b111100011110 #
b001010000100 $
b10110111010011100000000 )
b0000000000000100 *
b0000000000001100 +
b1 .
#345
b0 .
