2.soc-litex/3.build/dump.vcd
$date
	2025-06-25 00:27
$end
$timescale 7692ps $end
$scope dumped_signals $end
$var wire 12 ! main_debug_filter_in $end
$var wire 19 " main_debug_phase2 $end
$var wire 12 # main_debug_xval_downconverted $end
$var wire 12 $ main_debug_yval_downconverted $end
$var wire 16 % main_debug_downsampledX $end
$var wire 16 & main_debug_downsampledY $end
$var wire 16 ' main_debug_upsampledX $end
$var wire 16 ( main_debug_upsampledY $end
$var wire 23 ) main_debug_phase2_inv_alt $end
$var wire 16 * main_debug_xval_upconverted $end
$var wire 16 + main_debug_yval_upconverted $end
$var wire 1 , main_debug_ce_out_down_x $end
$var wire 1 - main_debug_ce_out_up_x $end
$var wire 1 . scope_clk $end
$var wire 1 / scope_trig $end
$unscope  $end
$enddefinitions  $end
$dumpvars
bxxxxxxxxxxxx !
bxxxxxxxxxxxxxxxxxxx "
bxxxxxxxxxxxx #
bxxxxxxxxxxxx $
bxxxxxxxxxxxxxxxx %
bxxxxxxxxxxxxxxxx &
bxxxxxxxxxxxxxxxx '
bxxxxxxxxxxxxxxxx (
bxxxxxxxxxxxxxxxxxxxxxxx )
bxxxxxxxxxxxxxxxx *
bxxxxxxxxxxxxxxxx +
bx ,
bx -
bx .
bx /
$end
#0
b001000111111 !
b1110000010101101100 "
b111000000000 #
b000110000000 $
b1111111111110010 %
b1111111111110010 &
b1111111111110111 '
b1111111111110111 (
b00011111010100101000000 )
b1111111111110100 *
b1111111111110110 +
b0 ,
b0 -
b1 .
b0 /
#1
b0 .
#2
b001100101011 !
b0000100000001111000 "
b000000111110 #
b000000010100 $
b11110111111100010000000 )
b1111111111110010 *
b0000000000000010 +
b1 .
#3
b0 .
#4
b000101001110 !
b0010111101110000100 "
b000011000110 #
b001010101100 $
b11010000100011111000000 )
b1111111111111100 *
b0000000000001100 +
b1 .
#5
b0 .
#6
b111001001111 !
b0101011011010010000 "
b111000101110 #
b001000111010 $
b10101001001011100000000 )
b0000000000001000 *
b0000000000001010 +
b1 .
#7
b0 .
#8
b110011011000 !
b0111111000110011100 "
b111110001110 #
b111111110100 $
b10000001110011001000000 )
b0000000000001100 *
b1111111111111110 +
b1 .
#9
b0 .
#10
b111000100111 !
b1010010110010101000 "
b000100110000 #
b001000001010 $
b01011010011010110000000 )
b0000000000000100 *
b1111111111110010 +
b1 .
#11
b0 .
#12
b000100100011 !
b1100110011110110100 "
b111010101110 #
b001011000110 $
b00110011000010011000000 )
b1111111111111000 *
b1111111111110100 +
b1 .
#13
b0 .
#14
b001100100100 !
b1111010001011000000 "
b111011110100 #
b000000101100 $
b00001011101010000000000 )
b1111111111110010 *
b1111111111111110 +
b1 .
#15
b0 .
#16
b001001100010 !
b0001101110111001100 "
b000101010010 #
b000101011110 $
b11100100010001101000000 )
b1111111111110110 *
b0000000000001010 +
b1 .
#17
b0 .
#18
b111110001111 !
b0100001100011011000 "
b111101011110 #
b001100100110 $
b10111100111001010000000 )
b0000000000000010 *
b0000000000001100 +
b1 .
#19
b0 .
#20
b110100100101 !
b0110101001111100100 "
b111001101110 #
b000010101100 $
b10010101100000111000000 )
b0000000000001100 *
b0000000000000100 +
b1 .
#21
b0 .
#22
b110101000100 !
b1001000111011110000 "
b000100010110 #
b000010101110 $
b01101110001000100000000 )
b0000000000001010 *
b1111111111111000 +
b1 .
#23
b0 .
#24
b111111010010 !
b1011100100111111100 "
b000000100010 #
b001100011110 $
b01000110110000001000000 )
b0000000000000000 *
b1111111111110010 +
b1 .
#25
b0 .
#26
b001010001100 !
b1110000010100001000 "
b111001000000 #
b000101010000 $
b00011111010111110000000 )
b1111111111110100 *
b1111111111111000 +
b1 .
#27
b0 .
#28
b001100010000 !
b0000100000000010100 "
b000010101010 #
b000000110110 $
b11110111111111011000000 )
b1111111111110010 *
b0000000000000010 +
b1 .
#29
b0 .
#30
b000011100011 !
b0010111101100100000 "
b000011010110 #
b001011011100 $
b11010000100111000000000 )
b1111111111111100 *
b0000000000001100 +
b1 .
#31
b0 .
#32
b110111110101 !
b0101011011000101100 "
b111001010100 #
b001000001110 $
b10101001001110101000000 )
b0000000000001000 *
b0000000000001010 +
b1 .
b1 /
#33
b0 .
#34
b110011011010 !
b0111111000100111000 "
b111111111110 #
b000000000000 $
b10000001110110010000000 )
b0000000000001010 *
b1111111111111110 +
b1 .
#35
b0 .
#36
b111010001001 !
b1010010110001000100 "
b000101010010 #
b001001000100 $
b01011010011101111000000 )
b0000000000000100 *
b1111111111110010 +
b1 .
#37
b0 .
#38
b000110001001 !
b1100110011101010000 "
b111011000000 #
b001010100110 $
b00110011000101100000000 )
b1111111111111000 *
b1111111111110100 +
b1 .
#39
b0 .
#40
b001100110100 !
b1111010001001011100 "
b111101100000 #
b000000011010 $
b00001011101101001000000 )
b1111111111110010 *
b0000000000000000 +
b1 .
#41
b0 .
#42
b001000010001 !
b0001101110101101000 "
b000110001110 #
b000110011100 $
b11100100010100110000000 )
b1111111111110110 *
b0000000000001000 +
b1 .
#43
b0 .
#44
b111100100001 !
b0100001100001110100 "
b111101100000 #
b001100011010 $
b10111100111100011000000 )
b0000000000000010 *
b0000000000001100 +
b1 .
#45
b0 .
#46
b110011111101 !
b0110101001110000000 "
b111011001110 #
b000010000010 $
b10010101100100000000000 )
b0000000000001100 *
b0000000000000100 +
b1 .
#47
b0 .
#48
b110110000010 !
b1001000111010001100 "
b000101101110 #
b000011100110 $
b01101110001011101000000 )
b1111111111111000 +
b1 .
#49
b0 .
#50
b000001000100 !
b1011100100110011000 "
b000000100100 #
b001100100110 $
b01000110110011010000000 )
b0000000000000000 *
b1111111111110010 +
b1 .
#51
b0 .
#52
b001011001101 !
b1110000010010100100 "
b111010000110 #
b000100011100 $
b00011111011010111000000 )
b1111111111110100 *
b1111111111110110 +
b1 .
#53
b0 .
#54
b001011100010 !
b0000011111110110000 "
b000100010100 #
b000001011010 $
b11111000000010100000000 )
b1111111111110010 *
b0000000000000100 +
b1 .
#55
b0 .
#56
b000001110101 !
b0010111101010111100 "
b000011100010 #
b001100000010 $
b11010000101010001000000 )
b1111111111111100 *
b0000000000001100 +
b1 .
#57
b0 .
#58
b110110100010 !
b0101011010111001000 "
b111010000000 #
b000111011010 $
b10101001010001110000000 )
b0000000000001000 *
b0000000000001010 +
b1 .
#59
b0 .
#60
b110011101111 !
b0111111000011010100 "
b000001110000 #
b000000001000 $
b10000001111001011000000 )
b0000000000001100 *
b1111111111111110 +
b1 .
#61
b0 .
#62
b111011110000 !
b1010010101111100000 "
b000101110000 #
b001001110110 $
b01011010100001000000000 )
b0000000000000100 *
b1111111111110010 +
b1 .
#63
b0 .
#64
b000111100111 !
b1100110011011101100 "
b111011010110 #
b001001111000 $
b00110011001000101000000 )
b1111111111111010 *
b1 .
#65
b0 .
#66
b001100111000 !
b1111010000111111000 "
b111111010010 #
b000000000110 $
b00001011110000010000000 )
b1111111111110010 *
b1111111111111110 +
b1 .
#67
b0 .
#68
b000110110110 !
b0001101110100000100 "
b000111000100 #
b000111010100 $
b11100100010111111000000 )
b1111111111110110 *
b0000000000001010 +
b1 .
#69
b0 .
#70
b111010111000 !
b0100001100000010000 "
b111101100110 #
b001100000000 $
b10111100111111100000000 )
b0000000000000010 *
b0000000000001100 +
b1 .
#71
b0 .
#72
b110011011111 !
b0110101001100011100 "
b111100110000 #
b000001011000 $
b10010101100111001000000 )
b0000000000001100 *
b0000000000000100 +
b1 .
#73
b0 .
#74
b110111001110 !
b1001000111000101000 "
b000110111010 #
b000100010100 $
b01101110001110110000000 )
b0000000000001010 *
b1111111111111000 +
b1 .
#75
b0 .
#76
b000010110001 !
b1011100100100110100 "
b000000100100 #
b001100100100 $
b01000110110110011000000 )
b0000000000000000 *
b1111111111110010 +
b1 .
#77
b0 .
#78
b001011111100 !
b1110000010001000000 "
b111011010100 #
b000011100010 $
b00011111011110000000000 )
b1111111111110100 *
b1111111111111000 +
b1 .
#79
b0 .
#80
b001010101101 !
b0000011111101001100 "
b000101110100 #
b000001111000 $
b11111000000101101000000 )
b1111111111110010 *
b0000000000000100 +
b1 .
#81
b0 .
#82
b000000000010 !
b0010111101001011000 "
b000011100110 #
b001100010010 $
b11010000101101010000000 )
b1111111111111100 *
b0000000000001100 +
b1 .
#83
b0 .
#84
b110101011110 !
b0101011010101100100 "
b111010110010 #
b000110011100 $
b10101001010100111000000 )
b0000000000001000 *
b0000000000001010 +
b1 .
#85
b0 .
#86
b110100010000 !
b0111111000001110000 "
b000011011100 #
b000000010000 $
b10000001111100100000000 )
b0000000000001100 *
b1111111111111110 +
b1 .
#87
b0 .
#88
b111101011110 !
b1010010101101111100 "
b000110000100 #
b001010011010 $
b01011010100100001000000 )
b0000000000000100 *
b1111111111110010 +
b1 .
#89
b0 .
#90
b001000111110 !
b1100110011010001000 "
b111011110010 #
b001001000010 $
b00110011001011110000000 )
b1111111111111010 *
b1111111111110100 +
b1 .
#91
b0 .
#92
b001100101010 !
b1111010000110010100 "
b000001000010 #
b111111110010 $
b00001011110011011000000 )
b1111111111110010 *
b1111111111111110 +
b1 .
#93
b0 .
#94
b000101001110 !
b0001101110010100000 "
b000111110010 #
b001000000000 $
b11100100011011000000000 )
b1111111111110110 *
b0000000000001010 +
b1 .
#95
b0 .
#96
b111001010010 !
b0100001011110101100 "
b111101110000 #
b001011010010 $
b10111101000010101000000 )
b0000000000000010 *
b0000000000001100 +
b1 .
#97
b0 .
#98
b110011010101 !
b0110101001010111000 "
b111110010100 #
b000000110000 $
b10010101101010010000000 )
b0000000000001100 *
b0000000000000100 +
b1 .
#99
b0 .
#100
b111000100111 !
b1001000110111000100 "
b001000000000 #
b000101000000 $
b01101110010001111000000 )
b0000000000001010 *
b1111111111111000 +
b1 .
#101
b0 .
#102
b000100100000 !
b1011100100011010000 "
b000000100100 #
b001100001110 $
b01000110111001100000000 )
b0000000000000000 *
b1111111111110010 +
b1 .
#103
b0 .
#104
b001100100000 !
b1110000001111011100 "
b111100100110 #
b000010100100 $
b00011111100001001000000 )
b1111111111110100 *
b1111111111111000 +
b1 .
#105
b0 .
#106
b001001100010 !
b0000011111011101000 "
b000111001110 #
b000010010110 $
b11111000001000110000000 )
b1111111111110010 *
b0000000000000100 +
b1 .
#107
b0 .
#108
b111110001111 !
b0010111100111110100 "
b000011101010 #
b001100010110 $
b11010000110000011000000 )
b1111111111111100 *
b0000000000001100 +
b1 .
#109
b0 .
#110
b110100100110 !
b0101011010100000000 "
b111011101100 #
b000101010100 $
b10101001011000000000000 )
b0000000000001000 *
b0000000000001010 +
b1 .
#111
b0 .
#112
b110101000010 !
b0111111000000001100 "
b000101000110 #
b000000011000 $
b10000001111111101000000 )
b0000000000001100 *
b1111111111111110 +
b1 .
#113
b0 .
#114
b111111010001 !
b1010010101100011000 "
b000110010100 #
b001010110010 $
b01011010100111010000000 )
b0000000000000110 *
b1111111111110010 +
b1 .
#115
b0 .
#116
b001010001001 !
b1100110011000100100 "
b111100010010 #
b000111111100 $
b00110011001110111000000 )
b1111111111111000 *
b1111111111110100 +
b1 .
#117
b0 .
#118
b001100001101 !
b1111010000100110000 "
b000010101110 #
b111111100010 $
b00001011110110100000000 )
b1111111111110010 *
b1111111111111100 +
b1 .
#119
b0 .
#120
b000011100100 !
b0001101110000111100 "
b001000010110 #
b001000100010 $
b11100100011110001000000 )
b1111111111110110 *
b0000000000001010 +
b1 .
#121
b0 .
#122
b110111110100 !
b0100001011101001000 "
b111101111010 #
b001010011110 $
b10111101000101110000000 )
b0000000000000010 *
b0000000000001100 +
b1 .
#123
b0 .
#124
b110011011001 !
b0110101001001010100 "
b111111111110 #
b000000000000 $
b10010101101101011000000 )
b0000000000001100 *
b0000000000000100 +
b1 .
#125
b0 .
#126
b111010001001 !
b1001000110101100000 "
b001000111010 #
b000101100010 $
b01101110010101000000000 )
b0000000000001010 *
b1111111111111000 +
b1 .
#127
b0 .
#128
b000110001001 !
b1011100100001101100 "
b000000100100 #
b001011101110 $
b01000110111100101000000 )
b0000000000000000 *
b1111111111110010 +
b1 .
#129
b0 .
#130
b001100110100 !
b1110000001101111000 "
b111101111110 #
b000001100000 $
b00011111100100010000000 )
b1111111111110010 *
b1111111111111000 +
b1 .
#131
b0 .
#132
b001000001111 !
b0000011111010000100 "
b001000100010 #
b000010110000 $
b11111000001011111000000 )
b0000000000000010 +
b1 .
#133
b0 .
#134
b111100100001 !
b0010111100110010000 "
b000011100110 #
b001100001000 $
b11010000110011100000000 )
b1111111111111100 *
b0000000000001100 +
b1 .
#135
b0 .
#136
b110011111011 !
b0101011010010011100 "
b111100101110 #
b000100000010 $
b10101001011011001000000 )
b0000000000001000 *
b0000000000001010 +
b1 .
#137
b0 .
#138
b110110000101 !
b0111110111110101000 "
b000110101100 #
b000000011110 $
b10000010000010110000000 )
b0000000000001100 *
b1111111111111110 +
b1 .
#139
b0 .
#140
b000001000110 !
b1010010101010110100 "
b000110011010 #
b001010111010 $
b01011010101010011000000 )
b0000000000000110 *
b1111111111110010 +
b1 .
#141
b0 .
#142
b001011001011 !
b1100110010111000000 "
b111100111000 #
b000110101010 $
b00110011010010000000000 )
b1111111111111000 *
b1111111111110100 +
b1 .
#143
b0 .
#144
b001011100001 !
b1111010000011001100 "
b000100011010 #
b111111001110 $
b00001011111001101000000 )
b1111111111110010 *
b0000000000000000 +
b1 .
#145
b0 .
#146
b000001110001 !
b0001101101111011000 "
b001000101110 #
b001000111010 $
b11100100100001010000000 )
b1111111111110110 *
b0000000000001010 +
b1 .
#147
b0 .
#148
b110110100010 !
b0100001011011100100 "
b111110001010 #
b001001010110 $
b10111101001000111000000 )
b0000000000000010 *
b0000000000001100 +
b1 .
#149
b0 .
#150
b110011101110 !
b0110101000111110000 "
b000001100110 #
b111111010010 $
b10010101110000100000000 )
b0000000000001100 *
b0000000000000100 +
b1 .
#151
b0 .
#152
b111011110010 !
b1001000110011111100 "
b001001101100 #
b000110000000 $
b01101110011000001000000 )
b0000000000001010 *
b1111111111111000 +
b1 .
#153
b0 .
#154
b000111101010 !
b1011100100000001000 "
b000000100010 #
b001010111100 $
b01000110111111110000000 )
b0000000000000000 *
b1111111111110010 +
b1 .
#155
b0 .
#156
b001100110111 !
b1110000001100010100 "
b111111011010 #
b000000011100 $
b00011111100111011000000 )
b1111111111110100 *
b1111111111110110 +
b1 .
#157
b0 .
#158
b000110110010 !
b0000011111000100000 "
b001001101000 #
b000011000110 $
b11111000001111000000000 )
b1111111111110010 *
b0000000000000010 +
b1 .
#159
b0 .
#160
b111010110011 !
b0010111100100101100 "
b000011011110 #
b001011101100 $
b11010000110110101000000 )
b1111111111111100 *
b0000000000001010 +
b1 .
#161
b0 .
#162
b110011100000 !
b0101011010000111000 "
b111101110000 #
b000010110000 $
b10101001011110010000000 )
b0000000000001000 *
b1 .
#163
b0 .
#164
b110111010000 !
b0111110111101000100 "
b001000001010 #
b000000100100 $
b10000010000101111000000 )
b0000000000001100 *
b1111111111111110 +
b1 .
#165
b0 .
#166
b000010110101 !
b1010010101001010000 "
b000110011010 #
b001010110110 $
b01011010101101100000000 )
b0000000000000110 *
b1111111111110010 +
b1 .
#167
b0 .
#168
b001011111101 !
b1100110010101011100 "
b111101100000 #
b000101010100 $
b00110011010101001000000 )
b1111111111111000 *
b1111111111110100 +
b1 .
#169
b0 .
#170
b001010101010 !
b1111010000001101000 "
b000110000100 #
b111110111100 $
b00001011111100110000000 )
b1111111111110010 *
b0000000000000000 +
b1 .
#171
b0 .
#172
b000000000000 !
b0001101101101110100 "
b001000111100 #
b001001001000 $
b11100100100100011000000 )
b1111111111110110 *
b0000000000001010 +
b1 .
#173
b0 .
#174
b110101011101 !
b0100001011010000000 "
b111110011100 #
b001000000100 $
b10111101001100000000000 )
b0000000000000010 *
b0000000000001100 +
b1 .
#175
b0 .
#176
b110100010010 !
b0110101000110001100 "
b000011001100 #
b111110100110 $
b10010101110011101000000 )
b0000000000001100 *
b0000000000000100 +
b1 .
#177
b0 .
#178
b111101100100 !
b1001000110010011000 "
b001010010000 #
b000110010110 $
b01101110011011010000000 )
b0000000000001010 *
b1111111111111000 +
b1 .
#179
b0 .
#180
b001001000001 !
b1011100011110100100 "
b000000100000 #
b001001111000 $
b01000111000010111000000 )
b0000000000000000 *
b1111111111110010 +
b1 .
#181
b0 .
#182
b001100101100 !
b1110000001010110000 "
b000000110110 #
b111111010100 $
b00011111101010100000000 )
b1111111111110010 *
b1111111111111000 +
b1 .
#183
b0 .
#184
b000101001101 !
b0000011110110111100 "
b001010101000 #
b000011011010 $
b11111000010010001000000 )
b0000000000000010 +
b1 .
#185
b0 .
#186
b111001001111 !
b0010111100011001000 "
b000011010010 #
b001011000000 $
b11010000111001110000000 )
b1111111111111100 *
b0000000000001010 +
b1 .
#187
b0 .
#188
b110011010101 !
b0101011001111010100 "
b111110111000 #
b000001010110 $
b10101001100001011000000 )
b0000000000001000 *
b1 .
#189
b0 .
#190
b111000100111 !
b0111110111011100000 "
b001001011100 #
b000000101010 $
b10000010001001000000000 )
b0000000000001100 *
b1111111111111110 +
b1 .
#191
b0 .
#192
b000100100011 !
b1010010100111101100 "
b000110010000 #
b001010100100 $
b01011010110000101000000 )
b0000000000000110 *
b1111111111110010 +
b1 .
#193
b0 .
#194
b001100011111 !
b1100110010011111000 "
b111110001110 #
b000011110010 $
b00110011011000010000000 )
b1111111111111000 *
b1111111111110100 +
b1 .
#195
b0 .
#196
b001001100100 !
b1111010000000000100 "
b000111100010 #
b111110101010 $
b00001011111111111000000 )
b1111111111110010 *
b0000000000000000 +
b1 .
#197
b0 .
#198
b111110001111 !
b0001101101100010000 "
b001001000000 #
b001001001010 $
b11100100100111100000000 )
b1111111111110110 *
b0000000000001010 +
b1 .
#199
b0 .
#200
b110100100100 !
b0100001011000011100 "
b111110101100 #
b000110101000 $
b10111101001111001000000 )
b0000000000000010 *
b0000000000001100 +
b1 .
#201
b0 .
#202
b110101000010 !
b0110101000100101000 "
b000100110000 #
b111101111010 $
b10010101110110110000000 )
b0000000000001100 *
b0000000000000100 +
b1 .
#203
b0 .
#204
b111111010010 !
b1001000110000110100 "
b001010101000 #
b000110100010 $
b01101110011110011000000 )
b0000000000001010 *
b1111111111111000 +
b1 .
#205
b0 .
#206
b001010001101 !
b1011100011101000000 "
b000000011100 #
b001000101110 $
b01000111000110000000000 )
b0000000000000000 *
b1111111111110010 +
b1 .
#207
b0 .
#208
b001100001110 !
b1110000001001001100 "
b000010010000 #
b111110010010 $
b00011111101101101000000 )
b1111111111110100 *
b1111111111110110 +
b1 .
#209
b0 .
#210
b000011100011 !
b0000011110101011000 "
b001011011000 #
b000011101000 $
b11111000010101010000000 )
b1111111111110010 *
b0000000000000100 +
b1 .
#211
b0 .
#212
b110111110110 !
b0010111100001100100 "
b000011000100 #
b001010001100 $
b11010000111100111000000 )
b1111111111111100 *
b0000000000001100 +
b1 .
#213
b0 .
#214
b110011011000 !
b0101011001101110000 "
b000000000000 #
b000000000000 $
b10101001100100100000000 )
b0000000000001000 *
b0000000000001010 +
b1 .
#215
b0 .
#216
b111010001000 !
b0111110111001111100 "
b001010100000 #
b000000110000 $
b10000010001100001000000 )
b0000000000001100 *
b1111111111111110 +
b1 .
#217
b0 .
#218
b000110001000 !
b1010010100110001000 "
b000101111110 #
b001010000100 $
b01011010110011110000000 )
b0000000000000100 *
b1111111111110010 +
b1 .
#219
b0 .
#220
b001100110100 !
b1100110010010010100 "
b111110111110 #
b000010001100 $
b00110011011011011000000 )
b1111111111111010 *
b1 .
#221
b0 .
#222
b001000010010 !
b1111001111110100000 "
b001000111000 #
b111110011100 $
b00001100000011000000000 )
b1111111111110010 *
b0000000000000000 +
b1 .
#223
b0 .
#224
b111100100010 !
b0001101101010101100 "
b001000111010 #
b001001000010 $
b11100100101010101000000 )
b1111111111110110 *
b0000000000001000 +
b1 .
#225
b0 .
#226
b110011111011 !
b0100001010110111000 "
b111111000000 #
b000101000110 $
b10111101010010010000000 )
b0000000000000010 *
b0000000000001100 +
b1 .
#227
b0 .
#228
b110110000010 !
b0110101000011000100 "
b000110001100 #
b111101010000 $
b10010101111001111000000 )
b0000000000001100 *
b0000000000000100 +
b1 .
#229
b0 .
#230
b000001000011 !
b1001000101111010000 "
b001010110010 #
b000110101000 $
b01101110100001100000000 )
b0000000000001010 *
b1111111111111000 +
b1 .
#231
b0 .
#232
b001011001010 !
b1011100011011011100 "
b000000011000 #
b000111011000 $
b01000111001001001000000 )
b0000000000000000 *
b1111111111110010 +
b1 .
#233
b0 .
#234
b001011100101 !
b1110000000111101000 "
b000011100110 #
b111101001100 $
b00011111110000110000000 )
b1111111111110100 *
b1111111111111000 +
b1 .
#235
b0 .
#236
b000001110101 !
b0000011110011110100 "
b001011111000 #
b000011110010 $
b11111000011000011000000 )
b1111111111110010 *
b0000000000000100 +
b1 .
#237
b0 .
#238
b110110100011 !
b0010111100000000000 "
b000010110000 #
b001001001000 $
b11010001000000000000000 )
b1111111111111100 *
b0000000000001100 +
b1 .
#239
b0 .
#240
b110011101110 !
b0101011001100001100 "
b000001000110 #
b111110100110 $
b10101001100111101000000 )
b0000000000001000 *
b0000000000001010 +
b1 .
#241
b0 .
#242
b111011110010 !
b0111110111000011000 "
b001011011000 #
b000000110000 $
b10000010001111010000000 )
b0000000000001100 *
b1111111111111110 +
b1 .
#243
b0 .
#244
b000111101001 !
b1010010100100100100 "
b000101100110 #
b001001011010 $
b01011010110110111000000 )
b0000000000000100 *
b1111111111110010 +
b1 .
#245
b0 .
#246
b001100111010 !
b1100110010000110000 "
b111111101100 #
b000000101000 $
b00110011011110100000000 )
b1111111111111010 *
b1111111111110100 +
b1 .
#247
b0 .
#248
b000110110100 !
b1111001111100111100 "
b001010000100 #
b111110001110 $
b00001100000110001000000 )
b1111111111110100 *
b1111111111111100 +
b1 .
#249
b0 .
#250
b111010110101 !
b0001101101001001000 "
b001000100100 #
b001000101100 $
b11100100101101110000000 )
b1111111111110110 *
b0000000000001010 +
b1 .
#251
b0 .
#252
b110011100001 !
b0100001010101010100 "
b111111010100 #
b000011011110 $
b10111101010101011000000 )
b0000000000000010 *
b0000000000001100 +
b1 .
#253
b0 .
#254
b110111010001 !
b0110101000001100000 "
b000111011100 #
b111100101110 $
b10010101111101000000000 )
b0000000000001100 *
b0000000000000100 +
b1 .
#255
b0 .
#256
b000010110101 !
b1001000101101101100 "
b001010110000 #
b000110100110 $
b01101110100100101000000 )
b0000000000001010 *
b1111111111111000 +
b1 .
#257
b0 .
#258
b001011111101 !
b1011100011001111000 "
b000000010100 #
b000101111000 $
b01000111001100010000000 )
b0000000000000000 *
b1111111111110010 +
b1 .
#259
b0 .
#260
b001010101010 !
b1110000000110000100 "
b000100110100 #
b111100010000 $
b00011111110011111000000 )
b1111111111110100 *
b1111111111111000 +
b1 .
#261
b0 .
#262
b000000000010 !
b0000011110010010000 "
b001100001100 #
b000011111000 $
b11111000011011100000000 )
b1111111111110010 *
b0000000000000010 +
b1 .
#263
b0 .
#264
b110101011100 !
b0010111011110011100 "
b000010011010 #
b000111111010 $
b11010001000011001000000 )
b1111111111111100 *
b0000000000001100 +
b1 .
#265
b0 .
#266
b110100010000 !
b0101011001010101000 "
b000010001000 #
b111101010010 $
b10101001101010110000000 )
b0000000000001000 *
b0000000000001010 +
b1 .
#267
b0 .
#268
b111101011111 !
b0111110110110110100 "
b001100000010 #
b000000110010 $
b10000010010010011000000 )
b0000000000001100 *
b1111111111111110 +
b1 .
#269
b0 .
#270
b001000111110 !
b1010010100011000000 "
b000101001000 #
b001000100010 $
b01011010111010000000000 )
b0000000000000100 *
b1111111111110010 +
b1 .
#271
b0 .
#272
b001100101011 !
b1100110001111001100 "
b000000011010 #
b111111000010 $
b00110011100001101000000 )
b1111111111111010 *
b1 .
#273
b0 .
#274
b000101010000 !
b1111001111011011000 "
b001011000000 #
b111110000010 $
b00001100001001010000000 )
b1111111111110010 *
b1111111111111110 +
b1 .
#275
b0 .
#276
b111001010000 !
b0001101100111100100 "
b001000001010 #
b001000001110 $
b11100100110000111000000 )
b1111111111110110 *
b0000000000001010 +
b1 .
#277
b0 .
#278
b110011011000 !
b0100001010011110000 "
b111111101010 #
b000001110010 $
b10111101011000100000000 )
b0000000000000010 *
b0000000000001100 +
b1 .
#279
b0 .
#280
b111000100111 !
b0110100111111111100 "
b001000101000 #
b111100001010 $
b10010110000000001000000 )
b0000000000001100 *
b0000000000000100 +
b1 .
#281
b0 .
#282
b000100100010 !
b1001000101100001000 "
b001010011100 #
b000110011010 $
b01101110100111110000000 )
b0000000000001010 *
b1111111111111000 +
b1 .
#283
b0 .
#284
b001100100000 !
b1011100011000010100 "
b000000001110 #
b000100001100 $
b01000111001111011000000 )
b0000000000000000 *
b1111111111110010 +
b1 .
#285
b0 .
#286
b001001100101 !
b1110000000100100000 "
b000110000010 #
b111011010100 $
b00011111110111000000000 )
b1111111111110100 *
b1111111111111000 +
b1 .
#287
b0 .
#288
b111110010001 !
b0000011110000101100 "
b001100010010 #
b000011111000 $
b11111000011110101000000 )
b1111111111110010 *
b0000000000000100 +
b1 .
#289
b0 .
#290
b110100100110 !
b0010111011100111000 "
b000001111110 #
b000110100000 $
b11010001000110010000000 )
b1111111111111100 *
b0000000000001100 +
b1 .
#291
b0 .
#292
b110101000010 !
b0101011001001000100 "
b000011001110 #
b111011111100 $
b10101001101101111000000 )
b0000000000001000 *
b0000000000001010 +
b1 .
#293
b0 .
#294
b111111010000 !
b0111110110101010000 "
b001100011100 #
b000000110100 $
b10000010010101100000000 )
b0000000000001100 *
b1111111111111110 +
b1 .
#295
b0 .
#296
b001010001010 !
b1010010100001011100 "
b000100011110 #
b000111011110 $
b01011010111101001000000 )
b0000000000000100 *
b1111111111110010 +
b1 .
#297
b0 .
#298
b001100001110 !
b1100110001101101000 "
b000001001010 #
b111101011010 $
b00110011100100110000000 )
b1111111111111000 *
b1111111111110100 +
b1 .
#299
b0 .
#300
b000011100100 !
b1111001111001110100 "
b001011110010 #
b111101111010 $
b00001100001100011000000 )
b1111111111110010 *
b0000000000000000 +
b1 .
#301
b0 .
#302
b110111110101 !
b0001101100110000000 "
b000111100000 #
b000111100100 $
b11100100110100000000000 )
b1111111111110110 *
b0000000000001000 +
b1 .
#303
b0 .
#304
b110011011010 !
b0100001010010001100 "
b000000000000 #
b000000000000 $
b10111101011011101000000 )
b0000000000000010 *
b0000000000001100 +
b1 .
#305
b0 .
#306
b111010001000 !
b0110100111110011000 "
b001001101010 #
b111011101100 $
b10010110000011010000000 )
b0000000000001100 *
b0000000000000100 +
b1 .
#307
b0 .
#308
b000110000110 !
b1001000101010100100 "
b001010000010 #
b000110000110 $
b01101110101010111000000 )
b0000000000001000 *
b1111111111111000 +
b1 .
#309
b0 .
#310
b001100110011 !
b1011100010110110000 "
b000000001000 #
b000010100000 $
b01000111010010100000000 )
b0000000000000000 *
b1111111111110010 +
b1 .
#311
b0 .
#312
b001000010000 !
b1110000000010111100 "
b000111000100 #
b111010011110 $
b00011111111010001000000 )
b1111111111110010 *
b1111111111111000 +
b1 .
#313
b0 .
#314
b111100100011 !
b0000011101111001000 "
b001100000100 #
b000011110010 $
b11111000100001110000000 )
b0000000000000100 +
b1 .
#315
b0 .
#316
b110011111011 !
b0010111011011010100 "
b000001100010 #
b000101000000 $
b11010001001001011000000 )
b1111111111111100 *
b0000000000001100 +
b1 .
#317
b0 .
#318
b110110000100 !
b0101011000111100000 "
b000100001010 #
b111010101100 $
b10101001110001000000000 )
b0000000000001000 *
b0000000000001010 +
b1 .
#319
b0 .
#320
b000001000100 !
b0111110110011101100 "
b001100100110 #
b000000110010 $
b10000010011000101000000 )
b0000000000001100 *
b1111111111111110 +
b1 .
#321
b0 .
#322
b001011001010 !
b1010010011111111000 "
b000011110010 #
b000110010100 $
b01011011000000010000000 )
b0000000000000110 *
b1111111111110010 +
b1 .
#323
b0 .
#324
b001011100011 !
b1100110001100000100 "
b000001111000 #
b111011110110 $
b00110011100111111000000 )
b1111111111111010 *
b1111111111110100 +
b1 .
#325
b0 .
#326
b000001110101 !
b1111001111000010000 "
b001100010010 #
b111101110010 $
b00001100001111100000000 )
b1111111111110010 *
b1111111111111110 +
b1 .
#327
b0 .
#328
b110110100101 !
b0001101100100011100 "
b000110101110 #
b000110110100 $
b11100100110111001000000 )
b1111111111110110 *
b0000000000000110 +
b1 .
#329
b0 .
#330
b110011101111 !
b0100001010000101000 "
b000000010100 #
b111110010010 $
b10111101011110110000000 )
b0000000000000010 *
b0000000000001100 +
b1 .
#331
b0 .
#332
b111011110010 !
b0110100111100110100 "
b001010011010 #
b111011010110 $
b10010110000110011000000 )
b0000000000001100 *
b0000000000000100 +
b1 .
#333
b0 .
#334
b000111101001 !
b1001000101001000000 "
b001001010110 #
b000101101100 $
b01101110101110000000000 )
b0000000000001010 *
b1111111111111000 +
b1 .
#335
b0 .
#336
b001100111000 !
b1011100010101001100 "
b000000000010 #
b000000110000 $
b01000111010101101000000 )
b0000000000000000 *
b1111111111110010 +
b1 .
#337
b0 .
#338
b000110110011 !
b1110000000001011000 "
b001000000000 #
b111001110000 $
b00011111111101010000000 )
b1111111111110100 *
b1111111111111000 +
b1 .
#339
b0 .
#340
b111010110101 !
b0000011101101100100 "
b001011101000 #
b000011101010 $
b11111000100100111000000 )
b1111111111110010 *
b0000000000000100 +
b1 .
#341
b0 .
#342
b110011100011 !
b0010111011001110000 "
b000001000010 #
b000011011010 $
b11010001001100100000000 )
b1111111111111100 *
b0000000000001100 +
b1 .
#343
b0 .
#344
b110111010001 !
b0101011000101111100 "
b000101000010 #
b111001100100 $
b10101001110100001000000 )
b0000000000001000 *
b0000000000001010 +
b1 .
#345
b0 .
