2.soc-litex/3.build/dump.vcd
$date
	2025-06-29 20:16
$end
$timescale 7692ps $end
$scope dumped_signals $end
$var wire 12 ! main_debug_filter_in $end
$var wire 19 " main_debug_phase2 $end
$var wire 12 # main_debug_xval_downconverted $end
$var wire 12 $ main_debug_yval_downconverted $end
$var wire 16 % main_debug_downsampledX $end
$var wire 16 & main_debug_downsampledY $end
$var wire 16 ' main_debug_upsampledX $end
$var wire 16 ( main_debug_upsampledY $end
$var wire 23 ) main_debug_phase2_inv_alt $end
$var wire 16 * main_debug_xval_upconverted $end
$var wire 16 + main_debug_yval_upconverted $end
$var wire 1 , main_debug_ce_out_down_x $end
$var wire 1 - main_debug_ce_out_up_x $end
$var wire 1 . main_debug_cic_ce_x $end
$var wire 1 / main_debug_comp_ce_x $end
$var wire 1 0 main_debug_hb_ce_x $end
$var wire 12 1 main_ds_cic_out_x $end
$var wire 16 2 main_ds_comp_out_x $end
$var wire 19 3 main_storage $end
$var wire 1 4 scope_clk $end
$var wire 1 5 scope_trig $end
$unscope  $end
$enddefinitions  $end
$dumpvars
bxxxxxxxxxxxx !
bxxxxxxxxxxxxxxxxxxx "
bxxxxxxxxxxxx #
bxxxxxxxxxxxx $
bxxxxxxxxxxxxxxxx %
bxxxxxxxxxxxxxxxx &
bxxxxxxxxxxxxxxxx '
bxxxxxxxxxxxxxxxx (
bxxxxxxxxxxxxxxxxxxxxxxx )
bxxxxxxxxxxxxxxxx *
bxxxxxxxxxxxxxxxx +
bx ,
bx -
bx .
bx /
bx 0
bxxxxxxxxxxxx 1
bxxxxxxxxxxxxxxxx 2
bxxxxxxxxxxxxxxxxxxx 3
bx 4
bx 5
$end
#0
b001011101010 !
b1010010100100111000 "
b000011001100 #
b111101011000 $
b1111111111101100 %
b1111111111101110 &
b1111111111110100 '
b1111111111110100 (
b01011010110110010000000 )
b0000000000010000 *
b1111111111111110 +
b0 ,
b0 -
b0 .
b0 /
b0 0
b000000000001 1
b1111111111110000 2
b0000000000001100100 3
b1 4
b0 5
#1
b0 4
#2
b000010010001 !
b1010010100110011100 "
b001001100010 #
b111000001100 $
b01011010110011001000000 )
b0000000000001110 *
b1 4
#3
b0 4
#4
b110111000000 !
b1010010101000000000 "
b000111100110 #
b111001110100 $
b01011010110000000000000 )
b1 4
#5
b0 4
#6
b110011110101 !
b1010010101001100100 "
b111111000010 #
b000000110000 $
b01011010101100111000000 )
b0000000000010000 *
b1 4
#7
b0 4
#8
b111011011111 !
b1010010101011001000 "
b110111010110 #
b000110111110 $
b01011010101001110000000 )
b1 4
#9
b0 4
#10
b000111010100 !
b1010010101100101100 "
b110111011100 #
b000110111000 $
b01011010100110101000000 )
b1 4
#11
b0 4
#12
b001100110001 !
b1010010101110010000 "
b111111001000 #
b000000101100 $
b01011010100011100000000 )
b1 4
#13
b0 4
#14
b000111001010 !
b1010010101111110100 "
b000111101010 #
b111001110110 $
b01011010100000011000000 )
b1 4
#15
b0 4
#16
b111011010110 !
b1010010110001011000 "
b001001100110 #
b111000010100 $
b01011010011101010000000 )
b1 4
#17
b0 4
#18
b110011110011 !
b1010010110010111100 "
b000011000110 #
b111101100000 $
b01011010011010001000000 )
b0000000000001110 *
b1 4
#19
b0 4
#20
b110111000110 !
b1010010110100100000 "
b111001111110 #
b000100110000 $
b01011010010111000000000 )
b0000000000010010 *
b1 4
#21
b0 4
#22
b000010011101 !
b1010010110110000100 "
b110110010000 #
b000111101110 $
b01011010010011111000000 )
b0000000000010000 *
b1 4
#23
b0 4
#24
b001011110000 !
b1010010110111101000 "
b111011001000 #
b000011110100 $
b01011010010000110000000 )
b0000000000001110 *
b1 4
#25
b0 4
#26
b001010110100 !
b1010010111001001100 "
b000100100000 #
b111100011010 $
b01011010001101101000000 )
b0000000000010000 *
b1 4
#27
b0 4
#28
b000000011111 !
b1010010111010110000 "
b001001111010 #
b111000001010 $
b01011010001010100000000 )
b1 4
#29
b0 4
#30
b110101110111 !
b1010010111100010100 "
b000110101100 #
b111010101110 $
b01011010000111011000000 )
b1 4
#31
b0 4
#32
b110100010011 !
b1010010111101111000 "
b111101101010 #
b000001110100 $
b01011010000100010000000 )
b1 4
b1 5
#33
b0 4
#34
b111101001011 !
b1010010111111011100 "
b110110101110 #
b000111001110 $
b01011010000001001000000 )
b1 4
#35
b0 4
#36
b001000101010 !
b1010011000001000000 "
b111000000110 #
b000110001010 $
b01011001111110000000000 )
b0000000000001110 *
b1 4
#37
b0 4
#38
b001100101001 !
b1010011000010100100 "
b000000100010 #
b111111100110 $
b01011001111010111000000 )
b0000000000010000 *
b1 4
#39
b0 4
#40
b000101100100 !
b1010011000100001000 "
b001000100100 #
b111001010110 $
b01011001110111110000000 )
b0000000000001110 *
b1 4
#41
b0 4
#42
b111001101111 !
b1010011000101101100 "
b001001001110 #
b111000110110 $
b01011001110100101000000 )
b0000000000010000 *
b1 4
#43
b0 4
#44
b110011100011 !
b1010011000111010000 "
b000001110010 #
b111110100110 $
b01011001110001100000000 )
b0000000000001110 *
b1 4
#45
b0 4
#46
b111000011100 !
b1010011001000110100 "
b111000110110 #
b000101011110 $
b01011001101110011000000 )
b1 4
#47
b0 4
#48
b000100001000 !
b1010011001010011000 "
b110110010100 #
b000111011010 $
b01011001101011010000000 )
b0000000000010000 *
b1 4
#49
b0 4
#50
b001100010110 !
b1010011001011111100 "
b111100011000 #
b000010101110 $
b01011001101000001000000 )
b1 4
#51
b0 4
#52
b001001110001 !
b1010011001101100000 "
b000101110010 #
b111011100010 $
b01011001100101000000000 )
b1 4
#53
b0 4
#54
b111110110000 !
b1010011001111000100 "
b001010001000 #
b111000001110 $
b01011001100001111000000 )
b0000000000001110 *
b1 4
#55
b0 4
#56
b110100111101 !
b1010011010000101000 "
b000101101100 #
b111011101010 $
b01011001011110110000000 )
b0000000000010000 *
b1 4
#57
b0 4
#58
b110101000001 !
b1010011010010001100 "
b111100010010 #
b000010110100 $
b01011001011011101000000 )
b1 4
#59
b0 4
#60
b111110111011 !
b1010011010011110000 "
b110110010010 #
b000111011000 $
b01011001011000100000000 )
b1 4
#61
b0 4
#62
b001001111000 !
b1010011010101010100 "
b111000111010 #
b000101010110 $
b01011001010101011000000 )
b0000000000001110 *
b1 4
#63
b0 4
#64
b001100010011 !
b1010011010110111000 "
b000001111100 #
b111110100000 $
b01011001010010010000000 )
b0000000000010000 *
b1 4
#65
b0 4
#66
b000100000000 !
b1010011011000011100 "
b001001010110 #
b111000111100 $
b01011001001111001000000 )
b1 4
#67
b0 4
#68
b111000010011 !
b1010011011010000000 "
b001000101000 #
b111001100000 $
b01011001001100000000000 )
b0000000000001110 *
b1 4
#69
b0 4
#70
b110011100001 !
b1010011011011100100 "
b000000011000 #
b111111101100 $
b01011001001000111000000 )
b1 4
#71
b0 4
#72
b111001111001 !
b1010011011101001000 "
b110111110110 #
b000110000100 $
b01011001000101110000000 )
b0000000000010000 *
b1111111111111100 +
b1 4
#73
b0 4
#74
b000101110001 !
b1010011011110101100 "
b110110100110 #
b000110111110 $
b01011001000010101000000 )
b0000000000010010 *
b1 4
#75
b0 4
#76
b001100101101 !
b1010011100000010000 "
b111101101110 #
b000001101100 $
b01011000111111100000000 )
b0000000000010000 *
b1 4
#77
b0 4
#78
b001000100010 !
b1010011100001110100 "
b000110111100 #
b111010110110 $
b01011000111100011000000 )
b1 4
#79
b0 4
#80
b111101000000 !
b1010011100011011000 "
b001010001010 #
b111000011110 $
b01011000111001010000000 )
b0000000000001110 *
b1 4
#81
b0 4
#82
b110100001111 !
b1010011100100111100 "
b000100011100 #
b111100101100 $
b01011000110110001000000 )
b0000000000010000 *
b1 4
#83
b0 4
#84
b110101111101 !
b1010011100110100000 "
b111010111100 #
b000011101100 $
b01011000110011000000000 )
b1 4
#85
b0 4
#86
b000000101010 !
b1010011101000000100 "
b110101111100 #
b000111010110 $
b01011000101111111000000 )
b1 4
#87
b0 4
#88
b001010111100 !
b1010011101001101000 "
b111001111010 #
b000100011100 $
b01011000101100110000000 )
b1 4
#89
b0 4
#90
b001011101010 !
b1010011101011001100 "
b000011010100 #
b111101100100 $
b01011000101001101000000 )
b0000000000010010 *
b1 4
#91
b0 4
#92
b000010010001 !
b1010011101100110000 "
b001001111110 #
b111000110000 $
b01011000100110100000000 )
b0000000000010000 *
b1 4
#93
b0 4
#94
b110110111111 !
b1010011101110010100 "
b000111111000 #
b111010010000 $
b01011000100011011000000 )
b0000000000001110 *
b1 4
#95
b0 4
#96
b110011110100 !
b1010011101111111000 "
b111110111110 #
b000000110000 $
b01011000100000010000000 )
b1 4
#97
b0 4
#98
b111011011111 !
b1010011110001011100 "
b110111000010 #
b000110011100 $
b01011000011101001000000 )
b0000000000010000 *
b1 4
#99
b0 4
#100
b000111010000 !
b1010011110011000000 "
b110111000100 #
b000110011010 $
b01011000011010000000000 )
b1 4
#101
b0 4
#102
b001100110010 !
b1010011110100100100 "
b111111000110 #
b000000101000 $
b01011000010110111000000 )
b0000000000001110 *
b1 4
#103
b0 4
#104
b000111001010 !
b1010011110110001000 "
b001000000000 #
b111010010000 $
b01011000010011110000000 )
b0000000000010000 *
b1 4
#105
b0 4
#106
b111011010100 !
b1010011110111101100 "
b001010000000 #
b111000110110 $
b01011000010000101000000 )
b0000000000001110 *
b1 4
#107
b0 4
#108
b110011110000 !
b1010011111001010000 "
b000011010000 #
b111101101010 $
b01011000001101100000000 )
b0000000000010000 *
b1 4
#109
b0 4
#110
b110111000110 !
b1010011111010110100 "
b111001101110 #
b000100011100 $
b01011000001010011000000 )
b1 4
#111
b0 4
#112
b000010011100 !
b1010011111100011000 "
b110101110010 #
b000111001110 $
b01011000000111010000000 )
b1 4
#113
b0 4
#114
b001011101111 !
b1010011111101111100 "
b111011000000 #
b000011100000 $
b01011000000100001000000 )
b0000000000001110 *
b1 4
#115
b0 4
#116
b001010110100 !
b1010011111111100000 "
b000100101110 #
b111100101010 $
b01011000000001000000000 )
b1 4
#117
b0 4
#118
b000000011111 !
b1010100000001000100 "
b001010011000 #
b111000101100 $
b01010111111101111000000 )
b0000000000010000 *
b1 4
#119
b0 4
#120
b110101110111 !
b1010100000010101000 "
b000110111110 #
b111011000100 $
b01010111111010110000000 )
b0000000000001110 *
b1 4
#121
b0 4
#122
b110100010010 !
b1010100000100001100 "
b111101100000 #
b000001101100 $
b01010111110111101000000 )
b1 4
#123
b0 4
#124
b111101001011 !
b1010100000101110000 "
b110110010110 #
b000110101110 $
b01010111110100100000000 )
b1 4
#125
b0 4
#126
b001000101001 !
b1010100000111010100 "
b110111110000 #
b000101101110 $
b01010111110001011000000 )
b0000000000010000 *
b1 4
#127
b0 4
#128
b001100101010 !
b1010100001000111000 "
b000000100010 #
b111111100110 $
b01010111101110010000000 )
b1 4
#129
b0 4
#130
b000101101000 !
b1010100001010011100 "
b001000111110 #
b111001110000 $
b01010111101011001000000 )
b1 4
#131
b0 4
#132
b111001101111 !
b1010100001100000000 "
b001001100110 #
b111001010110 $
b01010111101000000000000 )
b1 4
#133
b0 4
#134
b110011100010 !
b1010100001101100100 "
b000001111000 #
b111110101100 $
b01010111100100111000000 )
b1 4
#135
b0 4
#136
b111000011011 !
b1010100001111001000 "
b111000100100 #
b000101000110 $
b01010111100001110000000 )
b1 4
#137
b0 4
#138
b000100001000 !
b1010100010000101100 "
b110101111100 #
b000110111000 $
b01010111011110101000000 )
b0000000000001110 *
b1 4
#139
b0 4
#140
b001100010101 !
b1010100010010010000 "
b111100010000 #
b000010100000 $
b01010111011011100000000 )
b0000000000010000 *
b1 4
#141
b0 4
#142
b001001110001 !
b1010100010011110100 "
b000101111110 #
b111011111010 $
b01010111011000011000000 )
b0000000000001110 *
b1 4
#143
b0 4
#144
b111110101111 !
b1010100010101011000 "
b001010100010 #
b111000110010 $
b01010111010101010000000 )
b0000000000010000 *
b1 4
#145
b0 4
#146
b110100111100 !
b1010100010110111100 "
b000101111010 #
b111011111110 $
b01010111010010001000000 )
b0000000000001110 *
b1 4
#147
b0 4
#148
b110101000001 !
b1010100011000100000 "
b111100001000 #
b000010101000 $
b01010111001111000000000 )
b1 4
#149
b0 4
#150
b111110111011 !
b1010100011010000100 "
b110101110110 #
b000110110100 $
b01010111001011111000000 )
b0000000000010000 *
b1 4
#151
b0 4
#152
b001001110111 !
b1010100011011101000 "
b111000100110 #
b000100111100 $
b01010111001000110000000 )
b1 4
#153
b0 4
#154
b001100010010 !
b1010100011101001100 "
b000010000010 #
b111110101000 $
b01010111000101101000000 )
b0000000000001110 *
b1 4
#155
b0 4
#156
b000011111111 !
b1010100011110110000 "
b001001110000 #
b111001011100 $
b01010111000010100000000 )
b0000000000010000 *
b1 4
#157
b0 4
#158
b111000010010 !
b1010100100000010100 "
b001000111110 #
b111001111110 $
b01010110111111011000000 )
b0000000000001110 *
b1 4
#159
b0 4
#160
b110011100010 !
b1010100100001111000 "
b000000011010 #
b111111101110 $
b01010110111100010000000 )
b1 4
#161
b0 4
#162
b111001111001 !
b1010100100011011100 "
b110111100100 #
b000101100110 $
b01010110111001001000000 )
b1 4
#163
b0 4
#164
b000101110001 !
b1010100100101000000 "
b110110001110 #
b000110011100 $
b01010110110110000000000 )
b1 4
#165
b0 4
#166
b001100101100 !
b1010100100110100100 "
b111101101010 #
b000001100010 $
b01010110110010111000000 )
b0000000000010000 *
b1 4
#167
b0 4
#168
b001000100011 !
b1010100101000001000 "
b000111001100 #
b111011001110 $
b01010110101111110000000 )
b0000000000001100 *
b1 4
#169
b0 4
#170
b111101000000 !
b1010100101001101100 "
b001010100100 #
b111001000010 $
b01010110101100101000000 )
b0000000000001110 *
b1 4
#171
b0 4
#172
b110100001111 !
b1010100101011010000 "
b000100101100 #
b111100111010 $
b01010110101001100000000 )
b1 4
#173
b0 4
#174
b110101111100 !
b1010100101100110100 "
b111010101110 #
b000011011010 $
b01010110100110011000000 )
b1 4
#175
b0 4
#176
b000000101011 !
b1010100101110011000 "
b110101100010 #
b000110110100 $
b01010110100011010000000 )
b0000000000010000 *
b1 4
#177
b0 4
#178
b001010111010 !
b1010100101111111100 "
b111001101000 #
b000100001010 $
b01010110100000001000000 )
b1 4
#179
b0 4
#180
b001011101010 !
b1010100110001100000 "
b000011011010 #
b111101101110 $
b01010110011101000000000 )
b1 4
#181
b0 4
#182
b000010010000 !
b1010100110011000100 "
b001010010110 #
b111001010010 $
b01010110011001111000000 )
b1 4
#183
b0 4
#184
b110110111110 !
b1010100110100101000 "
b001000001100 #
b111010101010 $
b01010110010110110000000 )
b1 4
#185
b0 4
#186
b110011110011 !
b1010100110110001100 "
b111110111010 #
b000000101010 $
b01010110010011101000000 )
b1 4
#187
b0 4
#188
b111011100001 !
b1010100110111110000 "
b110110101100 #
b000101111110 $
b01010110010000100000000 )
b0000000000010010 *
b1 4
#189
b0 4
#190
b000111010011 !
b1010100111001010100 "
b110110101110 #
b000101111010 $
b01010110001101011000000 )
b0000000000010000 *
b1 4
#191
b0 4
#192
b001100110101 !
b1010100111010111000 "
b111111000100 #
b000000100100 $
b01010110001010010000000 )
b0000000000001110 *
b1 4
#193
b0 4
#194
b000111001000 !
b1010100111100011100 "
b001000010100 #
b111010101010 $
b01010110000111001000000 )
b1 4
#195
b0 4
#196
b111011010011 !
b1010100111110000000 "
b001010010110 #
b111001011000 $
b01010110000100000000000 )
b0000000000010000 *
b1 4
#197
b0 4
#198
b110011101111 !
b1010100111111100100 "
b000011010110 #
b111101110110 $
b01010110000000111000000 )
b0000000000001110 *
b1 4
#199
b0 4
#200
b110111000111 !
b1010101000001001000 "
b111001011110 #
b000100001000 $
b01010101111101110000000 )
b1 4
#201
b0 4
#202
b000010011110 !
b1010101000010101100 "
b110101011100 #
b000110101000 $
b01010101111010101000000 )
b0000000000010000 *
b1 4
#203
b0 4
#204
b001011110001 !
b1010101000100010000 "
b111010110110 #
b000011010000 $
b01010101110111100000000 )
b1 4
#205
b0 4
#206
b001010110101 !
b1010101000101110100 "
b000100111000 #
b111100111100 $
b01010101110100011000000 )
b1 4
#207
b0 4
#208
b000000011101 !
b1010101000111011000 "
b001010110000 #
b111001010000 $
b01010101110001010000000 )
b1 4
#209
b0 4
#210
b110101110110 !
b1010101001000111100 "
b000111001110 #
b111011011100 $
b01010101101110001000000 )
b1 4
#211
b0 4
#212
b110100010100 !
b1010101001010100000 "
b111101011100 #
b000001100100 $
b01010101101011000000000 )
b1 4
#213
b0 4
#214
b111101001110 !
b1010101001100000100 "
b110110000000 #
b000110001100 $
b01010101100111111000000 )
b1 4
#215
b0 4
#216
b001000101100 !
b1010101001101101000 "
b110111011100 #
b000101010100 $
b01010101100100110000000 )
b0000000000001110 *
b1 4
#217
b0 4
#218
b001100101011 !
b1010101001111001100 "
b000000100100 #
b111111101000 $
b01010101100001101000000 )
b0000000000010000 *
b1 4
#219
b0 4
#220
b000101100111 !
b1010101010000110000 "
b001001010010 #
b111010010010 $
b01010101011110100000000 )
b0000000000001110 *
b1 4
#221
b0 4
#222
b111001110000 !
b1010101010010010100 "
b001001111010 #
b111001111010 $
b01010101011011011000000 )
b0000000000010000 *
b1 4
#223
b0 4
#224
b110011100001 !
b1010101010011111000 "
b000001111000 #
b111110110100 $
b01010101011000010000000 )
b1 4
#225
b0 4
#226
b111000011101 !
b1010101010101011100 "
b111000010010 #
b000100101110 $
b01010101010101001000000 )
b0000000000001110 *
b1 4
#227
b0 4
#228
b000100001011 !
b1010101010111000000 "
b110101100100 #
b000110010100 $
b01010101010010000000000 )
b0000000000010000 *
b1 4
#229
b0 4
#230
b001100010111 !
b1010101011000100100 "
b111100001010 #
b000010010010 $
b01010101001110111000000 )
b1 4
#231
b0 4
#232
b001001110011 !
b1010101011010001000 "
b000110001110 #
b111100001100 $
b01010101001011110000000 )
b1 4
#233
b0 4
#234
b111110101110 !
b1010101011011101100 "
b001010111110 #
b111001010110 $
b01010101001000101000000 )
b1 4
#235
b0 4
#236
b110100111011 !
b1010101011101010000 "
b000110000100 #
b111100010100 $
b01010101000101100000000 )
b0000000000001110 *
b1 4
#237
b0 4
#238
b110101000011 !
b1010101011110110100 "
b111011111110 #
b000010011010 $
b01010101000010011000000 )
b1 4
#239
b0 4
#240
b111110111101 !
b1010101100000011000 "
b110101011110 #
b000110010010 $
b01010100111111010000000 )
b0000000000010000 *
b1 4
#241
b0 4
#242
b001001111011 !
b1010101100001111100 "
b111000011000 #
b000100100010 $
b01010100111100001000000 )
b0000000000001110 *
b1 4
#243
b0 4
#244
b001100010011 !
b1010101100011100000 "
b000010001000 #
b111110101110 $
b01010100111001000000000 )
b0000000000010000 *
b1 4
#245
b0 4
#246
b000011111111 !
b1010101100101000100 "
b001010000110 #
b111001111110 $
b01010100110101111000000 )
b1 4
#247
b0 4
#248
b111000010001 !
b1010101100110101000 "
b001001010010 #
b111010011110 $
b01010100110010110000000 )
b1 4
#249
b0 4
#250
b110011100011 !
b1010101101000001100 "
b000000011000 #
b111111110000 $
b01010100101111101000000 )
b1 4
#251
b0 4
#252
b111001111001 !
b1010101101001110000 "
b110111010000 #
b000101001000 $
b01010100101100100000000 )
b0000000000001110 *
b1 4
#253
b0 4
#254
b000101110010 !
b1010101101011010100 "
b110101111010 #
b000101111000 $
b01010100101001011000000 )
b0000000000010000 *
b1 4
#255
b0 4
#256
b001100101110 !
b1010101101100111000 "
b111101100110 #
b000001011000 $
b01010100100110010000000 )
b1 4
#257
b0 4
#258
b001000100010 !
b1010101101110011100 "
b000111011110 #
b111011100110 $
b01010100100011001000000 )
b0000000000001110 *
b1 4
#259
b0 4
#260
b111100111101 !
b1010101110000000000 "
b001010111100 #
b111001100110 $
b01010100100000000000000 )
b1 4
#261
b0 4
#262
b110100010000 !
b1010101110001100100 "
b000100110110 #
b111101001010 $
b01010100011100111000000 )
b1 4
#263
b0 4
#264
b110101111101 !
b1010101110011001000 "
b111010100110 #
b000011001000 $
b01010100011001110000000 )
b1 4
#265
b0 4
#266
b000000101011 !
b1010101110100101100 "
b110101001100 #
b000110010000 $
b01010100010110101000000 )
b0000000000010000 *
b1 4
#267
b0 4
#268
b001010111001 !
b1010101110110010000 "
b111001011110 #
b000011110000 $
b01010100010011100000000 )
b1 4
#269
b0 4
#270
b001011101011 !
b1010101110111110100 "
b000011100110 #
b111101111010 $
b01010100010000011000000 )
b0000000000001110 *
b1 4
#271
b0 4
#272
b000010010010 !
b1010101111001011000 "
b001010101100 #
b111001110110 $
b01010100001101010000000 )
b1 4
#273
b0 4
#274
b110110111110 !
b1010101111010111100 "
b001000100000 #
b111011001000 $
b01010100001010001000000 )
b1 4
#275
b0 4
#276
b110011110011 !
b1010101111100100000 "
b111110110110 #
b000000101000 $
b01010100000111000000000 )
b0000000000010000 *
b1 4
#277
b0 4
#278
b111011011111 !
b1010101111110000100 "
b110110010110 #
b000101011110 $
b01010100000011111000000 )
b0000000000001110 *
b1 4
#279
b0 4
#280
b000111010010 !
b1010101111111101000 "
b110110011110 #
b000101011010 $
b01010100000000110000000 )
b0000000000010000 *
b1 4
#281
b0 4
#282
b001100110111 !
b1010110000001001100 "
b111111000100 #
b000000100000 $
b01010011111101101000000 )
b0000000000001110 *
b1 4
#283
b0 4
#284
b000111001001 !
b1010110000010110000 "
b001000101000 #
b111011000110 $
b01010011111010100000000 )
b0000000000010000 *
b1 4
#285
b0 4
#286
b111011010011 !
b1010110000100010100 "
b001010101110 #
b111001111100 $
b01010011110111011000000 )
b1 4
#287
b0 4
#288
b110011110010 !
b1010110000101111000 "
b000011011100 #
b111110000010 $
b01010011110100010000000 )
b1 4
#289
b0 4
#290
b110111000111 !
b1010110000111011100 "
b111001010000 #
b000011110000 $
b01010011110001001000000 )
b0000000000001110 *
b1 4
#291
b0 4
#292
b000010011110 !
b1010110001001000000 "
b110101001000 #
b000110000100 $
b01010011101110000000000 )
b0000000000010000 *
b1 4
#293
b0 4
#294
b001011101111 !
b1010110001010100100 "
b111010101010 #
b000010111110 $
b01010011101010111000000 )
b1 4
#295
b0 4
#296
b001010110111 !
b1010110001100001000 "
b000101000010 #
b111101001010 $
b01010011100111110000000 )
b1 4
#297
b0 4
#298
b000000100001 !
b1010110001101101100 "
b001011001000 #
b111001110100 $
b01010011100100101000000 )
b0000000000001110 *
b1 4
#299
b0 4
#300
b110101110101 !
b1010110001111010000 "
b000111011110 #
b111011110110 $
b01010011100001100000000 )
b0000000000010000 *
b1 4
#301
b0 4
#302
b110100010100 !
b1010110010000110100 "
b111101010100 #
b000001011110 $
b01010011011110011000000 )
b1 4
#303
b0 4
#304
b111101001011 !
b1010110010010011000 "
b110101101100 #
b000101101010 $
b01010011011011010000000 )
b0000000000001110 *
b1 4
#305
b0 4
#306
b001000101011 !
b1010110010011111100 "
b110111001100 #
b000100110100 $
b01010011011000001000000 )
b0000000000010000 *
b1 4
#307
b0 4
#308
b001100101011 !
b1010110010101100000 "
b000000100100 #
b111111101010 $
b01010011010101000000000 )
b1 4
#309
b0 4
#310
b000101101000 !
b1010110010111000100 "
b001001100010 #
b111010110010 $
b01010011010001111000000 )
b1 4
#311
b0 4
#312
b111001110010 !
b1010110011000101000 "
b001010010000 #
b111010011010 $
b01010011001110110000000 )
b1 4
#313
b0 4
#314
b110011100010 !
b1010110011010001100 "
b000010000000 #
b111110111000 $
b01010011001011101000000 )
b0000000000001110 *
b1 4
#315
b0 4
#316
b111000011010 !
b1010110011011110000 "
b111000000010 #
b000100010010 $
b01010011001000100000000 )
b1 4
#317
b0 4
#318
b000100000111 !
b1010110011101010100 "
b110101010000 #
b000101110010 $
b01010011000101011000000 )
b0000000000010000 *
b1 4
#319
b0 4
#320
b001100010101 !
b1010110011110111000 "
b111100000000 #
b000010000110 $
b01010011000010010000000 )
b0000000000001110 *
b1 4
#321
b0 4
#322
b001001110101 !
b1010110100000011100 "
b000110011100 #
b111100100010 $
b01010010111111001000000 )
b1 4
#323
b0 4
#324
b111110110000 !
b1010110100010000000 "
b001011010110 #
b111001111010 $
b01010010111100000000000 )
b1 4
#325
b0 4
#326
b110100111011 !
b1010110100011100100 "
b000110010010 #
b111100101000 $
b01010010111000111000000 )
b1 4
#327
b0 4
#328
b110101000000 !
b1010110100101001000 "
b111011110100 #
b000010001100 $
b01010010110101110000000 )
b1 4
#329
b0 4
#330
b111110111011 !
b1010110100110101100 "
b110101001010 #
b000101101100 $
b01010010110010101000000 )
b1 4
#331
b0 4
#332
b001001111000 !
b1010110101000010000 "
b111000001000 #
b000100001000 $
b01010010101111100000000 )
b0000000000010000 *
b1111111111111010 +
b1 4
#333
b0 4
#334
b001100010001 !
b1010110101001110100 "
b000010001100 #
b111110110110 $
b01010010101100011000000 )
b0000000000001110 *
b1 4
#335
b0 4
#336
b000011111110 !
b1010110101011011000 "
b001010011000 #
b111010100010 $
b01010010101001010000000 )
b1 4
#337
b0 4
#338
b111000010010 !
b1010110101100111100 "
b001001100110 #
b111010111110 $
b01010010100110001000000 )
b0000000000010000 *
b1 4
#339
b0 4
#340
b110011100011 !
b1010110101110100000 "
b000000011110 #
b111111110000 $
b01010010100011000000000 )
b0000000000001110 *
b1 4
#341
b0 4
#342
b111001111010 !
b1010110110000000100 "
b110110111110 #
b000100101010 $
b01010010011111111000000 )
b1 4
#343
b0 4
#344
b000101110001 !
b1010110110001101000 "
b110101101000 #
b000101010110 $
b01010010011100110000000 )
b0000000000010000 *
b1 4
#345
b0 4
#346
b001100101100 !
b1010110110011001100 "
b111101100000 #
b000001010010 $
b01010010011001101000000 )
b1 4
#347
b0 4
#348
b001000100010 !
b1010110110100110000 "
b000111101110 #
b111100000000 $
b01010010010110100000000 )
b0000000000001110 *
b1 4
#349
b0 4
#350
b111101000000 !
b1010110110110010100 "
b001011010000 #
b111010001100 $
b01010010010011011000000 )
b1 4
#351
b0 4
#352
b110100010001 !
b1010110110111111000 "
b000101000000 #
b111101011010 $
b01010010010000010000000 )
b1 4
#353
b0 4
#354
b110101111110 !
b1010110111001011100 "
b111010011110 #
b000010110100 $
b01010010001101001000000 )
b1 4
#355
b0 4
#356
b000000101101 !
b1010110111011000000 "
b110100111000 #
b000101101000 $
b01010010001010000000000 )
b1 4
#357
b0 4
#358
b001010111010 !
b1010110111100100100 "
b111001001110 #
b000011011010 $
b01010010000110111000000 )
b1 4
#359
b0 4
#360
b001011101010 !
b1010110111110001000 "
b000011101010 #
b111110001000 $
b01010010000011110000000 )
b1 4
#361
b0 4
#362
b000010001111 !
b1010110111111101100 "
b001011000000 #
b111010011100 $
b01010010000000101000000 )
b1 4
#363
b0 4
#364
b110110111110 !
b1010111000001010000 "
b001000110000 #
b111011100100 $
b01010001111101100000000 )
b1 4
#365
b0 4
#366
b110011110100 !
b1010111000010110100 "
b111110111000 #
b000000100010 $
b01010001111010011000000 )
b1 4
#367
b0 4
#368
b111011100000 !
b1010111000100011000 "
b110110000100 #
b000100111100 $
b01010001110111010000000 )
b1 4
#369
b0 4
#370
b000111010000 !
b1010111000101111100 "
b110110001000 #
b000100111010 $
b01010001110100001000000 )
b0000000000001100 *
b1 4
#371
b0 4
#372
b001100110011 !
b1010111000111100000 "
b111111000010 #
b000000011110 $
b01010001110001000000000 )
b0000000000001110 *
b1 4
#373
b0 4
#374
b000111001011 !
b1010111001001000100 "
b001000110100 #
b111011101000 $
b01010001101101111000000 )
b1 4
#375
b0 4
#376
b111011010110 !
b1010111001010101000 "
b001011000000 #
b111010100100 $
b01010001101010110000000 )
b0000000000010000 *
b1 4
#377
b0 4
#378
b110011110001 !
b1010111001100001100 "
b000011100010 #
b111110010000 $
b01010001100111101000000 )
b1 4
#379
b0 4
#380
b110111000111 !
b1010111001101110000 "
b111001000100 #
b000011011010 $
b01010001100100100000000 )
b1 4
#381
b0 4
#382
b000010011010 !
b1010111001111010100 "
b110100110010 #
b000101011110 $
b01010001100001011000000 )
b1 4
#383
b0 4
#384
b001011101110 !
b1010111010000111000 "
b111010100000 #
b000010101010 $
b01010001011110010000000 )
b1 4
#385
b0 4
#386
b001010110101 !
b1010111010010011100 "
b000101001010 #
b111101011110 $
b01010001011011001000000 )
b1 4
#387
b0 4
#388
b000000100010 !
b1010111010100000000 "
b001011011000 #
b111010011110 $
b01010001011000000000000 )
b1 4
#389
b0 4
#390
b110101110111 !
b1010111010101100100 "
b000111101010 #
b111100010010 $
b01010001010100111000000 )
b1 4
#391
b0 4
#392
b110100010100 !
b1010111010111001000 "
b111101010010 #
b000001010100 $
b01010001010001110000000 )
b1 4
#393
b0 4
#394
b111101001001 !
b1010111011000101100 "
b110101011010 #
b000101000110 $
b01010001001110101000000 )
b0000000000001110 *
b1 4
#395
b0 4
#396
b001000101010 !
b1010111011010010000 "
b110110111100 #
b000100010110 $
b01010001001011100000000 )
b0000000000010000 *
b1 4
#397
b0 4
#398
b001100101011 !
b1010111011011110100 "
b000000101000 #
b111111101100 $
b01010001001000011000000 )
b0000000000001110 *
b1 4
#399
b0 4
#400
b000101101001 !
b1010111011101011000 "
b001001110100 #
b111011010100 $
b01010001000101010000000 )
b0000000000010000 *
b1 4
#401
b0 4
#402
b111001110000 !
b1010111011110111100 "
b001010100000 #
b111011000000 $
b01010001000010001000000 )
b1 4
#403
b0 4
#404
b110011100010 !
b1010111100000100000 "
b000010000000 #
b111111000010 $
b01010000111111000000000 )
b0000000000001110 *
b1 4
#405
b0 4
#406
b111000011011 !
b1010111100010000100 "
b110111110100 #
b000011110110 $
b01010000111011111000000 )
b0000000000010000 *
b1 4
#407
b0 4
#408
b000100000111 !
b1010111100011101000 "
b110100111110 #
b000101001010 $
b01010000111000110000000 )
b1 4
#409
b0 4
#410
b001100010111 !
b1010111100101001100 "
b111011111010 #
b000001111000 $
b01010000110101101000000 )
b1 4
#411
b0 4
