2.soc-litex/3.build/dump.vcd
$date
	2025-06-28 19:54
$end
$timescale 7692ps $end
$scope dumped_signals $end
$var wire 12 ! main_debug_filter_in $end
$var wire 19 " main_debug_phase2 $end
$var wire 12 # main_debug_xval_downconverted $end
$var wire 12 $ main_debug_yval_downconverted $end
$var wire 16 % main_debug_downsampledX $end
$var wire 16 & main_debug_downsampledY $end
$var wire 16 ' main_debug_upsampledX $end
$var wire 16 ( main_debug_upsampledY $end
$var wire 23 ) main_debug_phase2_inv_alt $end
$var wire 16 * main_debug_xval_upconverted $end
$var wire 16 + main_debug_yval_upconverted $end
$var wire 1 , main_debug_ce_out_down_x $end
$var wire 1 - main_debug_ce_out_up_x $end
$var wire 1 . main_debug_cic_ce_x $end
$var wire 1 / main_debug_comp_ce_x $end
$var wire 1 0 main_debug_hb_ce_x $end
$var wire 12 1 main_ds_cic_out_x $end
$var wire 16 2 main_ds_comp_out_x $end
$var wire 1 3 scope_clk $end
$var wire 1 4 scope_trig $end
$unscope  $end
$enddefinitions  $end
$dumpvars
bxxxxxxxxxxxx !
bxxxxxxxxxxxxxxxxxxx "
bxxxxxxxxxxxx #
bxxxxxxxxxxxx $
bxxxxxxxxxxxxxxxx %
bxxxxxxxxxxxxxxxx &
bxxxxxxxxxxxxxxxx '
bxxxxxxxxxxxxxxxx (
bxxxxxxxxxxxxxxxxxxxxxxx )
bxxxxxxxxxxxxxxxx *
bxxxxxxxxxxxxxxxx +
bx ,
bx -
bx .
bx /
bx 0
bxxxxxxxxxxxx 1
bxxxxxxxxxxxxxxxx 2
bx 3
bx 4
$end
#0
b001100110111 !
b1010000101010100000 "
b000010110110 #
b000011111100 $
b1111111111110010 %
b1111111111110010 &
b1111111111110111 '
b1111111111110111 (
b01011110101011000000000 )
b0000000000000110 *
b1111111111110100 +
b0 ,
b0 -
b0 .
b0 /
b0 0
b111111111111 1
b1111111111110001 2
b1 3
b0 4
#1
b0 3
#2
b001100101100 !
b1100100010110101100 "
b111110110000 #
b000011100010 $
b00110111010010101000000 )
b1111111111111010 *
b1111111111110010 +
b1 3
#3
b0 3
#4
b001100011011 !
b1111000000010111000 "
b111101100100 #
b000000101010 $
b00001111111010010000000 )
b1111111111110010 *
b1111111111111110 +
b1 3
#5
b0 3
#6
b001100000010 !
b0001011101111000100 "
b111111000010 #
b111111001000 $
b11101000100001111000000 )
b1111111111110110 *
b0000000000001000 +
b1 3
#7
b0 3
#8
b001011100001 !
b0011111011011010000 "
b111111111110 #
b111111111110 $
b11000001001001100000000 )
b0000000000000000 *
b0000000000001100 +
b1 3
#9
b0 3
#10
b001010110110 !
b0110011000111011100 "
b111110111010 #
b000000100100 $
b10011001110001001000000 )
b0000000000001010 *
b0000000000000100 +
b1 3
#11
b0 3
#12
b001010001011 !
b1000110110011101000 "
b111101110010 #
b111110111000 $
b01110010011000110000000 )
b1111111111111000 +
b1 3
#13
b0 3
#14
b001001011000 !
b1011010011111110100 "
b111111011100 #
b111100011000 $
b01001011000000011000000 )
b0000000000000000 *
b1111111111110010 +
b1 3
#15
b0 3
#16
b001000011101 !
b1101110001100000000 "
b000011100010 #
b111100101010 $
b00100011101000000000000 )
b1111111111110110 *
b1111111111110110 +
b1 3
#17
b0 3
#18
b000111100001 !
b0000001111000001100 "
b000101111000 #
b000001010000 $
b11111100001111101000000 )
b1111111111110010 *
b0000000000000010 +
b1 3
#19
b0 3
#20
b000110011100 !
b0010101100100011000 "
b000010101010 #
b000110100000 $
b11010100110111010000000 )
b1111111111111010 *
b0000000000001100 +
b1 3
#21
b0 3
#22
b000101010100 !
b0101001010000100100 "
b111011100110 #
b000110110000 $
b10101101011110111000000 )
b0000000000000110 *
b0000000000001010 +
b1 3
#23
b0 3
#24
b000100001001 !
b0111100111100110000 "
b110111000000 #
b000000001110 $
b10000110000110100000000 )
b0000000000001100 *
b0000000000000000 +
b1 3
#25
b0 3
#26
b000010111100 !
b1010000101000111100 "
b111010001010 #
b111000000000 $
b01011110101110001000000 )
b0000000000000110 *
b1111111111110100 +
b1 3
#27
b0 3
#28
b000001101101 !
b1100100010101001000 "
b000011011110 #
b110101111110 $
b00110111010101110000000 )
b1111111111111100 *
b1111111111110010 +
b1 3
#29
b0 3
#30
b000000011110 !
b1111000000001010100 "
b001010111000 #
b111100111110 $
b00001111111101011000000 )
b1111111111110010 *
b1111111111111110 +
b1 3
#31
b0 3
#32
b111111010000 !
b0001011101101100000 "
b001001000110 #
b000111100110 $
b11101000100101000000000 )
b1111111111110110 *
b0000000000000110 +
b1 3
b1 4
#33
b0 3
#34
b111110000000 !
b0011111011001101100 "
b111110110110 #
b001100001110 $
b11000001001100101000000 )
b0000000000000000 *
b0000000000001100 +
b1 3
#35
b0 3
#36
b111100110011 !
b0110011000101111000 "
b110100111110 #
b000110001010 $
b10011001110100010000000 )
b0000000000001010 *
b0000000000000100 +
b1 3
#37
b0 3
#38
b111011100111 !
b1000110110010000100 "
b110100100000 #
b111010010110 $
b01110010011011111000000 )
b1111111111111000 +
b1 3
#39
b0 3
#40
b111010011101 !
b1011010011110010000 "
b111110000110 #
b110011010000 $
b01001011000011100000000 )
b0000000000000000 *
b1111111111110010 +
b1 3
#41
b0 3
#42
b111001011000 !
b1101110001010011100 "
b001001010110 #
b110111001100 $
b00100011101011001000000 )
b1111111111110100 *
b1111111111111000 +
b1 3
#43
b0 3
#44
b111000010110 !
b0000001110110101000 "
b001100011000 #
b000010101010 $
b11111100010010110000000 )
b1111111111110010 *
b0000000000000010 +
b1 3
#45
b0 3
#46
b110111011011 !
b0010101100010110100 "
b000100101110 #
b001011011110 $
b11010100111010011000000 )
b1111111111111010 *
b0000000000001100 +
b1 3
#47
b0 3
#48
b110110100001 !
b0101001001111000000 "
b111001011100 #
b001010000100 $
b10101101100010000000000 )
b0000000000000110 *
b0000000000001010 +
b1 3
#49
b0 3
#50
b110101110010 !
b0111100111011001100 "
b110100011110 #
b000000010100 $
b10000110001001101000000 )
b0000000000001100 *
b0000000000000000 +
b1 3
#51
b0 3
#52
b110101000100 !
b1010000100111011000 "
b111001100100 #
b110111010000 $
b01011110110001010000000 )
b0000000000000110 *
b1111111111110100 +
b1 3
#53
b0 3
#54
b110100100010 !
b1100100010011100100 "
b000011010110 #
b110110011000 $
b00110111011000111000000 )
b1111111111111010 *
b1111111111110010 +
b1 3
#55
b0 3
#56
b110100000111 !
b1110111111111110000 "
b001001000010 #
b111101100000 $
b00010000000000100000000 )
b1111111111110010 *
b1111111111111100 +
b1 3
#57
b0 3
#58
b110011110000 !
b0001011101011111100 "
b000110011110 #
b000101011010 $
b11101000101000001000000 )
b1111111111110110 *
b0000000000001010 +
b1 3
#59
b0 3
#60
b110011100001 !
b0011111011000001000 "
b111111010010 #
b000111011110 $
b11000001001111110000000 )
b0000000000000000 *
b0000000000001100 +
b1 3
#61
b0 3
#62
b110011011010 !
b0110011000100010100 "
b111010011000 #
b000011001010 $
b10011001110111011000000 )
b0000000000001010 *
b0000000000000100 +
b1 3
#63
b0 3
#64
b1000110110000100000 "
b111011001110 #
b111101101010 $
b01110010011111000000000 )
b1111111111111000 +
b1 3
#65
b0 3
#66
b110011100011 !
b1011010011100101100 "
b111111011000 #
b111011111010 $
b01001011000110101000000 )
b0000000000000000 *
b1111111111110010 +
b1 3
#67
b0 3
#68
b110011110010 !
b1101110001000111000 "
b000010001000 #
b111101111110 $
b00100011101110010000000 )
b1111111111110010 *
b1111111111111000 +
b1 3
#69
b0 3
#70
b110100001100 !
b0000001110101000100 "
b000001101010 #
b000000010110 $
b11111100010101111000000 )
b0000000000000000 +
b1 3
#71
b0 3
#72
b110100101101 !
b0010101100001010000 "
b000000001100 #
b000000011010 $
b11010100111101100000000 )
b1111111111111010 *
b0000000000001100 +
b1 3
#73
b0 3
#74
b110101010100 !
b0101001001101011100 "
b000000011000 #
b111111010110 $
b10101101100101001000000 )
b0000000000000110 *
b0000000000001010 +
b1 3
#75
b0 3
#76
b110101111111 !
b0111100111001101000 "
b000001111110 #
b111111111100 $
b10000110001100110000000 )
b0000000000001100 *
b0000000000000000 +
b1 3
#77
b0 3
#78
b110110110011 !
b1010000100101110100 "
b000001111000 #
b000010100100 $
b01011110110100011000000 )
b0000000000000110 *
b1111111111110100 +
b1 3
#79
b0 3
#80
b110111101100 !
b1100100010010000000 "
b111110100100 #
b000100001000 $
b00110111011100000000000 )
b1111111111111010 *
b1111111111110010 +
b1 3
#81
b0 3
#82
b111000101010 !
b1110111111110001100 "
b111010101010 #
b000001100000 $
b00010000000011101000000 )
b1111111111110010 *
b1111111111111100 +
b1 3
#83
b0 3
#84
b111001101101 !
b0001011101010011000 "
b111010111010 #
b111011110000 $
b11101000101011010000000 )
b1111111111110110 *
b0000000000001000 +
b1 3
#85
b0 3
#86
b111010110101 !
b0011111010110100100 "
b000000101100 #
b111000011000 $
b11000001010010111000000 )
b0000000000000000 *
b0000000000001100 +
b1 3
#87
b0 3
#88
b111011111110 !
b0110011000010110000 "
b000111011100 #
b111011110010 $
b10011001111010100000000 )
b0000000000001010 *
b0000000000000100 +
b1 3
#89
b0 3
#90
b111101001010 !
b1000110101110111100 "
b001000100010 #
b000100001010 $
b01110010100010001000000 )
b0000000000001100 *
b1111111111111000 +
b1 3
#91
b0 3
#92
b111110011010 !
b1011010011011001000 "
b000001100010 #
b001010000100 $
b01001011001001110000000 )
b0000000000000000 *
b1111111111110010 +
b1 3
#93
b0 3
#94
b111111101001 !
b1101110000111010100 "
b111000000010 #
b000111011110 $
b00100011110001011000000 )
b1111111111110110 *
b1111111111110110 +
b1 3
#95
b0 3
#96
b000000111001 !
b0000001110011100000 "
b110100110010 #
b111101100100 $
b11111100011001000000000 )
b1111111111110010 *
b0000000000000010 +
b1 3
#97
b0 3
#98
b000010001000 !
b0010101011111101100 "
b111011011100 #
b110101000000 $
b11010101000000101000000 )
b1111111111111010 *
b0000000000001010 +
b1 3
#99
b0 3
#100
b000011010110 !
b0101001001011111000 "
b000110101000 #
b110101101100 $
b10101101101000010000000 )
b0000000000000110 *
b1 3
#101
b0 3
#102
b000100100011 !
b0111100111000000100 "
b001100011110 #
b111111100110 $
b10000110001111111000000 )
b0000000000001100 *
b0000000000000000 +
b1 3
#103
b0 3
#104
b000101101100 !
b1010000100100010000 "
b000111011100 #
b001010001000 $
b01011110110111100000000 )
b0000000000000110 *
b1111111111110100 +
b1 3
#105
b0 3
#106
b000110110010 !
b1100100010000011100 "
b111011111000 #
b001011111010 $
b00110111011111001000000 )
b1111111111111010 *
b1111111111110010 +
b1 3
#107
b0 3
#108
b000111110011 !
b1110111111100101000 "
b110100000000 #
b000011010110 $
b00010000000110110000000 )
b1111111111110010 *
b1111111111111100 +
b1 3
#109
b0 3
#110
b001000110010 !
b0001011101000110100 "
b110110100110 #
b111000001100 $
b11101000101110011000000 )
b1111111111110110 *
b0000000000001000 +
b1 3
#111
b0 3
#112
b001001101010 !
b0011111010101000000 "
b000001000100 #
b110100001110 $
b11000001010110000000000 )
b0000000000000000 *
b0000000000001100 +
b1 3
#113
b0 3
#114
b001010011100 !
b0110011000001001100 "
b001001110110 #
b111010011100 $
b10011001111101101000000 )
b0000000000001010 *
b0000000000000100 +
b1 3
#115
b0 3
#116
b001011001000 !
b1000110101101011000 "
b001001101000 #
b000100101010 $
b01110010100101010000000 )
b0000000000001100 *
b1111111111111000 +
b1 3
#117
b0 3
#118
b001011101101 !
b1011010011001100100 "
b000001100000 #
b001001111000 $
b01001011001100111000000 )
b0000000000000000 *
b1111111111110010 +
b1 3
#119
b0 3
#120
b001100001011 !
b1101110000101110000 "
b111001010010 #
b000110010100 $
b00100011110100100000000 )
b1111111111110100 *
b1111111111110110 +
b1 3
#121
b0 3
#122
b001100100011 !
b0000001110001111100 "
b110111110110 #
b111110010000 $
b11111100011100001000000 )
b1111111111110010 *
b0000000000000010 +
b1 3
#123
b0 3
#124
b001100110001 !
b0010101011110001000 "
b111101001010 #
b111001001100 $
b11010101000011110000000 )
b1111111111111010 *
b0000000000001100 +
b1 3
#125
b0 3
#126
b001100111001 !
b0101001001010010100 "
b000011011010 #
b111010101100 $
b10101101101011011000000 )
b0000000000000110 *
b0000000000001010 +
b1 3
#127
b0 3
#128
b001100111000 !
b0111100110110100000 "
b000101001000 #
b111111110100 $
b10000110010011000000000 )
b0000000000001100 *
b0000000000000000 +
b1 3
#129
b0 3
#130
b001100110000 !
b1010000100010101100 "
b000010011000 #
b000011001110 $
b01011110111010101000000 )
b0000000000000110 *
b1111111111110100 +
b1 3
#131
b0 3
#132
b001100100000 !
b1100100001110111000 "
b111111000100 #
b000010101010 $
b00110111100010010000000 )
b1111111111111010 *
b1111111111110010 +
b1 3
#133
b0 3
#134
b001100001000 !
b1110111111011000100 "
b111110011100 #
b000000011010 $
b00010000001001111000000 )
b1111111111110010 *
b1111111111111110 +
b1 3
#135
b0 3
#136
b001011101100 !
b0001011100111010000 "
b111111101110 #
b111111110000 $
b11101000110001100000000 )
b1111111111110110 *
b0000000000001000 +
b1 3
#137
b0 3
#138
b001011000110 !
b0011111010011011100 "
b111111111010 #
b000000111000 $
b11000001011001001000000 )
b0000000000000000 *
b0000000000001100 +
b1 3
#139
b0 3
#140
b001010011001 !
b0110010111111101000 "
b111110001000 #
b000001000010 $
b10011010000000110000000 )
b0000000000001010 *
b0000000000000100 +
b1 3
#141
b0 3
#142
b001001100110 !
b1000110101011110100 "
b111100111110 #
b111110100000 $
b01110010101000011000000 )
b1111111111111000 +
b1 3
#143
b0 3
#144
b001000110000 !
b1011010011000000000 "
b111111010010 #
b111011011110 $
b01001011010000000000000 )
b0000000000000000 *
b1111111111110010 +
b1 3
#145
b0 3
#146
b000111110001 !
b1101110000100001100 "
b000100001000 #
b111100000100 $
b00100011110111101000000 )
b1111111111110100 *
b1111111111110110 +
b1 3
#147
b0 3
#148
b000110101110 !
b0000001110000011000 "
b000110101000 #
b000001011000 $
b11111100011111010000000 )
b1111111111110010 *
b0000000000000010 +
b1 3
#149
b0 3
#150
b000101101000 !
b0010101011100100100 "
b000011000000 #
b000111001100 $
b11010101000110111000000 )
b1111111111111010 *
b0000000000001100 +
b1 3
#151
b0 3
#152
b000100011111 !
b0101001001000110000 "
b111011001110 #
b000111011000 $
b10101101101110100000000 )
b0000000000000110 *
b0000000000001010 +
b1 3
#153
b0 3
#154
b000011010010 !
b0111100110100111100 "
b110110010110 #
b000000010010 $
b10000110010110001000000 )
b0000000000001100 *
b0000000000000000 +
b1 3
#155
b0 3
#156
b000010000101 !
b1010000100001001000 "
b111001110010 #
b110111100110 $
b01011110111101110000000 )
b0000000000000110 *
b1111111111110100 +
b1 3
#157
b0 3
#158
b000000110100 !
b1100100001101010100 "
b000011100110 #
b110101011110 $
b00110111100101011000000 )
b1111111111111010 *
b1111111111110010 +
b1 3
#159
b0 3
#160
b111111100101 !
b1110111111001100000 "
b001011010000 #
b111100110010 $
b00010000001101000000000 )
b1111111111110010 *
b1111111111111100 +
b1 3
#161
b0 3
#162
b111110010101 !
b0001011100101101100 "
b001001011000 #
b000111110000 $
b11101000110100101000000 )
b1111111111110100 *
b0000000000001010 +
b1 3
#163
b0 3
#164
b111101001000 !
b0011111010001111000 "
b111110111000 #
b001100100000 $
b11000001011100010000000 )
b0000000000000000 *
b0000000000001100 +
b1 3
#165
b0 3
#166
b111011111011 !
b0110010111110000100 "
b110100111000 #
b000110010010 $
b10011010000011111000000 )
b0000000000001010 *
b0000000000000100 +
b1 3
#167
b0 3
#168
b111010110010 !
b1000110101010010000 "
b110100011010 #
b111010011000 $
b01110010101011100000000 )
b1111111111111000 +
b1 3
#169
b0 3
#170
b111001101101 !
b1011010010110011100 "
b111110000000 #
b110011010000 $
b01001011010011001000000 )
b0000000000000000 *
b1111111111110010 +
b1 3
#171
b0 3
#172
b111000101010 !
b1101110000010101000 "
b001001001110 #
b110111001110 $
b00100011111010110000000 )
b1111111111110100 *
b1111111111110110 +
b1 3
#173
b0 3
#174
b110111101011 !
b0000001101110110100 "
b001100001110 #
b000010100100 $
b11111100100010011000000 )
b1111111111110010 *
b0000000000000000 +
b1 3
#175
b0 3
#176
b110110110001 !
b0010101011011000000 "
b000100101010 #
b001011001100 $
b11010101001010000000000 )
b1111111111111010 *
b0000000000001100 +
b1 3
#177
b0 3
#178
b110110000000 !
b0101001000111001100 "
b111001101100 #
b001001110110 $
b10101101110001101000000 )
b0000000000000110 *
b0000000000001010 +
b1 3
#179
b0 3
#180
b110101010010 !
b0111100110011011000 "
b110100111010 #
b000000011000 $
b10000110011001010000000 )
b0000000000001100 *
b0000000000000000 +
b1 3
#181
b0 3
#182
b110100101011 !
b1010000011111100100 "
b111001110010 #
b110111101000 $
b01011111000000111000000 )
b0000000000001000 *
b1111111111110100 +
b1 3
#183
b0 3
#184
b110100001110 !
b1100100001011110000 "
b000011000100 #
b110110111010 $
b00110111101000100000000 )
b1111111111111010 *
b1111111111110010 +
b1 3
#185
b0 3
#186
b110011110101 !
b1110111110111111100 "
b001000011010 #
b111101100110 $
b00010000010000001000000 )
b1111111111110010 *
b1111111111111100 +
b1 3
#187
b0 3
#188
b110011100010 !
b0001011100100001000 "
b000101111110 #
b000100111100 $
b11101000110111110000000 )
b1111111111110100 *
b0000000000001010 +
b1 3
#189
b0 3
#190
b110011011010 !
b0011111010000010100 "
b111111011010 #
b000110101010 $
b11000001011111011000000 )
b0000000000000000 *
b0000000000001100 +
b1 3
#191
b0 3
#192
b110011011001 !
b0110010111100100000 "
b111011000110 #
b000010110010 $
b10011010000111000000000 )
b0000000000001010 *
b0000000000000100 +
b1 3
#193
b0 3
#194
b110011100000 !
b1000110101000101100 "
b111011111100 #
b111110000100 $
b01110010101110101000000 )
b0000000000001100 *
b1111111111111000 +
b1 3
#195
b0 3
#196
b110011101100 !
b1011010010100111000 "
b111111011110 #
b111100110000 $
b01001011010110010000000 )
b0000000000000000 *
b1111111111110010 +
b1 3
#197
b0 3
#198
b110100000100 !
b1101110000001000100 "
b000001100000 #
b111110100010 $
b00100011111101111000000 )
b1111111111110100 *
b1111111111111000 +
b1 3
#199
b0 3
#200
b110100100001 !
b0000001101101010000 "
b000000110010 #
b000000001010 $
b11111100100101100000000 )
b1111111111110010 *
b0000000000000010 +
b1 3
#201
b0 3
#202
b110101000101 !
b0010101011001011100 "
b111111110100 #
b111111100110 $
b11010101001101001000000 )
b1111111111111010 *
b0000000000001100 +
b1 3
#203
b0 3
#204
b110101110011 !
b0101001000101101000 "
b000000111000 #
b111110100110 $
b10101101110100110000000 )
b0000000000000110 *
b0000000000001010 +
b1 3
#205
b0 3
#206
b110110100010 !
b0111100110001110100 "
b000010111000 #
b111111111000 $
b10000110011100011000000 )
b0000000000001100 *
b0000000000000000 +
b1 3
#207
b0 3
#208
b110111011000 !
b1010000011110000000 "
b000010011100 #
b000011010000 $
b01011111000100000000000 )
b0000000000001000 *
b1111111111110100 +
b1 3
#209
b0 3
#210
b111000010110 !
b1100100001010001100 "
b111110010100 #
b000100111100 $
b00110111101011101000000 )
b1111111111111010 *
b1 3
#211
b0 3
#212
b111001010111 !
b1110111110110011000 "
b111001111010 #
b000001101100 $
b00010000010011010000000 )
b1111111111110010 *
b1111111111111100 +
b1 3
#213
b0 3
#214
b111010011111 !
b0001011100010100100 "
b111010010100 #
b111011010100 $
b11101000111010111000000 )
b1111111111110100 *
b0000000000001000 +
b1 3
#215
b0 3
#216
b111011100110 !
b0011111001110110000 "
b000000101100 #
b110111101100 $
b11000001100010100000000 )
b0000000000000000 *
b0000000000001100 +
b1 3
#217
b0 3
#218
b111100110011 !
b0110010111010111100 "
b000111111110 #
b111011011010 $
b10011010001010001000000 )
b0000000000001010 *
b0000000000000100 +
b1 3
#219
b0 3
#220
b111110000001 !
b1000110100111001000 "
b001001000000 #
b000100010100 $
b01110010110001110000000 )
b0000000000001100 *
b1111111111111000 +
b1 3
#221
b0 3
#222
b111111010000 !
b1011010010011010100 "
b000001101100 #
b001010100100 $
b01001011011001011000000 )
b0000000000000000 *
b1111111111110010 +
b1 3
#223
b0 3
#224
b000000011111 !
b1101101111111100000 "
b110111110010 #
b000111110010 $
b00100100000001000000000 )
b1111111111110100 *
b1111111111110110 +
b1 3
#225
b0 3
#226
b000001110000 !
b0000001101011101100 "
b110100011110 #
b111101100100 $
b11111100101000101000000 )
b1111111111110010 *
b0000000000000010 +
b1 3
#227
b0 3
#228
b000010111110 !
b0010101010111111000 "
b111011010000 #
b110100110010 $
b11010101010000010000000 )
b1111111111111010 *
b0000000000001100 +
b1 3
#229
b0 3
#230
b000100001101 !
b0101001000100000100 "
b000110101100 #
b110101011110 $
b10101101110111111000000 )
b0000000000000110 *
b0000000000001010 +
b1 3
#231
b0 3
#232
b000101010111 !
b0111100110000010000 "
b001100100100 #
b111111100010 $
b10000110011111100000000 )
b0000000000001100 *
b0000000000000000 +
b1 3
#233
b0 3
#234
b000110011101 !
b1010000011100011100 "
b000111100010 #
b001010000110 $
b01011111000111001000000 )
b0000000000000110 *
b1111111111110100 +
b1 3
#235
b0 3
#236
b000111100010 !
b1100100001000101000 "
b111100000000 #
b001011110100 $
b00110111101110110000000 )
b1111111111111010 *
b1111111111110010 +
b1 3
#237
b0 3
#238
b001000011111 !
b1110111110100110100 "
b110100001010 #
b000011011000 $
b00010000010110011000000 )
b1111111111110010 *
b1111111111111110 +
b1 3
#239
b0 3
#240
b001001011010 !
b0001011100001000000 "
b110110110000 #
b111000011010 $
b11101000111110000000000 )
b1111111111110100 *
b0000000000001000 +
b1 3
#241
b0 3
#242
b001010010000 !
b0011111001101001100 "
b000000111100 #
b110100100100 $
b11000001100101101000000 )
b0000000000000000 *
b0000000000001100 +
b1 3
#243
b0 3
#244
b001010111010 !
b0110010111001011000 "
b001001011110 #
b111010100100 $
b10011010001101010000000 )
b0000000000001010 *
b0000000000000100 +
b1 3
#245
b0 3
#246
b001011100101 !
b1000110100101100100 "
b001001001100 #
b000100011000 $
b01110010110100111000000 )
b0000000000001100 *
b1111111111111000 +
b1 3
#247
b0 3
#248
b001100000011 !
b1011010010001110000 "
b000001100000 #
b001001010100 $
b01001011011100100000000 )
b0000000000000000 *
b1111111111110010 +
b1 3
#249
b0 3
#250
b001100011100 !
b1101101111101111100 "
b111001110000 #
b000101111100 $
b00100100000100001000000 )
b1111111111110100 *
b1111111111110110 +
b1 3
#251
b0 3
#252
b001100101111 !
b0000001101010001000 "
b111000100000 #
b111110011100 $
b11111100101011110000000 )
b1111111111110010 *
b0000000000000010 +
b1 3
#253
b0 3
#254
b001100111001 !
b0010101010110010100 "
b111101011010 #
b111001111000 $
b11010101010011011000000 )
b1111111111111010 *
b0000000000001100 +
b1 3
#255
b0 3
#256
b001100111101 !
b0101001000010100000 "
b000010111100 #
b111011010100 $
b10101101111011000000000 )
b0000000000000110 *
b0000000000001010 +
b1 3
#257
b0 3
#258
b001100110111 !
b0111100101110101100 "
b000100011000 #
b111111110100 $
b10000110100010101000000 )
b0000000000001100 *
b0000000000000000 +
b1 3
#259
b0 3
#260
b001100100101 !
b1010000011010111000 "
b000001111000 #
b000010100100 $
b01011111001010010000000 )
b0000000000001000 *
b1111111111110100 +
b1 3
#261
b0 3
#262
b001100010011 !
b1100100000111000100 "
b111111010110 #
b000001111000 $
b00110111110001111000000 )
b1111111111111010 *
b1 3
#263
b0 3
#264
b001011110110 !
b1110111110011010000 "
b111111010000 #
b000000001100 $
b00010000011001100000000 )
b1111111111110010 *
b1111111111111110 +
b1 3
#265
b0 3
#266
b001011010001 !
b0001011011111011100 "
b000000011000 #
b000000010010 $
b11101001000001001000000 )
b1111111111110100 *
b0000000000001010 +
b1 3
#267
b0 3
#268
b001010100110 !
b0011111001011101000 "
b111111110110 #
b000001101100 $
b11000001101000110000000 )
b0000000000000000 *
b0000000000001100 +
b1 3
#269
b0 3
#270
b001001110110 !
b0110010110111110100 "
b111101011010 #
b000001100000 $
b10011010010000011000000 )
b0000000000001010 *
b0000000000000100 +
b1 3
#271
b0 3
#272
b001000111110 !
b1000110100100000000 "
b111100001100 #
b111110001100 $
b01110010111000000000000 )
b0000000000001100 *
b1111111111111000 +
b1 3
#273
b0 3
#274
b001000000011 !
b1011010010000001100 "
b111111001000 #
b111010101010 $
b01001011011111101000000 )
b0000000000000000 *
b1111111111110010 +
b1 3
#275
b0 3
#276
b000111000001 !
b1101101111100011000 "
b000100101000 #
b111011100010 $
b00100100000111010000000 )
b1111111111110100 *
b1111111111111000 +
b1 3
#277
b0 3
#278
b000101111011 !
b0000001101000100100 "
b000111011000 #
b000001100000 $
b11111100101110111000000 )
b1111111111110010 *
b0000000000000010 +
b1 3
#279
b0 3
#280
b000100110110 !
b0010101010100110000 "
b000011010010 #
b000111110010 $
b11010101010110100000000 )
b1111111111111010 *
b0000000000001100 +
b1 3
#281
b0 3
#282
b000011101001 !
b0101001000000111100 "
b111010111100 #
b000111111100 $
b10101101111110001000000 )
b0000000000000110 *
b0000000000001010 +
b1 3
#283
b0 3
#284
b000010011011 !
b0111100101101001000 "
b110101101110 #
b000000011000 $
b10000110100101110000000 )
b0000000000001100 *
b0000000000000000 +
b1 3
#285
b0 3
#286
b000001001100 !
b1010000011001010100 "
b111001011100 #
b110111010000 $
b01011111001101011000000 )
b0000000000000110 *
b1111111111110100 +
b1 3
#287
b0 3
#288
b111111111100 !
b1100100000101100000 "
b000011101010 #
b110101000000 $
b00110111110101000000000 )
b1111111111111100 *
b1111111111110010 +
b1 3
#289
b0 3
#290
b111110101100 !
b1110111110001101100 "
b001011100100 #
b111100101000 $
b00010000011100101000000 )
b1111111111110010 *
b1111111111111100 +
b1 3
#291
b0 3
#292
b111101011111 !
b0001011011101111000 "
b001001101000 #
b000111110110 $
b11101001000100010000000 )
b1111111111110100 *
b0000000000001010 +
b1 3
#293
b0 3
#294
b111100010010 !
b0011111001010000100 "
b111110111100 #
b001100101100 $
b11000001101011111000000 )
b0000000000000000 *
b0000000000001100 +
b1 3
#295
b0 3
#296
b111011000111 !
b0110010110110010000 "
b110100110100 #
b000110011100 $
b10011010010011100000000 )
b0000000000001010 *
b0000000000000100 +
b1 3
#297
b0 3
#298
b111010000000 !
b1000110100010011100 "
b110100010010 #
b111010011010 $
b01110010111011001000000 )
b1111111111111010 +
b1 3
#299
b0 3
#300
b111000111011 !
b1011010001110101000 "
b111101111010 #
b110011010010 $
b01001011100010110000000 )
b0000000000000000 *
b1111111111110010 +
b1 3
#301
b0 3
#302
b110111111110 !
b1101101111010110100 "
b001001000100 #
b110111010010 $
b00100100001010011000000 )
b1111111111110100 *
b1111111111110110 +
b1 3
#303
b0 3
#304
b110111000001 !
b0000001100111000000 "
b001100000010 #
b000010011110 $
b11111100110010000000000 )
b1111111111110010 *
b0000000000000100 +
b1 3
#305
b0 3
#306
b110110001110 !
b0010101010011001100 "
b000100100110 #
b001010111000 $
b11010101011001101000000 )
b1111111111111010 *
b0000000000001100 +
b1 3
#307
b0 3
#308
b110101011111 !
b0101000111111011000 "
b111001111110 #
b001001100000 $
b10101110000001010000000 )
b0000000000000110 *
b0000000000001010 +
b1 3
#309
b0 3
#310
b110100111010 !
b0111100101011100100 "
b110101011010 #
b000000011010 $
b10000110101000111000000 )
b0000000000001100 *
b0000000000000000 +
b1 3
#311
b0 3
#312
b110100010110 !
b1010000010111110000 "
b111010000100 #
b111000001000 $
b01011111010000100000000 )
b0000000000001000 *
b1111111111110100 +
b1 3
#313
b0 3
#314
b110011111101 !
b1100100000011111100 "
b000010110110 #
b110111011110 $
b00110111111000001000000 )
b1111111111111100 *
b1111111111110010 +
b1 3
#315
b0 3
#316
b110011101000 !
b1110111110000001000 "
b000111101110 #
b111101101110 $
b00010000011111110000000 )
b1111111111110010 *
b1111111111111110 +
b1 3
#317
b0 3
#318
b110011011111 !
b0001011011100010100 "
b000101011100 #
b000100011010 $
b11101001000111011000000 )
b1111111111110100 *
b0000000000001000 +
b1 3
#319
b0 3
#320
b110011011100 !
b0011111001000100000 "
b111111100000 #
b000101111000 $
b11000001101111000000000 )
b0000000000000000 *
b0000000000001100 +
b1 3
#321
b0 3
#322
b110011011111 !
b0110010110100101100 "
b111011110100 #
b000010011010 $
b10011010010110101000000 )
b0000000000001010 *
b0000000000000100 +
b1 3
#323
b0 3
#324
b110011101101 !
b1000110100000111000 "
b111100101110 #
b111110011010 $
b01110010111110010000000 )
b1111111111111010 +
b1 3
#325
b0 3
#326
b110011111111 !
b1011010001101000100 "
b111111100110 #
b111101100110 $
b01001011100101111000000 )
b0000000000000000 *
b1111111111110010 +
b1 3
#327
b0 3
#328
b110100011011 !
b1101101111001010000 "
b000000110110 #
b111111001010 $
b00100100001101100000000 )
b1111111111110100 *
b1111111111110110 +
b1 3
#329
b0 3
#330
b110100111110 !
b0000001100101011100 "
b111111111100 #
b111111111110 $
b11111100110101001000000 )
b1111111111110010 *
b0000000000000100 +
b1 3
#331
b0 3
#332
b110101101000 !
b0010101010001101000 "
b111111011110 #
b111110110100 $
b11010101011100110000000 )
b1111111111111010 *
b0000000000001100 +
b1 3
#333
b0 3
#334
b110110010101 !
b0101000111101110100 "
b000001010100 #
b111101111000 $
b10101110000100011000000 )
b0000000000000110 *
b0000000000001010 +
b1 3
#335
b0 3
#336
b110111001100 !
b0111100101010000000 "
b000011101110 #
b111111110100 $
b10000110101100000000000 )
b0000000000001100 *
b0000000000000000 +
b1 3
#337
b0 3
#338
b111000000111 !
b1010000010110001100 "
b000010111010 #
b000011111010 $
b01011111010011101000000 )
b0000000000000110 *
b1111111111110100 +
b1 3
#339
b0 3
#340
b111001000111 !
b1100100000010011000 "
b111110000110 #
b000101101100 $
b00110111111011010000000 )
b1111111111111100 *
b1111111111110010 +
b1 3
#341
b0 3
