2.soc-litex/3.build/dump.vcd
$date
	2025-06-30 22:54
$end
$timescale 7692ps $end
$scope dumped_signals $end
$var wire 12 ! main_dbg_nco_cos $end
$var wire 12 " main_dbg_nco_sin $end
$var wire 19 # main_dbg_phase_acc_down $end
$var wire 12 $ main_dbg_x_downconverted $end
$var wire 12 % main_dbg_y_downconverted $end
$var wire 16 & main_dbg_downsampled_x $end
$var wire 16 ' main_dbg_downsampled_y $end
$var wire 16 ( main_dbg_upsampled_x $end
$var wire 16 ) main_dbg_upsampled_y $end
$var wire 23 * main_dbg_phase_inv $end
$var wire 16 + main_dbg_x_upconverted $end
$var wire 16 , main_dbg_y_upconverted $end
$var wire 1 - main_dbg_ce_down_x $end
$var wire 1 . main_dbg_ce_up_x $end
$var wire 1 / main_dbg_cic_ce_x $end
$var wire 1 0 main_dbg_comp_ce_x $end
$var wire 1 1 main_dbg_hb_ce_x $end
$var wire 12 2 main_dbg_cic_out_x $end
$var wire 16 3 main_dbg_comp_out_x $end
$var wire 19 4 main_phase_inc_nco_storage $end
$var wire 19 5 main_phase_inc_down_storage $end
$var wire 1 6 scope_clk $end
$var wire 1 7 scope_trig $end
$unscope  $end
$enddefinitions  $end
$dumpvars
bxxxxxxxxxxxx !
bxxxxxxxxxxxx "
bxxxxxxxxxxxxxxxxxxx #
bxxxxxxxxxxxx $
bxxxxxxxxxxxx %
bxxxxxxxxxxxxxxxx &
bxxxxxxxxxxxxxxxx '
bxxxxxxxxxxxxxxxx (
bxxxxxxxxxxxxxxxx )
bxxxxxxxxxxxxxxxxxxxxxxx *
bxxxxxxxxxxxxxxxx +
bxxxxxxxxxxxxxxxx ,
bx -
bx .
bx /
bx 0
bx 1
bxxxxxxxxxxxx 2
bxxxxxxxxxxxxxxxx 3
bxxxxxxxxxxxxxxxxxxx 4
bxxxxxxxxxxxxxxxxxxx 5
bx 6
bx 7
$end
#0
b111110110100 !
b001111100100 "
b1001101100011100000 #
b111110000100 $
b111110000100 %
b1111111111110010 &
b1111111111110010 '
b1111111111110111 (
b1111111111110111 )
b01100100111001000000000 *
b0000000000001010 +
b1111111111110100 ,
b0 -
b0 .
b0 /
b0 0
b0 1
b111111111111 2
b1111111111110001 3
b0000000001111101000 4
b0010011101100001100 5
b1 6
b0 7
#1
b0 6
#2
b111110100110 !
b1100001001111101100 #
b000000011100 $
b111101100000 %
b00111101100000101000000 *
b1111111111111100 +
b1111111111110010 ,
b1 6
#3
b0 6
#4
b111110011010 !
b1110100111011111000 #
b000010001000 $
b111111000010 %
b00010110001000010000000 *
b1111111111110010 +
b1111111111111010 ,
b1 6
#5
b0 6
#6
b111110001110 !
b001111100010 "
b0001000101000000100 #
b000001110100 $
b000001001000 %
b11101110101111111000000 *
b1111111111110100 +
b0000000000000110 ,
b1 6
#7
b0 6
#8
b111110000100 !
b001111100000 "
b0011100010100010000 #
b000000000110 $
b000001111100 %
b11000111010111100000000 *
b0000000000000000 +
b0000000000001100 ,
b1 6
#9
b0 6
#10
b111101111000 !
b001111011110 "
b0110000000000011100 #
b111110100110 $
b000001001000 %
b10011111111111001000000 *
b0000000000001010 +
b0000000000000110 ,
b1 6
#11
b0 6
#12
b111101101100 !
b001111011010 "
b1000011101100101000 #
b111110011110 $
b111111100000 %
b01111000100110110000000 *
b0000000000001100 +
b1111111111111010 ,
b1 6
#13
b0 6
#14
b111101100000 !
b001111011000 "
b1010111011000110100 #
b111111100100 $
b111110101010 %
b01010001001110011000000 *
b0000000000000000 +
b1111111111110010 ,
b1 6
#15
b0 6
#16
b111101010100 !
b1101011000101000000 #
b000000110000 $
b111111000010 %
b00101001110110000000000 *
b1111111111110110 +
b1111111111110100 ,
b1 6
#17
b0 6
#18
b111101001000 !
b001111010110 "
b1111110110001001100 #
b000001000000 $
b000000000010 %
b00000010011101101000000 *
b1111111111110010 +
b0000000000000000 ,
b1 6
#19
b0 6
#20
b111100111100 !
b001111010100 "
b0010010011101011000 #
b000000011010 $
b000000101110 %
b11011011000101010000000 *
b1111111111111010 +
b0000000000001010 ,
b1 6
#21
b0 6
#22
b111100110000 !
b001111010010 "
b0100110001001100100 #
b111111101110 $
b000000100100 %
b10110011101100111000000 *
b0000000000000100 +
b1 6
#23
b0 6
#24
b111100100100 !
b001111010000 "
b0111001110101110000 #
b111111100010 $
b000000000110 %
b10001100010100100000000 *
b0000000000001100 +
b0000000000000000 ,
b1 6
#25
b0 6
#26
b111100011000 !
b001111001100 "
b1001101100001111100 #
b111111110010 $
b111111110010 %
b01100100111100001000000 *
b0000000000001000 +
b1111111111110100 ,
b1 6
#27
b0 6
#28
b111100001100 !
b001111001000 "
b1100001001110001000 #
b000000000000 $
b111111111010 %
b00111101100011110000000 *
b1111111111111100 +
b1 6
#29
b0 6
#30
b111100000000 !
b001111000110 "
b1110100111010010100 #
b111111111010 $
b000000000000 %
b00010110001011011000000 *
b1111111111110010 +
b1111111111111100 ,
b1 6
#31
b0 6
#32
b111011110100 !
b001111000100 "
b0001000100110100000 #
b111111110010 $
b111111110100 %
b11101110110011000000000 *
b1111111111110100 +
b0000000000000110 ,
b1 6
b1 7
#33
b0 6
#34
b111011101010 !
b001111000000 "
b0011100010010101100 #
b000000000000 $
b111111100000 %
b11000111011010101000000 *
b0000000000000000 +
b0000000000001100 ,
b1 6
#35
b0 6
#36
b111011011110 !
b001110111110 "
b0101111111110111000 #
b000000100000 $
b111111100110 %
b10100000000010010000000 *
b0000000000001010 +
b0000000000000110 ,
b1 6
#37
b0 6
#38
b111011010100 !
b001110111010 "
b1000011101011000100 #
b000000110010 $
b000000001110 %
b01111000101001111000000 *
b1111111111111010 ,
b1 6
#39
b0 6
#40
b111011001000 !
b001110110100 "
b1010111010111010000 #
b000000010010 $
b000000111110 %
b01010001010001100000000 *
b0000000000000000 +
b1111111111110010 ,
b1 6
#41
b0 6
#42
b111010111100 !
b001110110010 "
b1101011000011011100 #
b111111010000 $
b000000111100 %
b00101001111001001000000 *
b1111111111110100 +
b1111111111110110 ,
b1 6
#43
b0 6
#44
b111010110010 !
b001110101100 "
b1111110101111101000 #
b111110100110 $
b111111111000 %
b00000010100000110000000 *
b1111111111110010 +
b0000000000000000 ,
b1 6
#45
b0 6
#46
b111010100110 !
b001110101010 "
b0010010011011110100 #
b111111001010 $
b111110101000 %
b11011011001000011000000 *
b1111111111111010 +
b0000000000001010 ,
b1 6
#47
b0 6
#48
b111010011010 !
b001110100110 "
b0100110001000000000 #
b000000110000 $
b111110011000 %
b10110011110000000000000 *
b0000000000000100 +
b1 6
#49
b0 6
#50
b111010010000 !
b001110100010 "
b0111001110100001100 #
b000001111000 $
b111111101000 %
b10001100010111101000000 *
b0000000000001100 +
b0000000000000000 ,
b1 6
#51
b0 6
#52
b111010000110 !
b001110011100 "
b1001101100000011000 #
b000001100000 $
b000001100000 %
b01100100111111010000000 *
b0000000000000110 +
b1111111111110100 ,
b1 6
#53
b0 6
#54
b111001111010 !
b001110011000 "
b1100001001100100100 #
b111111100100 $
b000010010000 %
b00111101100110111000000 *
b1111111111111100 +
b1111111111110010 ,
b1 6
#55
b0 6
#56
b111001101110 !
b001110010010 "
b1110100111000110000 #
b111101101110 $
b000001000000 %
b00010110001110100000000 *
b1111111111110010 +
b1111111111111100 ,
b1 6
#57
b0 6
#58
b111001100010 !
b001110010000 "
b0001000100100111100 #
b111101101100 $
b111110100110 %
b11101110110110001000000 *
b1111111111110100 +
b0000000000000110 ,
b1 6
#59
b0 6
#60
b111001011000 !
b001110001010 "
b0011100010001001000 #
b111111110100 $
b111101001000 %
b11000111011101110000000 *
b0000000000000000 +
b0000000000001100 ,
b1 6
#61
b0 6
#62
b111001001110 !
b001110000100 "
b0101111111101010100 #
b000010011010 $
b111110000110 %
b10100000000101011000000 *
b0000000000001010 +
b0000000000000110 ,
b1 6
#63
b0 6
#64
b111001000100 !
b001110000000 "
b1000011101001100000 #
b000011000110 $
b000000111100 %
b01111000101101000000000 *
b0000000000001100 +
b1111111111111010 ,
b1 6
#65
b0 6
#66
b111000111000 !
b001101111010 "
b1010111010101101100 #
b000001000000 $
b000011010000 %
b01010001010100101000000 *
b0000000000000000 +
b1111111111110010 ,
b1 6
#67
b0 6
#68
b111000101110 !
b001101110110 "
b1101011000001111000 #
b111101110000 $
b000010110110 %
b00101001111100010000000 *
b1111111111111000 +
b1111111111110100 ,
b1 6
#69
b0 6
#70
b111000100010 !
b001101101110 "
b1111110101110000100 #
b111100001100 $
b111111110000 %
b00000010100011111000000 *
b1111111111110010 +
b0000000000000000 ,
b1 6
#71
b0 6
#72
b111000011000 !
b001101101000 "
b0010010011010010000 #
b111101111010 $
b111100100100 %
b11011011001011100000000 *
b1111111111111010 +
b0000000000001010 ,
b1 6
#73
b0 6
#74
b111000001110 !
b001101100010 "
b0100110000110011100 #
b000001101100 $
b111100001100 %
b10110011110011001000000 *
b0000000000000100 +
b1 6
#75
b0 6
#76
b111000000010 !
b001101011110 "
b0111001110010101000 #
b000100010000 $
b111111001110 %
b10001100011010110000000 *
b0000000000001100 +
b0000000000000000 ,
b1 6
#77
b0 6
#78
b110111111010 !
b001101010110 "
b1001101011110110100 #
b000011001110 $
b000011001100 %
b01100101000010011000000 *
b0000000000001000 +
b1111111111110100 ,
b1 6
#79
b0 6
#80
b110111101110 !
b001101010010 "
b1100001001011000000 #
b111111001000 $
b000100100110 %
b00111101101010000000000 *
b1111111111111100 +
b1111111111110010 ,
b1 6
#81
b0 6
#82
b110111100110 !
b001101001000 "
b1110100110111001100 #
b111011100010 $
b000010000000 %
b00010110010001101000000 *
b1111111111110100 +
b1111111111111010 ,
b1 6
#83
b0 6
#84
b110111011100 !
b001101000100 "
b0001000100011011000 #
b111011101000 $
b111101011000 %
b11101110111001010000000 *
b0000000000000110 ,
b1 6
#85
b0 6
#86
b110111010010 !
b001100111100 "
b0011100001111100100 #
b111111101010 $
b111010110010 %
b11000111100000111000000 *
b0000000000000000 +
b0000000000001100 ,
b1 6
#87
b0 6
#88
b110111000110 !
b001100111000 "
b0101111111011110000 #
b000100001110 $
b111100101010 %
b10100000001000100000000 *
b0000000000001010 +
b0000000000000110 ,
b1 6
#89
b0 6
#90
b110110111100 !
b001100110000 "
b1000011100111111100 #
b000101010100 $
b000001101010 %
b01111000110000001000000 *
b0000000000001100 +
b1111111111111010 ,
b1 6
#91
b0 6
#92
b110110110100 !
b001100101000 "
b1010111010100001000 #
b000001101100 $
b000101100000 %
b01010001010111110000000 *
b0000000000000010 +
b1111111111110010 ,
b1 6
#93
b0 6
#94
b110110101010 !
b001100100010 "
b1101011000000010100 #
b111100010110 $
b000100101010 %
b00101001111111011000000 *
b1111111111111000 +
b1111111111110100 ,
b1 6
#95
b0 6
#96
b110110011110 !
b001100011010 "
b1111110101100100000 #
b111001111010 $
b111111100110 %
b00000010100111000000000 *
b1111111111110010 +
b0000000000000000 ,
b1 6
#97
b0 6
#98
b110110010110 !
b001100010010 "
b0010010011000101100 #
b111100110000 $
b111010101000 %
b11011011001110101000000 *
b1111111111111010 +
b0000000000001010 ,
b1 6
#99
b0 6
#100
b110110001110 !
b001100001010 "
b0100110000100111000 #
b000010101010 $
b111010000110 %
b10110011110110010000000 *
b0000000000000100 +
b1 6
#101
b0 6
#102
b110110000100 !
b001100000100 "
b0111001110001000100 #
b000110100000 $
b111110110010 %
b10001100011101111000000 *
b0000000000001100 +
b0000000000000000 ,
b1 6
#103
b0 6
#104
b110101111010 !
b001011111100 "
b1001101011101010000 #
b000100110010 $
b000100110000 %
b01100101000101100000000 *
b0000000000000110 +
b1111111111110100 ,
b1 6
#105
b0 6
#106
b110101110010 !
b001011110100 "
b1100001001001011100 #
b111110110000 $
b000110110100 %
b00111101101101001000000 *
b1111111111111100 +
b1111111111110010 ,
b1 6
#107
b0 6
#108
b110101101000 !
b001011101110 "
b1110100110101101000 #
b111001100000 $
b000010111010 %
b00010110010100110000000 *
b1111111111110010 +
b1111111111111100 ,
b1 6
#109
b0 6
#110
b110101100000 !
b001011100100 "
b0001000100001110100 #
b111001101110 $
b111100010000 %
b11101110111100011000000 *
b1111111111110100 +
b0000000000001000 ,
b1 6
#111
b0 6
#112
b110101010110 !
b001011011100 "
b0011100001110000000 #
b111111100000 $
b111000100100 %
b11000111100100000000000 *
b0000000000000000 +
b0000000000001100 ,
b1 6
#113
b0 6
#114
b110101001110 !
b001011010100 "
b0101111111010001100 #
b000101111110 $
b111011010000 %
b10100000001011101000000 *
b0000000000001010 +
b0000000000000110 ,
b1 6
#115
b0 6
#116
b110101000110 !
b001011001100 "
b1000011100110011000 #
b000111011010 $
b000010010010 %
b01111000110011010000000 *
b1111111111111010 ,
b1 6
#117
b0 6
#118
b110100111110 !
b001011000010 "
b1010111010010100100 #
b000010011000 $
b000111100110 %
b01010001011010111000000 *
b0000000000000010 +
b1111111111110010 ,
b1 6
#119
b0 6
#120
b110100110100 !
b001010111010 "
b1101010111110110000 #
b111011000010 $
b000110011000 %
b00101010000010100000000 *
b1111111111111000 +
b1111111111110100 ,
b1 6
#121
b0 6
#122
b110100101100 !
b001010110010 "
b1111110101010111100 #
b110111101110 $
b111111100000 %
b00000010101010001000000 *
b1111111111110010 +
b0000000000000000 ,
b1 6
#123
b0 6
#124
b110100100110 !
b001010101000 "
b0010010010111001000 #
b111011101000 $
b111000110100 %
b11011011010001110000000 *
b1111111111111010 +
b0000000000001010 ,
b1 6
#125
b0 6
#126
b110100011100 !
b001010100000 "
b0100110000011010100 #
b000011011110 $
b111000001100 %
b10110011111001011000000 *
b0000000000000100 +
b1 6
#127
b0 6
#128
b110100010100 !
b001010011000 "
b0111001101111100000 #
b001000100010 $
b111110011000 %
b10001100100001000000000 *
b0000000000001100 +
b0000000000000000 ,
b1 6
#129
b0 6
#130
b110100001100 !
b001010010000 "
b1001101011011101100 #
b000110010100 $
b000110010000 %
b01100101001000101000000 *
b0000000000001010 +
b1111111111110100 ,
b1 6
#131
b0 6
#132
b110100000100 !
b001010000110 "
b1100001000111111000 #
b111110011000 $
b001000111010 %
b00111101110000010000000 *
b1111111111111100 +
b1111111111110010 ,
b1 6
#133
b0 6
#134
b110011111100 !
b001001111110 "
b1110100110100000100 #
b110111101000 $
b000011110010 %
b00010110010111111000000 *
b1111111111110010 +
b1111111111111100 ,
b1 6
#135
b0 6
#136
b110011110100 !
b001001110100 "
b0001000100000010000 #
b110111111110 $
b111011001100 %
b11101110111111100000000 *
b1111111111110100 +
b0000000000000110 ,
b1 6
#137
b0 6
#138
b110011101110 !
b001001101010 "
b0011100001100011100 #
b111111011010 $
b110110011110 %
b11000111100111001000000 *
b0000000000000000 +
b0000000000001100 ,
b1 6
#139
b0 6
#140
b110011100110 !
b001001100000 "
b0101111111000101000 #
b000111100100 $
b111010000000 %
b10100000001110110000000 *
b0000000000001010 +
b0000000000000110 ,
b1 6
#141
b0 6
#142
b110011011110 !
b001001011000 "
b1000011100100110100 #
b001001010100 $
b000010110110 %
b01111000110110011000000 *
b0000000000001100 +
b1111111111111010 ,
b1 6
#143
b0 6
#144
b110011011000 !
b001001001100 "
b1010111010001000000 #
b000010111110 $
b001001011110 %
b01010001011110000000000 *
b0000000000000010 +
b1111111111110010 ,
b1 6
#145
b0 6
#146
b110011010000 !
b001001000100 "
b1101010111101001100 #
b111001110010 $
b000111111110 %
b00101010000101101000000 *
b1111111111110110 +
b1111111111110100 ,
b1 6
#147
b0 6
#148
b110011001010 !
b001000111010 "
b1111110101001011000 #
b110101110000 $
b111111011010 %
b00000010101101010000000 *
b1111111111110010 +
b0000000000000010 ,
b1 6
#149
b0 6
#150
b110011000100 !
b001000101110 "
b0010010010101100100 #
b111010100110 $
b110111001000 %
b11011011010100111000000 *
b1111111111111010 +
b0000000000001010 ,
b1 6
#151
b0 6
#152
b110010111100 !
b001000100110 "
b0100110000001110000 #
b000100010000 $
b110110011000 %
b10110011111100100000000 *
b0000000000000100 +
b1 6
#153
b0 6
#154
b110010110110 !
b001000011100 "
b0111001101101111100 #
b001010011100 $
b111110000010 %
b10001100100100001000000 *
b0000000000001100 +
b0000000000000000 ,
b1 6
#155
b0 6
#156
b110010101110 !
b001000010010 "
b1001101011010001000 #
b000111101010 $
b000111100110 %
b01100101001011110000000 *
b0000000000001010 +
b1111111111110100 ,
b1 6
#157
b0 6
#158
b110010101010 !
b001000001000 "
b1100001000110010100 #
b111110000100 $
b001010101110 %
b00111101110011011000000 *
b1111111111111100 +
b1111111111110010 ,
b1 6
#159
b0 6
#160
b110010100010 !
b000111111110 "
b1110100110010100000 #
b110101111100 $
b000100100100 %
b00010110011011000000000 *
b1111111111110100 +
b1111111111111010 ,
b1 6
#161
b0 6
#162
b110010011110 !
b000111110010 "
b0001000011110101100 #
b110110011000 $
b111010010000 %
b11101111000010101000000 *
b0000000000000110 ,
b1 6
#163
b0 6
#164
b110010010110 !
b000111101000 "
b0011100001010111000 #
b111111010000 $
b110100101100 %
b11000111101010010000000 *
b0000000000000000 +
b0000000000001100 ,
b1 6
#165
b0 6
#166
b110010010010 !
b000111011110 "
b0101111110111000100 #
b001000111010 $
b111000111010 %
b10100000010001111000000 *
b0000000000001010 +
b0000000000000110 ,
b1 6
#167
b0 6
#168
b110010001100 !
b000111010100 "
b1000011100011010000 #
b001011000010 $
b000011011000 %
b01111000111001100000000 *
b0000000000001100 +
b1111111111111010 ,
b1 6
#169
b0 6
#170
b110010000110 !
b000111001000 "
b1010111001111011100 #
b000011100010 $
b001011001000 %
b01010001100001001000000 *
b0000000000000010 +
b1111111111110010 ,
b1 6
#171
b0 6
#172
b110010000000 !
b000111000000 "
b1101010111011101000 #
b111000110000 $
b001001010100 %
b00101010001000110000000 *
b1111111111110100 +
b1111111111110110 ,
b1 6
#173
b0 6
#174
b110001111010 !
b000110110100 "
b1111110100111110100 #
b110100000100 $
b111111010100 %
b00000010110000011000000 *
b1111111111110010 +
b0000000000000000 ,
b1 6
#175
b0 6
#176
b110001110110 !
b000110101000 "
b0010010010100000000 #
b111001101100 $
b110101101110 %
b11011011011000000000000 *
b1111111111111010 +
b0000000000001010 ,
b1 6
#177
b0 6
#178
b110001110000 !
b000110011110 "
b0100110000000001100 #
b000100111100 $
b110100110110 %
b10110011111111101000000 *
b0000000000000100 +
b1 6
#179
b0 6
#180
b110001101110 !
b000110010010 "
b0111001101100011000 #
b001100000010 $
b111101101110 %
b10001100100111010000000 *
b0000000000001100 +
b0000000000000000 ,
b1 6
#181
b0 6
#182
b110001100110 !
b000110000110 "
b1001101011000100100 #
b001000110100 $
b001000101110 %
b01100101001110111000000 *
b0000000000000110 +
b1111111111110100 ,
b1 6
#183
b0 6
#184
b110001100010 !
b000101111100 "
b1100001000100110000 #
b111101110100 $
b001100010110 %
b00111101110110100000000 *
b1111111111111110 +
b1111111111110010 ,
b1 6
#185
b0 6
#186
b110001011110 !
b000101110010 "
b1110100110000111100 #
b110100100000 $
b000101010000 %
b00010110011110001000000 *
b1111111111110100 +
b1111111111111010 ,
b1 6
#187
b0 6
#188
b110001011010 !
b000101100110 "
b0001000011101001000 #
b110101000010 $
b111001011110 %
b11101111000101110000000 *
b0000000000000110 ,
b1 6
#189
b0 6
#190
b110001010110 !
b000101011100 "
b0011100001001010100 #
b111111001000 $
b110011001010 %
b11000111101101011000000 *
b0000000000000000 +
b0000000000001100 ,
b1 6
#191
b0 6
#192
b110001010010 !
b000101010000 "
b0101111110101100000 #
b001010001000 $
b110111111100 %
b10100000010101000000000 *
b0000000000001010 +
b0000000000000110 ,
b1 6
#193
b0 6
#194
b110001001110 !
b000101000100 "
b1000011100001101100 #
b001100100000 $
b000011110010 %
b01111000111100101000000 *
b0000000000001100 +
b1111111111111010 ,
b1 6
#195
b0 6
#196
b110001001010 !
b000100111100 "
b1010111001101111000 #
b000011111110 $
b001100100010 %
b01010001100100010000000 *
b0000000000000010 +
b1111111111110010 ,
b1 6
#197
b0 6
#198
b110001000110 !
b000100110000 "
b1101010111010000100 #
b110111111000 $
b001010011110 %
b00101010001011111000000 *
b1111111111110110 +
b1111111111110110 ,
b1 6
#199
b0 6
#200
b110001000010 !
b000100100010 "
b1111110100110010000 #
b110010101100 $
b111111010000 %
b00000010110011100000000 *
b1111111111110010 +
b0000000000000000 ,
b1 6
#201
b0 6
#202
b110000111110 !
b000100010110 "
b0010010010010011100 #
b111000111100 $
b110100100000 %
b11011011011011001000000 *
b1111111111111010 +
b0000000000001100 ,
b1 6
#203
b0 6
#204
b110000111100 !
b000100001010 "
b0100101111110101000 #
b000101011110 $
b110011101000 %
b10110100000010110000000 *
b0000000000000100 +
b0000000000001010 ,
b1 6
#205
b0 6
#206
b110000111000 !
b000100000000 "
b0111001101010110100 #
b001101011100 $
b111101011010 %
b10001100101010011000000 *
b0000000000001100 +
b0000000000000000 ,
b1 6
#207
b0 6
#208
b110000110110 !
b000011110100 "
b1001101010111000000 #
b001001110000 $
b001001101000 %
b01100101010010000000000 *
b0000000000001000 +
b1111111111110100 ,
b1 6
#209
b0 6
#210
b110000110010 !
b000011101000 "
b1100001000011001100 #
b111101100110 $
b001101100100 %
b00111101111001101000000 *
b1111111111111100 +
b1111111111110010 ,
b1 6
#211
b0 6
#212
b110000110000 !
b000011011100 "
b1110100101111011000 #
b110011010110 $
b000101110010 %
b00010110100001010000000 *
b1111111111110010 +
b1111111111111100 ,
b1 6
#213
b0 6
#214
b110000101110 !
b000011010000 "
b0001000011011100100 #
b110011111110 $
b111000110100 %
b11101111001000111000000 *
b1111111111110100 +
b0000000000001010 ,
b1 6
#215
b0 6
#216
b110000101010 !
b000011000100 "
b0011100000111110000 #
b111111000010 $
b110001111010 %
b11000111110000100000000 *
b0000000000000000 +
b0000000000001100 ,
b1 6
#217
b0 6
#218
b110000101000 !
b000010111010 "
b0101111110011111100 #
b001011000010 $
b110111001100 %
b10100000011000001000000 *
b0000000000001010 +
b0000000000000110 ,
b1 6
#219
b0 6
#220
b110000100110 !
b000010101110 "
b1000011100000001000 #
b001101101000 $
b000100001000 %
b01111000111111110000000 *
b0000000000001100 +
b1111111111111010 ,
b1 6
#221
b0 6
#222
b000010100010 "
b1010111001100010100 #
b000100010110 $
b001101100110 %
b01010001100111011000000 *
b0000000000000010 +
b1111111111110010 ,
b1 6
#223
b0 6
#224
b110000100010 !
b000010010110 "
b1101010111000100000 #
b110111001100 $
b001011011010 %
b00101010001111000000000 *
b1111111111110110 +
b1111111111110110 ,
b1 6
#225
b0 6
#226
b110000100000 !
b000010001100 "
b1111110100100101100 #
b110001100010 $
b111111001110 %
b00000010110110101000000 *
b1111111111110010 +
b0000000000000000 ,
b1 6
#227
b0 6
#228
b000001111110 "
b0010010010000111000 #
b111000011000 $
b110011101000 %
b11011011011110010000000 *
b1111111111111010 +
b0000000000001010 ,
b1 6
#229
b0 6
#230
b110000011110 !
b000001110010 "
b0100101111101000100 #
b000101111000 $
b110010101000 %
b10110100000101111000000 *
b0000000000000100 +
b1 6
#231
b0 6
#232
b110000011100 !
b000001100110 "
b0111001101001010000 #
b001110011000 $
b111101001110 %
b10001100101101100000000 *
b0000000000001100 +
b0000000000000000 ,
b1 6
#233
b0 6
#234
b110000011010 !
b000001011100 "
b1001101010101011100 #
b001010011110 $
b001010010100 %
b01100101010101001000000 *
b0000000000001000 +
b1111111111110100 ,
b1 6
#235
b0 6
#236
b000001001110 "
b1100001000001101000 #
b111101011100 $
b001110100100 %
b00111101111100110000000 *
b1111111111111100 +
b1111111111110010 ,
b1 6
#237
b0 6
#238
b000001000010 "
b1110100101101110100 #
b110010100000 $
b000110001110 %
b00010110100100011000000 *
b1111111111110010 +
b1111111111111100 ,
b1 6
#239
b0 6
#240
b000000110110 "
b0001000011010000000 #
b110011001010 $
b111000011000 %
b11101111001100000000000 *
b1111111111110100 +
b0000000000001000 ,
b1 6
#241
b0 6
#242
b110000011000 !
b000000101010 "
b0011100000110001100 #
b111110111100 $
b110001000100 %
b11000111110011101000000 *
b0000000000000000 +
b0000000000001100 ,
b1 6
#243
b0 6
#244
b000000011110 "
b0101111110010011000 #
b001011110000 $
b110110101000 %
b10100000011011010000000 *
b0000000000001010 +
b0000000000000110 ,
b1 6
#245
b0 6
#246
b000000010100 "
b1000011011110100100 #
b001110011100 $
b000100010110 %
b01111001000010111000000 *
b0000000000001100 +
b1111111111111010 ,
b1 6
#247
b0 6
#248
b000000000110 "
b1010111001010110000 #
b000100100110 $
b001110011010 %
b01010001101010100000000 *
b0000000000000010 +
b1111111111110010 ,
b1 6
#249
b0 6
#250
b111111111100 "
b1101010110110111100 #
b110110101110 $
b001100000000 %
b00101010010010001000000 *
b1111111111111000 +
b1111111111110100 ,
b1 6
#251
b0 6
#252
b111111110000 "
b1111110100011001000 #
b110000110010 $
b111111001110 %
b00000010111001110000000 *
b1111111111110010 +
b0000000000000000 ,
b1 6
#253
b0 6
#254
b111111100100 "
b0010010001111010100 #
b111000000000 $
b110011000010 %
b11011011100001011000000 *
b1111111111111010 +
b0000000000001010 ,
b1 6
#255
b0 6
#256
b111111011000 "
b0100101111011100000 #
b000110001000 $
b110010000000 %
b10110100001001000000000 *
b0000000000000100 +
b1 6
#257
b0 6
#258
b111111001100 "
b0111001100111101100 #
b001111000010 $
b111101000110 %
b10001100110000101000000 *
b0000000000001100 +
b0000000000000000 ,
b1 6
#259
b0 6
#260
b110000011010 !
b111111000000 "
b1001101010011111000 #
b001010111110 $
b001010110000 %
b01100101011000010000000 *
b0000000000001000 +
b1111111111110100 ,
b1 6
#261
b0 6
#262
b111110110100 "
b1100001000000000100 #
b111101010110 $
b001111001100 %
b00111101111111111000000 *
b1111111111111110 +
b1111111111110010 ,
b1 6
#263
b0 6
#264
b111110101000 "
b1110100101100010000 #
b110001111110 $
b000110011100 %
b00010110100111100000000 *
b1111111111110010 +
b1111111111111010 ,
b1 6
#265
b0 6
#266
b110000011100 !
b111110011100 "
b0001000011000011100 #
b110010101100 $
b111000001000 %
b11101111001111001000000 *
b1111111111110100 +
b0000000000000110 ,
b1 6
#267
b0 6
#268
b110000011110 !
b111110010000 "
b0011100000100101000 #
b111110111010 $
b110000100010 %
b11000111110110110000000 *
b0000000000000000 +
b0000000000001100 ,
b1 6
#269
b0 6
#270
b111110000100 "
b0101111110000110100 #
b001100000110 $
b110110010010 %
b10100000011110011000000 *
b0000000000001010 +
b0000000000000110 ,
b1 6
#271
b0 6
#272
b110000100000 !
b111101111000 "
b1000011011101000000 #
b001110110110 $
b000100011110 %
b01111001000110000000000 *
b0000000000001100 +
b1111111111111010 ,
b1 6
#273
b0 6
#274
b110000100010 !
b111101101100 "
b1010111001001001100 #
b000100110000 $
b001110110100 %
b01010001101101101000000 *
b0000000000000010 +
b1111111111110010 ,
b1 6
#275
b0 6
#276
b110000100100 !
b111101100000 "
b1101010110101011000 #
b110110011110 $
b001100010110 %
b00101010010101010000000 *
b1111111111110110 +
b1111111111110110 ,
b1 6
#277
b0 6
#278
b110000100110 !
b111101010100 "
b1111110100001100100 #
b110000011010 $
b111111001110 %
b00000010111100111000000 *
b1111111111110010 +
b0000000000000000 ,
b1 6
#279
b0 6
#280
b110000101000 !
b111101001000 "
b0010010001101110000 #
b110111110100 $
b110010101110 %
b11011011100100100000000 *
b1111111111111010 +
b0000000000001100 ,
b1 6
#281
b0 6
#282
b110000101010 !
b111100111100 "
b0100101111001111100 #
b000110010000 $
b110001101110 %
b10110100001100001000000 *
b0000000000000100 +
b0000000000001010 ,
b1 6
#283
b0 6
#284
b110000101100 !
b111100110000 "
b0111001100110001000 #
b001111010100 $
b111101000000 %
b10001100110011110000000 *
b0000000000001100 +
b0000000000000000 ,
b1 6
#285
b0 6
#286
b110000101110 !
b111100100110 "
b1001101010010010100 #
b001011001010 $
b001010111100 %
b01100101011011011000000 *
b0000000000001000 +
b1111111111110100 ,
b1 6
#287
b0 6
#288
b110000110010 !
b111100011000 "
b1100000111110100000 #
b111101010100 $
b001111011000 %
b00111110000011000000000 *
b1111111111111100 +
b1111111111110010 ,
b1 6
#289
b0 6
#290
b110000110100 !
b111100001110 "
b1110100101010101100 #
b110001110100 $
b000110100100 %
b00010110101010101000000 *
b1111111111110010 +
b1111111111111010 ,
b1 6
#291
b0 6
#292
b110000111000 !
b111100000010 "
b0001000010110111000 #
b110010100010 $
b111000000010 %
b11101111010010010000000 *
b1111111111110100 +
b0000000000000110 ,
b1 6
#293
b0 6
#294
b110000111010 !
b111011110110 "
b0011100000011000100 #
b111110111000 $
b110000011010 %
b11000111111001111000000 *
b0000000000000000 +
b0000000000001100 ,
b1 6
#295
b0 6
#296
b110000111110 !
b111011101010 "
b0101111101111010000 #
b001100001010 $
b110110001110 %
b10100000100001100000000 *
b0000000000001010 +
b0000000000000110 ,
b1 6
#297
b0 6
#298
b110001000000 !
b111011011110 "
b1000011011011011100 #
b001110111110 $
b000100011110 %
b01111001001001001000000 *
b0000000000001100 +
b1111111111111010 ,
b1 6
#299
b0 6
#300
b110001000100 !
b111011010100 "
b1010111000111101000 #
b000100110010 $
b001110110110 %
b01010001110000110000000 *
b0000000000000000 +
b1111111111110010 ,
b1 6
#301
b0 6
#302
b110001001010 !
b111011001000 "
b1101010110011110100 #
b110110100000 $
b001100011000 %
b00101010011000011000000 *
b1111111111110100 +
b1111111111110110 ,
b1 6
#303
b0 6
#304
b111010111110 "
b1111110100000000000 #
b110000011010 $
b111111001110 %
b00000011000000000000000 *
b1111111111110010 +
b0000000000000000 ,
b1 6
#305
b0 6
#306
b110001010000 !
b111010110010 "
b0010010001100001100 #
b110111110010 $
b110010101110 %
b11011011100111101000000 *
b1111111111111010 +
b0000000000001010 ,
b1 6
#307
b0 6
#308
b110001010100 !
b111010101000 "
b0100101111000011000 #
b000110001110 $
b110001101110 %
b10110100001111010000000 *
b0000000000000100 +
b1 6
