2.soc-litex/3.build/dump.vcd
$date
	2025-06-24 23:57
$end
$timescale 7692ps $end
$scope dumped_signals $end
$var wire 16 ! main_debug_filter_in $end
$var wire 19 " main_debug_phase2 $end
$var wire 12 # main_debug_xval_downconverted $end
$var wire 12 $ main_debug_yval_downconverted $end
$var wire 16 % main_debug_downsampledX $end
$var wire 16 & main_debug_downsampledY $end
$var wire 16 ' main_debug_upsampledX $end
$var wire 16 ( main_debug_upsampledY $end
$var wire 23 ) main_debug_phase2_inv_alt $end
$var wire 16 * main_debug_xval_upconverted $end
$var wire 16 + main_debug_yval_upconverted $end
$var wire 1 , main_debug_ce_out_down_x $end
$var wire 1 - main_debug_ce_out_up_x $end
$var wire 1 . scope_clk $end
$var wire 1 / scope_trig $end
$unscope  $end
$enddefinitions  $end
$dumpvars
bxxxxxxxxxxxxxxxx !
bxxxxxxxxxxxxxxxxxxx "
bxxxxxxxxxxxx #
bxxxxxxxxxxxx $
bxxxxxxxxxxxxxxxx %
bxxxxxxxxxxxxxxxx &
bxxxxxxxxxxxxxxxx '
bxxxxxxxxxxxxxxxx (
bxxxxxxxxxxxxxxxxxxxxxxx )
bxxxxxxxxxxxxxxxx *
bxxxxxxxxxxxxxxxx +
bx ,
bx -
bx .
bx /
$end
#0
b0000000000000011 !
b0111010001010000000 "
b111111111100 #
b000000000000 $
b1111111111110010 %
b1111111111110010 &
b1111111111110111 '
b1111111111110111 (
b10001011101100000000000 )
b0000000000001100 *
b0000000000000000 +
b0 ,
b0 -
b1 .
b0 /
#1
b0 .
#2
b0000000000000100 !
b1001101110110001100 "
b111111111110 $
b01100100010011101000000 )
b0000000000001000 *
b1111111111110100 +
b1 .
#3
b0 .
#4
b0000000000000101 !
b1100001100010011000 "
b000000000000 #
b111111111100 $
b00111100111011010000000 )
b1111111111111100 *
b1 .
#5
b0 .
#6
b1110101001110100100 "
b000000000100 #
b111111111110 $
b00010101100010111000000 )
b1111111111110010 *
b1111111111111100 +
b1 .
#7
b0 .
#8
b0000000000000100 !
b0001000111010110000 "
b000000000010 #
b000000000010 $
b11101110001010100000000 )
b1111111111110100 *
b0000000000000110 +
b1 .
#9
b0 .
#10
b0011100100110111100 "
b000000000000 #
b11000110110010001000000 )
b0000000000000000 *
b0000000000001100 +
b1 .
#11
b0 .
#12
b0110000010011001000 "
b111111111100 #
b000000000000 $
b10011111011001110000000 )
b0000000000001010 *
b0000000000000110 +
b1 .
#13
b0 .
#14
b1000011111111010100 "
b111111111110 $
b01111000000001011000000 )
b1111111111111010 +
b1 .
#15
b0 .
#16
b0000000000000011 !
b1010111101011100000 "
b000000000000 #
b111111111010 $
b01010000101001000000000 )
b0000000000000000 *
b1111111111110010 +
b1 .
#17
b0 .
#18
b1101011010111101100 "
b111111111100 $
b00101001010000101000000 )
b1111111111110110 *
b1111111111110110 +
b1 .
#19
b0 .
#20
b0000000000000100 !
b1111111000011111000 "
b000000000010 #
b000000000000 $
b00000001111000010000000 )
b1111111111110010 *
b0000000000000010 +
b1 .
#21
b0 .
#22
b0010010110000000100 "
b000000000000 #
b000000000010 $
b11011010011111111000000 )
b1111111111111010 *
b0000000000001010 +
b1 .
#23
b0 .
#24
b0100110011100010000 "
b111111111110 #
b10110011000111100000000 )
b0000000000000100 *
b1 .
#25
b0 .
#26
b0111010001000011100 "
b111111111100 #
b000000000000 $
b10001011101111001000000 )
b0000000000001100 *
b0000000000000000 +
b1 .
#27
b0 .
#28
b1001101110100101000 "
b01100100010110110000000 )
b0000000000000110 *
b1111111111110100 +
b1 .
#29
b0 .
#30
b0000000000000101 !
b1100001100000110100 "
b000000000000 #
b111111111100 $
b00111100111110011000000 )
b1111111111111100 *
b1111111111110010 +
b1 .
#31
b0 .
#32
b1110101001101000000 "
b000000000010 #
b111111111110 $
b00010101100110000000000 )
b1111111111110010 *
b1111111111111010 +
b1 .
b1 /
#33
b0 .
#34
b0001000111001001100 "
b000000000010 $
b11101110001101101000000 )
b1111111111110100 *
b0000000000001000 +
b1 .
#35
b0 .
#36
b0011100100101011000 "
b000000000000 #
b11000110110101010000000 )
b0000000000000000 *
b0000000000001100 +
b1 .
#37
b0 .
#38
b0000000000000100 !
b0110000010001100100 "
b111111111100 #
b000000000000 $
b10011111011100111000000 )
b0000000000001010 *
b0000000000000110 +
b1 .
#39
b0 .
#40
b1000011111101110000 "
b111111111110 $
b01111000000100100000000 )
b0000000000001100 *
b1111111111111010 +
b1 .
#41
b0 .
#42
b0000000000000101 !
b1010111101001111100 "
b000000000000 #
b111111111100 $
b01010000101100001000000 )
b0000000000000010 *
b1111111111110010 +
b1 .
#43
b0 .
#44
b0000000000000100 !
b1101011010110001000 "
b000000000010 #
b00101001010011110000000 )
b1111111111110110 *
b1111111111110110 +
b1 .
#45
b0 .
#46
b1111111000010010100 "
b000000000100 #
b000000000000 $
b00000001111011011000000 )
b1111111111110010 *
b0000000000000010 +
b1 .
#47
b0 .
#48
b0010010101110100000 "
b000000000010 #
b000000000010 $
b11011010100011000000000 )
b1111111111111010 *
b0000000000001100 +
b1 .
#49
b0 .
#50
b0100110011010101100 "
b111111111110 #
b10110011001010101000000 )
b0000000000000100 *
b0000000000001010 +
b1 .
#51
b0 .
#52
b0111010000110111000 "
b111111111100 #
b000000000000 $
b10001011110010010000000 )
b0000000000001100 *
b0000000000000000 +
b1 .
#53
b0 .
#54
b0000000000000101 !
b1001101110011000100 "
b111111111110 #
b111111111100 $
b01100100011001111000000 )
b0000000000001000 *
b1111111111110100 +
b1 .
#55
b0 .
#56
b0000000000000100 !
b1100001011111010000 "
b000000000000 #
b00111101000001100000000 )
b1111111111111100 *
b1111111111110010 +
b1 .
#57
b0 .
#58
b1110101001011011100 "
b000000000010 #
b000000000000 $
b00010101101001001000000 )
b1111111111110100 *
b1111111111111010 +
b1 .
#59
b0 .
#60
b0001000110111101000 "
b11101110010000110000000 )
b0000000000000110 +
b1 .
#61
b0 .
#62
b0011100100011110100 "
b000000000000 #
b000000000010 $
b11000110111000011000000 )
b0000000000000000 *
b0000000000001100 +
b1 .
#63
b0 .
#64
b0110000010000000000 "
b111111111100 #
b000000000000 $
b10011111100000000000000 )
b0000000000001010 *
b0000000000000110 +
b1 .
#65
b0 .
#66
b1000011111100001100 "
b111111111110 $
b01111000000111101000000 )
b0000000000001100 *
b1111111111111010 +
b1 .
#67
b0 .
#68
b0000000000000011 !
b1010111101000011000 "
b111111111110 #
b111111111100 $
b01010000101111010000000 )
b0000000000000010 *
b1111111111110010 +
b1 .
#69
b0 .
#70
b0000000000000100 !
b1101011010100100100 "
b000000000000 #
b00101001010110111000000 )
b1111111111110110 *
b1111111111110110 +
b1 .
#71
b0 .
#72
b1111111000000110000 "
b000000000100 #
b000000000000 $
b00000001111110100000000 )
b1111111111110010 *
b0000000000000000 +
b1 .
#73
b0 .
#74
b0000000000000101 !
b0010010101100111100 "
b000000000010 #
b000000000010 $
b11011010100110001000000 )
b1111111111111010 *
b0000000000001010 +
b1 .
#75
b0 .
#76
b0000000000000100 !
b0100110011001001000 "
b111111111110 #
b10110011001101110000000 )
b0000000000000100 *
b1 .
#77
b0 .
#78
b0111010000101010100 "
b111111111010 #
b000000000000 $
b10001011110101011000000 )
b0000000000001100 *
b0000000000000000 +
b1 .
#79
b0 .
#80
b1001101110001100000 "
b111111111110 #
b111111111100 $
b01100100011101000000000 )
b0000000000001000 *
b1111111111110100 +
b1 .
#81
b0 .
#82
b1100001011101101100 "
b000000000000 #
b00111101000100101000000 )
b1111111111111100 *
b1111111111110010 +
b1 .
#83
b0 .
#84
b0000000000000011 !
b1110101001001111000 "
b000000000100 #
b111111111110 $
b00010101101100010000000 )
b1111111111110010 *
b1111111111111100 +
b1 .
#85
b0 .
#86
b0000000000000100 !
b0001000110110000100 "
b000000000010 #
b000000000000 $
b11101110010011111000000 )
b1111111111110100 *
b0000000000000110 +
b1 .
#87
b0 .
#88
b0011100100010010000 "
b000000000000 #
b000000000010 $
b11000110111011100000000 )
b0000000000000000 *
b0000000000001100 +
b1 .
#89
b0 .
#90
b0000000000000101 !
b0110000001110011100 "
b111111111100 #
b10011111100011001000000 )
b0000000000001010 *
b0000000000000110 +
b1 .
#91
b0 .
#92
b0000000000000100 !
b1000011111010101000 "
b111111111110 $
b01111000001010110000000 )
b1111111111111010 +
b1 .
#93
b0 .
#94
b0000000000000101 !
b1010111100110110100 "
b000000000000 #
b111111111100 $
b01010000110010011000000 )
b0000000000000000 *
b1111111111110010 +
b1 .
#95
b0 .
#96
b0000000000000100 !
b1101011010011000000 "
b000000000010 #
b00101001011010000000000 )
b1111111111110110 *
b1111111111110100 +
b1 .
#97
b0 .
#98
b1111110111111001100 "
b000000000000 $
b00000010000001101000000 )
b1111111111110010 *
b0000000000000000 +
b1 .
#99
b0 .
#100
b0010010101011011000 "
b000000000000 #
b000000000010 $
b11011010101001010000000 )
b1111111111111010 *
b0000000000001010 +
b1 .
#101
b0 .
#102
b0100110010111100100 "
b111111111110 #
b000000000000 $
b10110011010000111000000 )
b0000000000000100 *
b1 .
#103
b0 .
#104
b0000000000000101 !
b0111010000011110000 "
b111111111100 #
b10001011111000100000000 )
b0000000000001100 *
b0000000000000000 +
b1 .
#105
b0 .
#106
b0000000000000100 !
b1001101101111111100 "
b111111111110 #
b111111111100 $
b01100100100000001000000 )
b0000000000001010 *
b1111111111110100 +
b1 .
#107
b0 .
#108
b0000000000000101 !
b1100001011100001000 "
b000000000000 #
b00111101000111110000000 )
b1111111111111100 *
b1111111111110010 +
b1 .
#109
b0 .
#110
b1110101001000010100 "
b000000000010 #
b000000000000 $
b00010101101111011000000 )
b1111111111110010 *
b1111111111111100 +
b1 .
#111
b0 .
#112
b0000000000000100 !
b0001000110100100000 "
b11101110010111000000000 )
b1111111111110100 *
b0000000000000110 +
b1 .
#113
b0 .
#114
b0011100100000101100 "
b000000000000 #
b000000000010 $
b11000110111110101000000 )
b0000000000000000 *
b0000000000001100 +
b1 .
#115
b0 .
#116
b0110000001100111000 "
b111111111100 #
b10011111100110010000000 )
b0000000000001010 *
b0000000000000110 +
b1 .
#117
b0 .
#118
b1000011111001000100 "
b111111111110 $
b01111000001101111000000 )
b1111111111111010 +
b1 .
#119
b0 .
#120
b1010111100101010000 "
b000000000000 #
b111111111010 $
b01010000110101100000000 )
b0000000000000010 *
b1111111111110010 +
b1 .
#121
b0 .
#122
b1101011010001011100 "
b000000000010 #
b111111111100 $
b00101001011101001000000 )
b1111111111110100 *
b1111111111110110 +
b1 .
#123
b0 .
#124
b1111110111101101000 "
b000000000000 $
b00000010000100110000000 )
b1111111111110010 *
b0000000000000000 +
b1 .
#125
b0 .
#126
b0000000000000011 !
b0010010101001110100 "
b000000000000 #
b000000000010 $
b11011010101100011000000 )
b1111111111111010 *
b0000000000001100 +
b1 .
#127
b0 .
#128
b0000000000000100 !
b0100110010110000000 "
b111111111110 #
b000000000000 $
b10110011010100000000000 )
b0000000000000100 *
b0000000000001010 +
b1 .
#129
b0 .
#130
b0000000000000101 !
b0111010000010001100 "
b111111111100 #
b10001011111011101000000 )
b0000000000001100 *
b0000000000000000 +
b1 .
#131
b0 .
#132
b0000000000000100 !
b1001101101110011000 "
b111111111100 $
b01100100100011010000000 )
b0000000000001000 *
b1111111111110100 +
b1 .
#133
b0 .
#134
b0000000000000011 !
b1100001011010100100 "
b000000000000 #
b00111101001010111000000 )
b1111111111111100 *
b1111111111110010 +
b1 .
#135
b0 .
#136
b0000000000000100 !
b1110101000110110000 "
b000000000010 #
b111111111110 $
b00010101110010100000000 )
b1111111111110010 *
b1111111111111100 +
b1 .
#137
b0 .
#138
b0001000110010111100 "
b000000000000 $
b11101110011010001000000 )
b1111111111110100 *
b0000000000000110 +
b1 .
#139
b0 .
#140
b0011100011111001000 "
b000000000000 #
b000000000010 $
b11000111000001110000000 )
b0000000000000000 *
b0000000000001100 +
b1 .
#141
b0 .
#142
b0000000000000011 !
b0110000001011010100 "
b111111111100 #
b10011111101001011000000 )
b0000000000001010 *
b0000000000000110 +
b1 .
#143
b0 .
#144
b0000000000000100 !
b1000011110111100000 "
b000000000000 $
b01111000010001000000000 )
b0000000000001100 *
b1111111111111010 +
b1 .
#145
b0 .
#146
b0000000000000101 !
b1010111100011101100 "
b111111111110 #
b111111111010 $
b01010000111000101000000 )
b0000000000000010 *
b1111111111110010 +
b1 .
#147
b0 .
#148
b0000000000000011 !
b1101011001111111000 "
b000000000010 #
b111111111100 $
b00101001100000010000000 )
b1111111111110100 *
b1111111111111000 +
b1 .
#149
b0 .
#150
b0000000000000100 !
b1111110111100000100 "
b000000000100 #
b000000000000 $
b00000010000111111000000 )
b1111111111110010 *
b0000000000000000 +
b1 .
#151
b0 .
#152
b0010010101000010000 "
b000000000010 #
b000000000010 $
b11011010101111100000000 )
b1111111111111010 *
b0000000000001010 +
b1 .
#153
b0 .
#154
b0100110010100011100 "
b111111111110 #
b10110011010111001000000 )
b0000000000000100 *
b1 .
#155
b0 .
#156
b0111010000000101000 "
b111111111100 #
b000000000000 $
b10001011111110110000000 )
b0000000000001100 *
b0000000000000000 +
b1 .
#157
b0 .
#158
b1001101101100110100 "
b111111111110 #
b111111111100 $
b01100100100110011000000 )
b0000000000000110 *
b1111111111110100 +
b1 .
#159
b0 .
#160
b1100001011001000000 "
b000000000000 #
b00111101001110000000000 )
b1111111111111100 *
b1 .
#161
b0 .
#162
b1110101000101001100 "
b111111111110 $
b00010101110101101000000 )
b1111111111110010 *
b1111111111111010 +
b1 .
#163
b0 .
#164
b0001000110001011000 "
b000000000010 #
b000000000000 $
b11101110011101010000000 )
b1111111111110100 *
b0000000000000110 +
b1 .
#165
b0 .
#166
b0011100011101100100 "
b000000000000 #
b000000000010 $
b11000111000100111000000 )
b0000000000000000 *
b0000000000001100 +
b1 .
#167
b0 .
#168
b0110000001001110000 "
b111111111100 #
b000000000000 $
b10011111101100100000000 )
b0000000000001010 *
b0000000000000110 +
b1 .
#169
b0 .
#170
b1000011110101111100 "
b111111111110 $
b01111000010100001000000 )
b0000000000001100 *
b1111111111111010 +
b1 .
#171
b0 .
#172
b1010111100010001000 "
b000000000000 #
b111111111010 $
b01010000111011110000000 )
b0000000000000010 *
b1111111111110010 +
b1 .
#173
b0 .
#174
b1101011001110010100 "
b000000000010 #
b111111111100 $
b00101001100011011000000 )
b1111111111111000 *
b1111111111110100 +
b1 .
#175
b0 .
#176
b0000000000000011 !
b1111110111010100000 "
b000000000000 $
b00000010001011000000000 )
b1111111111110010 *
b0000000000000000 +
b1 .
#177
b0 .
#178
b0000000000000100 !
b0010010100110101100 "
b000000000000 #
b000000000010 $
b11011010110010101000000 )
b1111111111111010 *
b0000000000001100 +
b1 .
#179
b0 .
#180
b0100110010010111000 "
b111111111110 #
b000000000000 $
b10110011011010010000000 )
b0000000000000100 *
b0000000000001010 +
b1 .
#181
b0 .
#182
b0000000000000101 !
b0111001111111000100 "
b111111111100 #
b10001100000001111000000 )
b0000000000001100 *
b0000000000000000 +
b1 .
#183
b0 .
#184
b0000000000000100 !
b1001101101011010000 "
b111111111110 #
b111111111100 $
b01100100101001100000000 )
b0000000000001000 *
b1111111111110100 +
b1 .
#185
b0 .
#186
b0000000000000101 !
b1100001010111011100 "
b000000000000 #
b00111101010001001000000 )
b1111111111111100 *
b1 .
#187
b0 .
#188
b0000000000000100 !
b1110101000011101000 "
b000000000100 #
b111111111110 $
b00010101111000110000000 )
b1111111111110010 *
b1111111111111100 +
b1 .
#189
b0 .
#190
b0001000101111110100 "
b000000000010 #
b000000000000 $
b11101110100000011000000 )
b1111111111110100 *
b0000000000001010 +
b1 .
#191
b0 .
#192
b0011100011100000000 "
b000000000000 #
b000000000010 $
b11000111001000000000000 )
b0000000000000000 *
b0000000000001100 +
b1 .
#193
b0 .
#194
b0000000000000101 !
b0110000001000001100 "
b111111111100 #
b10011111101111101000000 )
b0000000000001010 *
b0000000000000110 +
b1 .
#195
b0 .
#196
b1000011110100011000 "
b111111111110 $
b01111000010111010000000 )
b1111111111111010 +
b1 .
#197
b0 .
#198
b0000000000000100 !
b1010111100000100100 "
b111111111110 #
b111111111100 $
b01010000111110111000000 )
b0000000000000010 *
b1111111111110010 +
b1 .
#199
b0 .
#200
b1101011001100110000 "
b000000000010 #
b00101001100110100000000 )
b1111111111110110 *
b1111111111110110 +
b1 .
#201
b0 .
#202
b1111110111000111100 "
b000000000000 $
b00000010001110001000000 )
b1111111111110010 *
b0000000000000000 +
b1 .
#203
b0 .
#204
b0000000000000101 !
b0010010100101001000 "
b000000000000 #
b000000000010 $
b11011010110101110000000 )
b1111111111111010 *
b0000000000001010 +
b1 .
#205
b0 .
#206
b0000000000000100 !
b0100110010001010100 "
b111111111110 #
b10110011011101011000000 )
b0000000000000100 *
b1 .
#207
b0 .
#208
b0111001111101100000 "
b111111111100 #
b000000000000 $
b10001100000101000000000 )
b0000000000001100 *
b0000000000000000 +
b1 .
#209
b0 .
#210
b1001101101001101100 "
b111111111100 $
b01100100101100101000000 )
b0000000000001010 *
b1111111111110100 +
b1 .
#211
b0 .
#212
b1100001010101111000 "
b000000000000 #
b00111101010100010000000 )
b1111111111111100 *
b1111111111110010 +
b1 .
#213
b0 .
#214
b0000000000000011 !
b1110101000010000100 "
b000000000010 #
b111111111110 $
b00010101111011111000000 )
b1111111111110010 *
b1111111111111100 +
b1 .
#215
b0 .
#216
b0000000000000100 !
b0001000101110010000 "
b000000000000 $
b11101110100011100000000 )
b1111111111110100 *
b0000000000000110 +
b1 .
#217
b0 .
#218
b0000000000000101 !
b0011100011010011100 "
b000000000000 #
b000000000010 $
b11000111001011001000000 )
b0000000000000000 *
b0000000000001100 +
b1 .
#219
b0 .
#220
b0000000000000011 !
b0110000000110101000 "
b111111111100 #
b000000000000 $
b10011111110010110000000 )
b0000000000001010 *
b0000000000000110 +
b1 .
#221
b0 .
#222
b0000000000000100 !
b1000011110010110100 "
b111111111110 $
b01111000011010011000000 )
b0000000000001100 *
b1111111111111010 +
b1 .
#223
b0 .
#224
b1010111011111000000 "
b111111111110 #
b111111111010 $
b01010001000010000000000 )
b0000000000000000 *
b1111111111110010 +
b1 .
#225
b0 .
#226
b1101011001011001100 "
b000000000010 #
b111111111100 $
b00101001101001101000000 )
b1111111111111000 *
b1111111111110100 +
b1 .
#227
b0 .
#228
b0000000000000101 !
b1111110110111011000 "
b000000000100 #
b000000000000 $
b00000010010001010000000 )
b1111111111110010 *
b0000000000000000 +
b1 .
#229
b0 .
#230
b0000000000000100 !
b0010010100011100100 "
b000000000000 #
b000000000010 $
b11011010111000111000000 )
b1111111111111010 *
b0000000000001010 +
b1 .
#231
b0 .
#232
b0100110001111110000 "
b111111111110 #
b10110011100000100000000 )
b0000000000000100 *
b1 .
#233
b0 .
#234
b0111001111011111100 "
b111111111100 #
b000000000000 $
b10001100001000001000000 )
b0000000000001100 *
b0000000000000000 +
b1 .
#235
b0 .
#236
b0000000000000011 !
b1001101101000001000 "
b111111111100 $
b01100100101111110000000 )
b0000000000001010 *
b1111111111110100 +
b1 .
#237
b0 .
#238
b0000000000000100 !
b1100001010100010100 "
b000000000000 #
b111111111010 $
b00111101010111011000000 )
b1111111111111110 *
b1111111111110010 +
b1 .
#239
b0 .
#240
b1110101000000100000 "
b000000000010 #
b111111111110 $
b00010101111111000000000 )
b1111111111110100 *
b1111111111111010 +
b1 .
#241
b0 .
#242
b0000000000000101 !
b0001000101100101100 "
b000000000000 $
b11101110100110101000000 )
b0000000000000110 +
b1 .
#243
b0 .
#244
b0000000000000100 !
b0011100011000111000 "
b000000000000 #
b000000000010 $
b11000111001110010000000 )
b0000000000000000 *
b0000000000001100 +
b1 .
#245
b0 .
#246
b0110000000101000100 "
b111111111100 #
b10011111110101111000000 )
b0000000000001010 *
b0000000000000110 +
b1 .
#247
b0 .
#248
b1000011110001010000 "
b111111111110 $
b01111000011101100000000 )
b0000000000001100 *
b1111111111111010 +
b1 .
#249
b0 .
#250
b1010111011101011100 "
b000000000000 #
b111111111010 $
b01010001000101001000000 )
b0000000000000010 *
b1111111111110010 +
b1 .
#251
b0 .
#252
b0000000000000101 !
b1101011001001101000 "
b111111111100 $
b00101001101100110000000 )
b1111111111110110 *
b1111111111110100 +
b1 .
#253
b0 .
#254
b0000000000000100 !
b1111110110101110100 "
b000000000010 #
b000000000000 $
b00000010010100011000000 )
b1111111111110010 *
b0000000000000000 +
b1 .
#255
b0 .
#256
b0000000000000101 !
b0010010100010000000 "
b000000000000 #
b000000000010 $
b11011010111100000000000 )
b1111111111111010 *
b0000000000001100 +
b1 .
#257
b0 .
#258
b0000000000000011 !
b0100110001110001100 "
b111111111110 #
b10110011100011101000000 )
b0000000000000100 *
b0000000000001010 +
b1 .
#259
b0 .
#260
b0111001111010011000 "
b111111111010 #
b000000000000 $
b10001100001011010000000 )
b0000000000001100 *
b0000000000000000 +
b1 .
#261
b0 .
#262
b0000000000000101 !
b1001101100110100100 "
b111111111100 #
b111111111110 $
b01100100110010111000000 )
b0000000000001000 *
b1111111111110100 +
b1 .
#263
b0 .
#264
b0000000000000100 !
b1100001010010110000 "
b000000000000 #
b111111111100 $
b00111101011010100000000 )
b1111111111111100 *
b1111111111110010 +
b1 .
#265
b0 .
#266
b1110100111110111100 "
b000000000010 #
b111111111110 $
b00010110000010001000000 )
b1111111111110010 *
b1111111111111100 +
b1 .
#267
b0 .
#268
b0001000101011001000 "
b000000000000 $
b11101110101001110000000 )
b1111111111110100 *
b0000000000000110 +
b1 .
#269
b0 .
#270
b0000000000000101 !
b0011100010111010100 "
b000000000000 #
b000000000100 $
b11000111010001011000000 )
b0000000000000000 *
b0000000000001100 +
b1 .
#271
b0 .
#272
b0000000000000100 !
b0110000000011100000 "
b111111111100 #
b000000000010 $
b10011111111001000000000 )
b0000000000001010 *
b0000000000000110 +
b1 .
#273
b0 .
#274
b1000011101111101100 "
b111111111110 $
b01111000100000101000000 )
b0000000000001100 *
b1111111111111010 +
b1 .
#275
b0 .
#276
b1010111011011111000 "
b000000000000 #
b111111111100 $
b01010001001000010000000 )
b0000000000000000 *
b1111111111110010 +
b1 .
#277
b0 .
#278
b1101011001000000100 "
b00101001101111111000000 )
b1111111111110100 *
b1111111111110110 +
b1 .
#279
b0 .
#280
b0000000000000011 !
b1111110110100010000 "
b000000000010 #
b000000000000 $
b00000010010111100000000 )
b1111111111110010 *
b0000000000000000 +
b1 .
#281
b0 .
#282
b0000000000000100 !
b0010010100000011100 "
b000000000000 #
b000000000010 $
b11011010111111001000000 )
b1111111111111010 *
b0000000000001010 +
b1 .
#283
b0 .
#284
b0000000000000101 !
b0100110001100101000 "
b111111111110 #
b000000000100 $
b10110011100110110000000 )
b0000000000000100 *
b1 .
#285
b0 .
#286
b0000000000000100 !
b0111001111000110100 "
b111111111100 #
b000000000000 $
b10001100001110011000000 )
b0000000000001100 *
b0000000000000000 +
b1 .
#287
b0 .
#288
b1001101100101000000 "
b111111111100 $
b01100100110110000000000 )
b0000000000001010 *
b1111111111110100 +
b1 .
#289
b0 .
#290
b0000000000000011 !
b1100001010001001100 "
b000000000000 #
b00111101011101101000000 )
b1111111111111100 *
b1 .
#291
b0 .
#292
b0000000000000101 !
b1110100111101011000 "
b000000000010 #
b111111111110 $
b00010110000101010000000 )
b1111111111110010 *
b1111111111111010 +
b1 .
#293
b0 .
#294
b0001000101001100100 "
b000000000010 $
b11101110101100111000000 )
b1111111111110100 *
b0000000000001000 +
b1 .
#295
b0 .
#296
b0000000000000100 !
b0011100010101110000 "
b000000000000 #
b11000111010100100000000 )
b0000000000000000 *
b0000000000001100 +
b1 .
#297
b0 .
#298
b0110000000001111100 "
b111111111100 #
b10011111111100001000000 )
b0000000000001010 *
b0000000000000110 +
b1 .
#299
b0 .
#300
b1000011101110001000 "
b111111111110 $
b01111000100011110000000 )
b0000000000001100 *
b1111111111111010 +
b1 .
#301
b0 .
#302
b1010111011010010100 "
b000000000000 #
b111111111100 $
b01010001001011011000000 )
b0000000000000010 *
b1111111111110010 +
b1 .
#303
b0 .
#304
b1101011000110100000 "
b000000000010 #
b00101001110011000000000 )
b1111111111110110 *
b1111111111110100 +
b1 .
#305
b0 .
#306
b1111110110010101100 "
b000000000000 $
b00000010011010101000000 )
b1111111111110010 *
b0000000000000000 +
b1 .
#307
b0 .
#308
b0010010011110111000 "
b000000000000 #
b000000000010 $
b11011011000010010000000 )
b1111111111111010 *
b0000000000001100 +
b1 .
#309
b0 .
#310
b0100110001011000100 "
b111111111110 #
b10110011101001111000000 )
b0000000000000100 *
b0000000000001010 +
b1 .
#311
b0 .
#312
b0111001110111010000 "
b111111111010 #
b000000000000 $
b10001100010001100000000 )
b0000000000001100 *
b0000000000000000 +
b1 .
#313
b0 .
#314
b1001101100011011100 "
b111111111100 #
b111111111100 $
b01100100111001001000000 )
b0000000000001000 *
b1111111111110100 +
b1 .
#315
b0 .
#316
b0000000000000011 !
b1100001001111101000 "
b000000000000 #
b00111101100000110000000 )
b1111111111111100 *
b1111111111110010 +
b1 .
#317
b0 .
#318
b0000000000000100 !
b1110100111011110100 "
b000000000010 #
b111111111110 $
b00010110001000011000000 )
b1111111111110010 *
b1111111111111100 +
b1 .
#319
b0 .
#320
b0001000101000000000 "
b000000000000 $
b11101110110000000000000 )
b1111111111110100 *
b0000000000001000 +
b1 .
#321
b0 .
#322
b0011100010100001100 "
b000000000000 #
b000000000010 $
b11000111010111101000000 )
b0000000000000000 *
b0000000000001100 +
b1 .
#323
b0 .
#324
b0000000000000011 !
b0110000000000011000 "
b111111111100 #
b000000000000 $
b10011111111111010000000 )
b0000000000001010 *
b0000000000000110 +
b1 .
#325
b0 .
#326
b0000000000000100 !
b1000011101100100100 "
b111111111010 #
b01111000100110111000000 )
b0000000000001100 *
b1111111111111010 +
b1 .
#327
b0 .
#328
b0000000000000101 !
b1010111011000110000 "
b111111111110 #
b111111111100 $
b01010001001110100000000 )
b0000000000000010 *
b1111111111110010 +
b1 .
#329
b0 .
#330
b0000000000000100 !
b1101011000100111100 "
b000000000000 #
b00101001110110001000000 )
b1111111111110110 *
b1111111111110100 +
b1 .
#331
b0 .
#332
b0000000000000101 !
b1111110110001001000 "
b000000000010 #
b000000000000 $
b00000010011101110000000 )
b1111111111110010 *
b0000000000000010 +
b1 .
#333
b0 .
#334
b0000000000000011 !
b0010010011101010100 "
b000000000010 $
b11011011000101011000000 )
b1111111111111010 *
b0000000000001010 +
b1 .
#335
b0 .
#336
b0000000000000100 !
b0100110001001100000 "
b111111111110 #
b10110011101101000000000 )
b0000000000000100 *
b1 .
#337
b0 .
#338
b0111001110101101100 "
b111111111100 #
b000000000000 $
b10001100010100101000000 )
b0000000000001100 *
b0000000000000000 +
b1 .
#339
b0 .
#340
b1001101100001111000 "
b111111111110 $
b01100100111100010000000 )
b0000000000000110 *
b1111111111110100 +
b1 .
#341
b0 .
#342
b0000000000000101 !
b1100001001110000100 "
b000000000000 #
b111111111100 $
b00111101100011111000000 )
b1111111111111100 *
b1111111111110010 +
b1 .
#343
b0 .
#344
b0000000000000100 !
b1110100111010010000 "
b000000000100 #
b111111111110 $
b00010110001011100000000 )
b1111111111110010 *
b1111111111111100 +
b1 .
#345
b0 .
#346
b0001000100110011100 "
b000000000010 #
b000000000000 $
b11101110110011001000000 )
b1111111111110100 *
b0000000000000100 +
b1 .
#347
b0 .
#348
b0011100010010101000 "
b000000000000 #
b000000000010 $
b11000111011010110000000 )
b0000000000000000 *
b0000000000001100 +
b1 .
#349
b0 .
#350
b0101111111110110100 "
b111111111100 #
b000000000000 $
b10100000000010011000000 )
b0000000000001010 *
b0000000000000110 +
b1 .
#351
b0 .
#352
b1000011101011000000 "
b111111111110 $
b01111000101010000000000 )
b0000000000001100 *
b1111111111111010 +
b1 .
#353
b0 .
#354
b1010111010111001100 "
b000000000000 #
b111111111100 $
b01010001010001101000000 )
b0000000000000010 *
b1111111111110010 +
b1 .
#355
b0 .
#356
b1101011000011011000 "
b00101001111001010000000 )
b1111111111110100 *
b1111111111110110 +
b1 .
#357
b0 .
#358
b1111110101111100100 "
b000000000010 #
b000000000000 $
b00000010100000111000000 )
b1111111111110010 *
b0000000000000010 +
b1 .
#359
b0 .
#360
b0000000000000011 !
b0010010011011110000 "
b000000000000 #
b000000000010 $
b11011011001000100000000 )
b1111111111111010 *
b0000000000001100 +
b1 .
#361
b0 .
#362
b0000000000000100 !
b0100110000111111100 "
b111111111110 #
b10110011110000001000000 )
b0000000000000100 *
b0000000000001010 +
b1 .
#363
b0 .
#364
b0111001110100001000 "
b111111111100 #
b000000000000 $
b10001100010111110000000 )
b0000000000001100 *
b0000000000000000 +
b1 .
#365
b0 .
#366
b0000000000000011 !
b1001101100000010100 "
b111111111110 $
b01100100111111011000000 )
b0000000000000110 *
b1111111111110100 +
b1 .
#367
b0 .
#368
b0000000000000100 !
b1100001001100100000 "
b000000000000 #
b111111111100 $
b00111101100111000000000 )
b1111111111111100 *
b1111111111110010 +
b1 .
#369
b0 .
#370
b0000000000000011 !
b1110100111000101100 "
b000000000100 #
b111111111110 $
b00010110001110101000000 )
b1111111111110100 *
b1111111111111010 +
b1 .
#371
b0 .
#372
b0000000000000101 !
b0001000100100111000 "
b000000000010 #
b000000000000 $
b11101110110110010000000 )
b0000000000000110 +
b1 .
#373
b0 .
#374
b0000000000000100 !
b0011100010001000100 "
b000000000000 #
b000000000100 $
b11000111011101111000000 )
b0000000000000000 *
b0000000000001100 +
b1 .
#375
b0 .
#376
b0000000000000101 !
b0101111111101010000 "
b111111111100 #
b000000000000 $
b10100000000101100000000 )
b0000000000001010 *
b0000000000000110 +
b1 .
#377
b0 .
#378
b1000011101001011100 "
b111111111110 $
b01111000101101001000000 )
b0000000000001100 *
b1111111111111010 +
b1 .
