2.soc-litex/3.build/dump_dsp_nocpu.vcd
$date
	2025-06-28 15:14
$end
$timescale 7692ps $end
$scope dumped_signals $end
$var wire 16 ! main_debug_downsampledY $end
$var wire 16 " main_debug_upsampledY $end
$var wire 1 # main_debug_ce_out_down $end
$var wire 1 $ main_debug_ce_out_up $end
$var wire 12 % main_debug_adc_input $end
$var wire 1 & scope_clk $end
$var wire 1 ' scope_trig $end
$unscope  $end
$enddefinitions  $end
$dumpvars
bxxxxxxxxxxxxxxxx !
bxxxxxxxxxxxxxxxx "
bx #
bx $
bxxxxxxxxxxxx %
bx &
bx '
$end
#0
b1101011101111011 !
b0001001011101111 "
b0 #
b0 $
b110101000110 %
b1 &
b0 '
#1
b0 &
#2
b0001001011110000 "
b110101000111 %
b1 &
#3
b0 &
#4
b110101000101 %
b1 &
#5
b0 &
#6
b0001001011110001 "
b110101000100 %
b1 &
#7
b0 &
#8
b110101000111 %
b1 &
#9
b0 &
#10
b0001001011110010 "
b1 &
#11
b0 &
#12
b1 &
#13
b0 &
#14
b0001001011110011 "
b110101000110 %
b1 &
#15
b0 &
#16
b110101000100 %
b1 &
#17
b0 &
#18
b110101000101 %
b1 &
#19
b0 &
#20
b0001001011110100 "
b110101000100 %
b1 &
#21
b0 &
#22
b110101000101 %
b1 &
#23
b0 &
#24
b0001001011110101 "
b110101000111 %
b1 &
#25
b0 &
#26
b110101000110 %
b1 &
#27
b0 &
#28
b0001001011110110 "
b110101000111 %
b1 &
#29
b0 &
#30
b110101000110 %
b1 &
#31
b0 &
#32
b0001001011110111 "
b110101000111 %
b1 &
b1 '
#33
b0 &
#34
b110101000101 %
b1 &
#35
b0 &
#36
b110101000110 %
b1 &
#37
b0 &
#38
b0001001011111000 "
b1 &
#39
b0 &
#40
b1 &
#41
b0 &
#42
b0001001011111001 "
b110101000111 %
b1 &
#43
b0 &
#44
b110101000101 %
b1 &
#45
b0 &
#46
b0001001011111010 "
b110101000111 %
b1 &
#47
b0 &
#48
b1 &
#49
b0 &
#50
b0001001011111011 "
b1 &
#51
b0 &
#52
b1 &
#53
b0 &
#54
b0001001011111100 "
b110101000110 %
b1 &
#55
b0 &
#56
b110101000111 %
b1 &
#57
b0 &
#58
b1 &
#59
b0 &
#60
b0001001011111101 "
b110101000101 %
b1 &
#61
b0 &
#62
b110101000110 %
b1 &
#63
b0 &
#64
b0001001011111110 "
b110101000111 %
b1 &
#65
b0 &
#66
b1 &
#67
b0 &
#68
b0001001011111111 "
b1 &
#69
b0 &
#70
b1 &
#71
b0 &
#72
b0001001100000000 "
b110101001000 %
b1 &
#73
b0 &
#74
b110101000111 %
b1 &
#75
b0 &
#76
b0001001100000001 "
b110101001000 %
b1 &
#77
b0 &
#78
b110101000111 %
b1 &
#79
b0 &
#80
b1 &
#81
b0 &
#82
b0001001100000010 "
b110101000110 %
b1 &
#83
b0 &
#84
b110101000111 %
b1 &
#85
b0 &
#86
b0001001100000011 "
b110101001000 %
b1 &
#87
b0 &
#88
b1 &
#89
b0 &
#90
b0001001100000100 "
b110101001001 %
b1 &
#91
b0 &
#92
b110101000111 %
b1 &
#93
b0 &
#94
b0001001100000101 "
b1 &
#95
b0 &
#96
b110101000110 %
b1 &
#97
b0 &
#98
b0001001100000110 "
b110101000111 %
b1 &
#99
b0 &
#100
b110101000110 %
b1 &
#101
b0 &
#102
b0001001100000111 "
b110101001000 %
b1 &
#103
b0 &
#104
b1 &
#105
b0 &
#106
b110101000111 %
b1 &
#107
b0 &
#108
b0001001100001000 "
b1 &
#109
b0 &
#110
b1 &
#111
b0 &
#112
b0001001100001001 "
b1 &
#113
b0 &
#114
b110101001000 %
b1 &
#115
b0 &
#116
b0001001100001010 "
b110101001011 %
b1 &
#117
b0 &
#118
b110101001000 %
b1 &
#119
b0 &
#120
b0001001100001011 "
b110101001001 %
b1 &
#121
b0 &
#122
b110101000111 %
b1 &
#123
b0 &
#124
b0001001100001100 "
b110101001000 %
b1 &
#125
b0 &
#126
b110101001010 %
b1 &
#127
b0 &
#128
b0001001100001101 "
b110101001000 %
b1 &
#129
b0 &
#130
b1 &
#131
b0 &
#132
b110101001010 %
b1 &
#133
b0 &
#134
b0001001100001110 "
b110101001000 %
b1 &
#135
b0 &
#136
b1 &
#137
b0 &
#138
b0001001100001111 "
b110101000111 %
b1 &
#139
b0 &
#140
b110101001000 %
b1 &
#141
b0 &
#142
b0001001100010000 "
b110101001001 %
b1 &
#143
b0 &
#144
b110101001000 %
b1 &
#145
b0 &
#146
b0001001100010001 "
b110101001001 %
b1 &
#147
b0 &
#148
b1 &
#149
b0 &
#150
b0001001100010010 "
b110101001000 %
b1 &
#151
b0 &
#152
b1 &
#153
b0 &
#154
b0001001100010011 "
b1 &
#155
b0 &
#156
b110101001010 %
b1 &
#157
b0 &
#158
b0001001100010100 "
b110101001011 %
b1 &
#159
b0 &
#160
b110101001010 %
b1 &
#161
b0 &
#162
b110101001001 %
b1 &
#163
b0 &
#164
b0001001100010101 "
b110101001000 %
b1 &
#165
b0 &
#166
b110101001010 %
b1 &
#167
b0 &
#168
b0001001100010110 "
b110101001001 %
b1 &
#169
b0 &
#170
b110101001010 %
b1 &
#171
b0 &
#172
b0001001100010111 "
b110101001001 %
b1 &
#173
b0 &
#174
b110101001000 %
b1 &
#175
b0 &
#176
b0001001100011000 "
b1 &
#177
b0 &
#178
b1 &
#179
b0 &
#180
b0001001100011001 "
b110101001001 %
b1 &
#181
b0 &
#182
b110101001011 %
b1 &
#183
b0 &
#184
b0001001100011010 "
b110101001001 %
b1 &
#185
b0 &
#186
b110101001000 %
b1 &
#187
b0 &
#188
b0001001100011011 "
b110101001010 %
b1 &
#189
b0 &
#190
b1 &
#191
b0 &
#192
b0001001100011100 "
b110101001001 %
b1 &
#193
b0 &
#194
b1 &
#195
b0 &
#196
b110101001000 %
b1 &
#197
b0 &
#198
b0001001100011101 "
b110101001001 %
b1 &
#199
b0 &
#200
b110101001011 %
b1 &
#201
b0 &
#202
b0001001100011110 "
b110101001001 %
b1 &
#203
b0 &
#204
b110101001010 %
b1 &
#205
b0 &
#206
b0001001100011111 "
b110101001011 %
b1 &
#207
b0 &
#208
b110101001001 %
b1 &
#209
b0 &
#210
b0001001100100000 "
b1 &
#211
b0 &
#212
b110101001100 %
b1 &
#213
b0 &
#214
b0001001100100001 "
b110101001010 %
b1 &
#215
b0 &
#216
b110101001011 %
b1 &
#217
b0 &
#218
b0001001100100010 "
b110101001010 %
b1 &
#219
b0 &
#220
b110101001011 %
b1 &
#221
b0 &
#222
b0001001100100011 "
b1 &
#223
b0 &
#224
b110101001010 %
b1 &
#225
b0 &
#226
b0001001100100100 "
b1 &
#227
b0 &
#228
b110101001100 %
b1 &
#229
b0 &
#230
b0001001100100101 "
b110101001011 %
b1 &
#231
b0 &
#232
b1 &
#233
b0 &
#234
b0001001100100110 "
b110101001010 %
b1 &
#235
b0 &
#236
b110101001011 %
b1 &
#237
b0 &
#238
b0001001100100111 "
b110101001000 %
b1 &
#239
b0 &
#240
b110101001100 %
b1 &
#241
b0 &
#242
b0001001100101000 "
b110101001011 %
b1 &
#243
b0 &
#244
b110101001010 %
b1 &
#245
b0 &
#246
b110101001011 %
b1 &
#247
b0 &
#248
b0001001100101001 "
b1 &
#249
b0 &
#250
b110101001010 %
b1 &
#251
b0 &
#252
b0001001100101010 "
b110101001011 %
b1 &
#253
b0 &
#254
b110101001010 %
b1 &
#255
b0 &
#256
b0001001100101011 "
b1 &
#257
b0 &
#258
b1 &
#259
b0 &
#260
b0001001100101100 "
b110101001100 %
b1 &
#261
b0 &
#262
b110101001011 %
b1 &
#263
b0 &
#264
b0001001100101101 "
b1 &
#265
b0 &
#266
b110101001010 %
b1 &
#267
b0 &
#268
b0001001100101110 "
b110101001100 %
b1 &
#269
b0 &
#270
b110101001011 %
b1 &
#271
b0 &
#272
b0001001100101111 "
b110101001010 %
b1 &
#273
b0 &
#274
b110101001100 %
b1 &
#275
b0 &
#276
b0001001100110000 "
b110101001011 %
b1 &
#277
b0 &
#278
b1 &
#279
b0 &
#280
b0001001100110001 "
b1 &
#281
b0 &
#282
b1 &
#283
b0 &
#284
b0001001100110010 "
b110101001010 %
b1 &
#285
b0 &
#286
b110101001011 %
b1 &
#287
b0 &
#288
b0001001100110011 "
b110101001100 %
b1 &
#289
b0 &
#290
b1 &
#291
b0 &
#292
b0001001100110100 "
b1 &
#293
b0 &
#294
b110101001011 %
b1 &
#295
b0 &
#296
b0001001100110101 "
b1 &
#297
b0 &
#298
b110101001100 %
b1 &
#299
b0 &
#300
b0001001100110110 "
b110101001011 %
b1 &
#301
b0 &
#302
b110101001101 %
b1 &
#303
b0 &
#304
b0001001100110111 "
b110101001100 %
b1 &
#305
b0 &
#306
b1 &
#307
b0 &
#308
b0001001100111000 "
b110101001011 %
b1 &
#309
b0 &
#310
b110101001101 %
b1 &
#311
b0 &
#312
b0001001100111001 "
b110101001010 %
b1 &
#313
b0 &
#314
b110101001011 %
b1 &
#315
b0 &
#316
b0001001100111010 "
b110101001100 %
b1 &
#317
b0 &
#318
b110101001011 %
b1 &
#319
b0 &
#320
b0001001100111011 "
b1 &
#321
b0 &
#322
b110101001010 %
b1 &
#323
b0 &
#324
b0001001100111100 "
b110101001100 %
b1 &
#325
b0 &
#326
b110101001101 %
b1 &
#327
b0 &
#328
b0001001100111101 "
b1 &
#329
b0 &
#330
b110101001011 %
b1 &
#331
b0 &
#332
b0001001100111110 "
b110101001100 %
b1 &
#333
b0 &
#334
b110101001011 %
b1 &
#335
b0 &
#336
b0001001100111111 "
b110101001101 %
b1 &
#337
b0 &
#338
b110101001011 %
b1 &
#339
b0 &
#340
b0001001101000000 "
b110101001100 %
b1 &
#341
b0 &
#342
b1 &
#343
b0 &
#344
b110101001101 %
b1 &
#345
b0 &
#346
b0001001101000001 "
b1 &
#347
b0 &
#348
b110101001100 %
b1 &
#349
b0 &
#350
b0001001101000010 "
b1 &
#351
b0 &
#352
b110101001101 %
b1 &
#353
b0 &
#354
b0001001101000011 "
b110101001100 %
b1 &
#355
b0 &
#356
b110101001110 %
b1 &
#357
b0 &
#358
b0001001101000100 "
b110101001011 %
b1 &
#359
b0 &
#360
b110101001101 %
b1 &
#361
b0 &
#362
b0001001101000101 "
b110101001100 %
b1 &
#363
b0 &
#364
b110101001101 %
b1 &
#365
b0 &
#366
b0001001101000110 "
b1 &
#367
b0 &
#368
b110101001110 %
b1 &
#369
b0 &
#370
b0001001101000111 "
b110101001101 %
b1 &
#371
b0 &
#372
b1 &
#373
b0 &
#374
b0001001101001000 "
b110101001011 %
b1 &
#375
b0 &
#376
b110101001110 %
b1 &
#377
b0 &
#378
b0001001101001001 "
b110101001101 %
b1 &
#379
b0 &
#380
b110101001011 %
b1 &
#381
b0 &
#382
b0001001101001010 "
b110101001111 %
b1 &
#383
b0 &
#384
b110101001110 %
b1 &
#385
b0 &
#386
b0001001101001011 "
b110101001101 %
b1 &
#387
b0 &
#388
b0001001101001100 "
b1 &
#389
b0 &
#390
b1 &
#391
b0 &
#392
b0001001101001101 "
b110101001110 %
b1 &
#393
b0 &
#394
b1 &
#395
b0 &
#396
b0001001101001110 "
b110101001101 %
b1 &
#397
b0 &
#398
b1 &
#399
b0 &
#400
b0001001101001111 "
b110101001110 %
b1 &
#401
b0 &
#402
b110101001101 %
b1 &
#403
b0 &
#404
b0001001101010000 "
b1 &
#405
b0 &
#406
b1 &
#407
b0 &
#408
b0001001101010001 "
b110101001110 %
b1 &
#409
b0 &
#410
b1 &
#411
b0 &
#412
b0001001101010010 "
b1 &
#413
b0 &
#414
b110101001101 %
b1 &
#415
b0 &
#416
b0001001101010011 "
b110101001110 %
b1 &
#417
b0 &
#418
b110101001100 %
b1 &
#419
b0 &
#420
b0001001101010100 "
b110101001101 %
b1 &
#421
b0 &
#422
b1 &
#423
b0 &
#424
b0001001101010101 "
b110101001110 %
b1 &
#425
b0 &
#426
b1 &
#427
b0 &
#428
b0001001101010110 "
b110101010000 %
b1 &
#429
b0 &
#430
b110101001111 %
b1 &
#431
b0 &
#432
b0001001101010111 "
b110101001110 %
b1 &
#433
b0 &
#434
b1 &
#435
b0 &
#436
b0001001101011000 "
b110101001111 %
b1 &
#437
b0 &
#438
b110101001101 %
b1 &
#439
b0 &
#440
b0001001101011001 "
b110101001111 %
b1 &
#441
b0 &
#442
b110101001110 %
b1 &
#443
b0 &
#444
b0001001101011010 "
b110101010000 %
b1 &
#445
b0 &
#446
b110101001110 %
b1 &
#447
b0 &
#448
b0001001101011011 "
b1 &
#449
b0 &
#450
b1 &
#451
b0 &
#452
b0001001101011100 "
b1 &
#453
b0 &
#454
b110101001111 %
b1 &
#455
b0 &
#456
b0001001101011101 "
b1 &
#457
b0 &
#458
b110101001110 %
b1 &
#459
b0 &
#460
b0001001101011110 "
b110101001111 %
b1 &
#461
b0 &
#462
b1 &
#463
b0 &
#464
b0001001101011111 "
b110101010001 %
b1 &
#465
b0 &
#466
b110101001111 %
b1 &
#467
b0 &
#468
b0001001101100000 "
b1 &
#469
b0 &
#470
b110101001110 %
b1 &
#471
b0 &
#472
b0001001101100001 "
b110101001111 %
b1 &
#473
b0 &
#474
b1 &
#475
b0 &
#476
b0001001101100010 "
b1 &
#477
b0 &
#478
b110101001110 %
b1 &
#479
b0 &
#480
b0001001101100011 "
b110101010000 %
b1 &
#481
b0 &
#482
b110101001111 %
b1 &
#483
b0 &
#484
b0001001101100100 "
b110101010000 %
b1 &
#485
b0 &
#486
b1 &
#487
b0 &
#488
b0001001101100101 "
b110101001110 %
b1 &
#489
b0 &
#490
b0001001101100110 "
b110101010000 %
b1 &
#491
b0 &
#492
b1 &
#493
b0 &
#494
b0001001101100111 "
b110101001110 %
b1 &
#495
b0 &
#496
b110101001111 %
b1 &
#497
b0 &
#498
b0001001101101000 "
b110101001110 %
b1 &
#499
b0 &
#500
b110101001111 %
b1 &
#501
b0 &
#502
b0001001101101001 "
b110101010001 %
b1 &
#503
b0 &
#504
b1 &
#505
b0 &
#506
b0001001101101010 "
b110101010000 %
b1 &
#507
b0 &
#508
b1 &
#509
b0 &
#510
b0001001101101011 "
b1 &
#511
b0 &
#512
b110101001111 %
b1 &
#513
b0 &
#514
b0001001101101100 "
b110101010000 %
b1 &
#515
b0 &
#516
b110101010001 %
b1 &
#517
b0 &
#518
b0001001101101101 "
b110101010000 %
b1 &
#519
b0 &
#520
b110101010001 %
b1 &
#521
b0 &
#522
b0001001101101110 "
b1 &
#523
b0 &
#524
b110101010000 %
b1 &
#525
b0 &
#526
b0001001101101111 "
b110101010001 %
b1 &
#527
b0 &
#528
b110101001111 %
b1 &
#529
b0 &
#530
b0001001101110000 "
b110101010000 %
b1 &
#531
b0 &
#532
b1 &
#533
b0 &
#534
b0001001101110001 "
b1 &
#535
b0 &
#536
b1 &
#537
b0 &
#538
b0001001101110010 "
b110101001111 %
b1 &
#539
b0 &
#540
b0001001101110011 "
b110101010001 %
b1 &
#541
b0 &
#542
b110101010000 %
b1 &
#543
b0 &
#544
b0001001101110100 "
b1 &
#545
b0 &
#546
b110101001111 %
b1 &
#547
b0 &
#548
b0001001101110101 "
b110101010001 %
b1 &
#549
b0 &
#550
b1 &
#551
b0 &
#552
b0001001101110110 "
b1 &
#553
b0 &
#554
b1 &
#555
b0 &
#556
b0001001101110111 "
b1 &
#557
b0 &
#558
b110101010000 %
b1 &
#559
b0 &
#560
b0001001101111000 "
b110101001111 %
b1 &
#561
b0 &
#562
b110101010001 %
b1 &
#563
b0 &
#564
b0001001101111001 "
b110101010000 %
b1 &
#565
b0 &
#566
b110101001111 %
b1 &
#567
b0 &
#568
b0001001101111010 "
b110101010010 %
b1 &
#569
b0 &
#570
b1 &
#571
b0 &
#572
b0001001101111011 "
b1 &
#573
b0 &
#574
b110101010001 %
b1 &
#575
b0 &
#576
b0001001101111100 "
b1 &
#577
b0 &
#578
b0001001101111101 "
b110101010000 %
b1 &
#579
b0 &
#580
b110101010001 %
b1 &
#581
b0 &
#582
b0001001101111110 "
b110101001111 %
b1 &
#583
b0 &
#584
b110101010010 %
b1 &
#585
b0 &
#586
b0001001101111111 "
b1 &
#587
b0 &
#588
b1 &
#589
b0 &
#590
b0001001110000000 "
b110101010001 %
b1 &
#591
b0 &
#592
b110101010011 %
b1 &
#593
b0 &
#594
b0001001110000001 "
b110101010001 %
b1 &
#595
b0 &
#596
b110101010100 %
b1 &
#597
b0 &
#598
b0001001110000010 "
b110101010010 %
b1 &
#599
b0 &
#600
b1 &
#601
b0 &
#602
b0001001110000011 "
b110101010001 %
b1 &
#603
b0 &
#604
b110101010010 %
b1 &
#605
b0 &
#606
b0001001110000100 "
b110101010001 %
b1 &
#607
b0 &
#608
b1 &
#609
b0 &
#610
b0001001110000101 "
b110101010010 %
b1 &
#611
b0 &
#612
b0001001110000110 "
b110101010011 %
b1 &
#613
b0 &
#614
b110101010010 %
b1 &
#615
b0 &
#616
b0001001110000111 "
b1 &
#617
b0 &
#618
b110101010001 %
b1 &
#619
b0 &
#620
b0001001110001000 "
b110101010010 %
b1 &
#621
b0 &
#622
b110101010001 %
b1 &
#623
b0 &
#624
b0001001110001001 "
b1 &
#625
b0 &
#626
b110101010010 %
b1 &
#627
b0 &
#628
b0001001110001010 "
b1 &
#629
b0 &
#630
b110101010001 %
b1 &
#631
b0 &
#632
b0001001110001011 "
b110101010010 %
b1 &
#633
b0 &
#634
b110101010000 %
b1 &
#635
b0 &
#636
b0001001110001100 "
b110101010011 %
b1 &
#637
b0 &
#638
b1 &
#639
b0 &
#640
b0001001110001101 "
b110101010010 %
b1 &
#641
b0 &
#642
b1 &
#643
b0 &
#644
b0001001110001110 "
b110101010100 %
b1 &
#645
b0 &
#646
b0001001110001111 "
b110101010011 %
b1 &
#647
b0 &
#648
b1 &
#649
b0 &
#650
b0001001110010000 "
b1 &
#651
b0 &
#652
b110101010010 %
b1 &
#653
b0 &
#654
b0001001110010001 "
b110101010011 %
b1 &
#655
b0 &
#656
b1 &
#657
b0 &
#658
b0001001110010010 "
b110101010001 %
b1 &
#659
b0 &
#660
b110101010011 %
b1 &
#661
b0 &
#662
b0001001110010011 "
b1 &
#663
b0 &
#664
b110101010100 %
b1 &
#665
b0 &
#666
b0001001110010100 "
b110101010011 %
b1 &
#667
b0 &
#668
b1 &
#669
b0 &
#670
b0001001110010101 "
b1 &
#671
b0 &
#672
b0001001110010110 "
b110101010010 %
b1 &
#673
b0 &
#674
b110101010011 %
b1 &
#675
b0 &
#676
b0001001110010111 "
b1 &
#677
b0 &
#678
b110101010100 %
b1 &
#679
b0 &
#680
b0001001110011000 "
b110101010011 %
b1 &
#681
b0 &
#682
b110101010101 %
b1 &
#683
b0 &
#684
b0001001110011001 "
b1 &
#685
b0 &
#686
b110101010010 %
b1 &
#687
b0 &
#688
b0001001110011010 "
b110101010100 %
b1 &
#689
b0 &
#690
b110101010101 %
b1 &
#691
b0 &
#692
b0001001110011011 "
b110101010100 %
b1 &
#693
b0 &
#694
b1 &
#695
b0 &
#696
b0001001110011100 "
b1 &
#697
b0 &
#698
b0001001110011101 "
b110101010101 %
b1 &
#699
b0 &
#700
b110101010100 %
b1 &
#701
b0 &
#702
b0001001110011110 "
b110101010011 %
b1 &
#703
b0 &
#704
b110101010100 %
b1 &
#705
b0 &
#706
b0001001110011111 "
b1 &
#707
b0 &
#708
b1 &
#709
b0 &
#710
b0001001110100000 "
b1 &
#711
b0 &
#712
b1 &
#713
b0 &
#714
b0001001110100001 "
b110101010011 %
b1 &
#715
b0 &
#716
b110101010100 %
b1 &
#717
b0 &
#718
b0001001110100010 "
b1 &
#719
b0 &
#720
b110101010010 %
b1 &
#721
b0 &
#722
b0001001110100011 "
b110101010101 %
b1 &
#723
b0 &
#724
b0001001110100100 "
b110101010100 %
b1 &
#725
b0 &
#726
b110101010101 %
b1 &
#727
b0 &
#728
b0001001110100101 "
b110101010100 %
b1 &
#729
b0 &
#730
b1 &
#731
b0 &
#732
b0001001110100110 "
b1 &
#733
b0 &
#734
b110101010011 %
b1 &
#735
b0 &
#736
b0001001110100111 "
b110101010100 %
b1 &
#737
b0 &
#738
b110101010101 %
b1 &
#739
b0 &
#740
b0001001110101000 "
b110101010011 %
b1 &
#741
b0 &
#742
b110101010101 %
b1 &
#743
b0 &
#744
b0001001110101001 "
b110101010100 %
b1 &
#745
b0 &
#746
b0001001110101010 "
b110101010101 %
b1 &
#747
b0 &
#748
b1 &
#749
b0 &
#750
b0001001110101011 "
b110101010111 %
b1 &
#751
b0 &
#752
b110101010100 %
b1 &
#753
b0 &
#754
b0001001110101100 "
b1 &
#755
b0 &
#756
b110101010110 %
b1 &
#757
b0 &
#758
b0001001110101101 "
b110101010101 %
b1 &
#759
b0 &
#760
b110101010100 %
b1 &
#761
b0 &
#762
b0001001110101110 "
b110101010101 %
b1 &
#763
b0 &
#764
b110101010110 %
b1 &
#765
b0 &
#766
b0001001110101111 "
b110101010101 %
b1 &
#767
b0 &
#768
b0001001110110000 "
b1 &
#769
b0 &
#770
b1 &
#771
b0 &
#772
b0001001110110001 "
b110101010110 %
b1 &
#773
b0 &
#774
b110101010101 %
b1 &
#775
b0 &
#776
b0001001110110010 "
b1 &
#777
b0 &
#778
b1 &
#779
b0 &
#780
b0001001110110011 "
b1 &
#781
b0 &
#782
b110101010100 %
b1 &
#783
b0 &
#784
b0001001110110100 "
b110101010101 %
b1 &
#785
b0 &
#786
b0001001110110101 "
b1 &
#787
b0 &
#788
b1 &
#789
b0 &
#790
b0001001110110110 "
b1 &
#791
b0 &
#792
b110101010111 %
b1 &
#793
b0 &
#794
b0001001110110111 "
b110101010101 %
b1 &
#795
b0 &
#796
b110101010110 %
b1 &
#797
b0 &
#798
b0001001110111000 "
b110101010111 %
b1 &
#799
b0 &
#800
b110101010101 %
b1 &
#801
b0 &
#802
b0001001110111001 "
b110101010111 %
b1 &
#803
b0 &
#804
b110101010110 %
b1 &
#805
b0 &
#806
b0001001110111010 "
b110101010101 %
b1 &
#807
b0 &
#808
b0001001110111011 "
b110101010111 %
b1 &
#809
b0 &
#810
b110101010101 %
b1 &
#811
b0 &
#812
b0001001110111100 "
b110101010110 %
b1 &
#813
b0 &
#814
b110101010101 %
b1 &
#815
b0 &
#816
b0001001110111101 "
b110101010111 %
b1 &
#817
b0 &
#818
b1 &
#819
b0 &
#820
b0001001110111110 "
b1 &
#821
b0 &
#822
b110101010101 %
b1 &
#823
b0 &
#824
b0001001110111111 "
b1 &
#825
b0 &
#826
b0001001111000000 "
b110101011000 %
b1 &
#827
b0 &
#828
b110101010100 %
b1 &
#829
b0 &
#830
b0001001111000001 "
b110101010111 %
b1 &
#831
b0 &
#832
b110101011001 %
b1 &
#833
b0 &
#834
b0001001111000010 "
b110101011000 %
b1 &
#835
b0 &
#836
b110101010110 %
b1 &
#837
b0 &
#838
b0001001111000011 "
b110101010111 %
b1 &
#839
b0 &
#840
b110101011000 %
b1 &
#841
b0 &
#842
b0001001111000100 "
b110101010111 %
b1 &
#843
b0 &
#844
b1 &
#845
b0 &
#846
b0001001111000101 "
b110101010101 %
b1 &
#847
b0 &
#848
b0001001111000110 "
b110101010111 %
b1 &
#849
b0 &
#850
b1 &
#851
b0 &
#852
b0001001111000111 "
b110101011000 %
b1 &
#853
b0 &
#854
b110101010110 %
b1 &
#855
b0 &
#856
b0001001111001000 "
b110101010111 %
b1 &
#857
b0 &
#858
b110101011000 %
b1 &
#859
b0 &
#860
b0001001111001001 "
b110101010110 %
b1 &
#861
b0 &
#862
b1 &
#863
b0 &
#864
b0001001111001010 "
b110101010111 %
b1 &
#865
b0 &
#866
b0001001111001011 "
b1 &
#867
b0 &
#868
b110101011000 %
b1 &
#869
b0 &
#870
b0001001111001100 "
b1 &
#871
b0 &
#872
b110101011001 %
b1 &
#873
b0 &
#874
b0001001111001101 "
b110101010110 %
b1 &
#875
b0 &
#876
b110101011000 %
b1 &
#877
b0 &
#878
b0001001111001110 "
b1 &
#879
b0 &
#880
b110101011001 %
b1 &
#881
b0 &
#882
b0001001111001111 "
b1 &
#883
b0 &
#884
b0001001111010000 "
b110101011000 %
b1 &
#885
b0 &
#886
b110101010111 %
b1 &
#887
b0 &
#888
b0001001111010001 "
b110101011001 %
b1 &
#889
b0 &
#890
b110101010111 %
b1 &
#891
b0 &
#892
b0001001111010010 "
b110101011001 %
b1 &
#893
b0 &
#894
b1 &
#895
b0 &
#896
b0001001111010011 "
b110101011000 %
b1 &
#897
b0 &
#898
b110101010111 %
b1 &
#899
b0 &
#900
b0001001111010100 "
b110101011001 %
b1 &
#901
b0 &
#902
b0001001111010101 "
b110101011000 %
b1 &
#903
b0 &
#904
b110101010111 %
b1 &
#905
b0 &
#906
b0001001111010110 "
b110101011000 %
b1 &
#907
b0 &
#908
b110101010111 %
b1 &
#909
b0 &
#910
b0001001111010111 "
b110101011000 %
b1 &
#911
b0 &
#912
b110101010111 %
b1 &
#913
b0 &
#914
b0001001111011000 "
b110101011001 %
b1 &
#915
b0 &
#916
b110101011000 %
b1 &
#917
b0 &
#918
b0001001111011001 "
b110101011001 %
b1 &
#919
b0 &
#920
b0001001111011010 "
b110101011000 %
b1 &
#921
b0 &
#922
b110101011001 %
b1 &
#923
b0 &
#924
b0001001111011011 "
b110101011000 %
b1 &
#925
b0 &
#926
b1 &
#927
b0 &
#928
b0001001111011100 "
b1 &
#929
b0 &
#930
b110101011001 %
b1 &
#931
b0 &
#932
b0001001111011101 "
b110101011000 %
b1 &
#933
b0 &
#934
b0001001111011110 "
b110101011010 %
b1 &
#935
b0 &
#936
b110101011000 %
b1 &
#937
b0 &
#938
b0001001111011111 "
b110101011001 %
b1 &
#939
b0 &
#940
b110101010111 %
b1 &
#941
b0 &
#942
b0001001111100000 "
b110101011001 %
b1 &
#943
b0 &
#944
b110101011010 %
b1 &
#945
b0 &
#946
b0001001111100001 "
b1 &
#947
b0 &
#948
b1 &
#949
b0 &
#950
b0001001111100010 "
b110101011001 %
b1 &
#951
b0 &
#952
b0001001111100011 "
b110101011010 %
b1 &
#953
b0 &
#954
b1 &
#955
b0 &
#956
b0001001111100100 "
b110101011001 %
b1 &
#957
b0 &
#958
b110101011010 %
b1 &
#959
b0 &
#960
b0001001111100101 "
b110101011001 %
b1 &
#961
b0 &
#962
b1 &
#963
b0 &
#964
b0001001111100110 "
b110101011010 %
b1 &
#965
b0 &
#966
b0001001111100111 "
b1 &
#967
b0 &
#968
b1 &
#969
b0 &
#970
b0001001111101000 "
b1 &
#971
b0 &
#972
b110101011001 %
b1 &
#973
b0 &
#974
b0001001111101001 "
b110101011010 %
b1 &
#975
b0 &
#976
b110101011000 %
b1 &
#977
b0 &
#978
b0001001111101010 "
b110101011001 %
b1 &
#979
b0 &
#980
b1 &
#981
b0 &
#982
b0001001111101011 "
b110101011100 %
b1 &
#983
b0 &
#984
b0001001111101100 "
b110101011001 %
b1 &
#985
b0 &
#986
b110101011011 %
b1 &
#987
b0 &
#988
b0001001111101101 "
b110101011001 %
b1 &
#989
b0 &
#990
b110101011010 %
b1 &
#991
b0 &
#992
b0001001111101110 "
b1 &
#993
b0 &
#994
b1 &
#995
b0 &
#996
b0001001111101111 "
b1 &
#997
b0 &
#998
b0001001111110000 "
b1 &
#999
b0 &
#1000
b1 &
#1001
b0 &
#1002
b0001001111110001 "
b110101011001 %
b1 &
#1003
b0 &
#1004
b110101011011 %
b1 &
#1005
b0 &
#1006
b0001001111110010 "
b1 &
#1007
b0 &
#1008
b110101011010 %
b1 &
#1009
b0 &
#1010
b0001001111110011 "
b1 &
#1011
b0 &
#1012
b1 &
#1013
b0 &
#1014
b0001001111110100 "
b110101011011 %
b1 &
#1015
b0 &
#1016
b0001001111110101 "
b110101011010 %
b1 &
#1017
b0 &
#1018
b1 &
#1019
b0 &
#1020
b0001001111110110 "
b1 &
#1021
b0 &
#1022
b110101011001 %
b1 &
#1023
b0 &
#1024
b0001001111110111 "
b110101011010 %
b1 &
#1025
b0 &
#1026
b1 &
#1027
b0 &
#1028
b0001001111111000 "
b110101011011 %
b1 &
#1029
b0 &
#1030
b0001001111111001 "
b1 &
#1031
b0 &
#1032
b110101011001 %
b1 &
#1033
b0 &
#1034
b0001001111111010 "
b110101011010 %
b1 &
#1035
b0 &
#1036
b110101011001 %
b1 &
#1037
b0 &
#1038
b0001001111111011 "
b110101011010 %
b1 &
#1039
b0 &
#1040
b110101011001 %
b1 &
#1041
b0 &
#1042
b0001001111111100 "
b110101011100 %
b1 &
#1043
b0 &
#1044
b0001001111111101 "
b1 &
#1045
b0 &
#1046
b110101011011 %
b1 &
#1047
b0 &
#1048
b0001001111111110 "
b110101011100 %
b1 &
#1049
b0 &
#1050
b110101011011 %
b1 &
#1051
b0 &
#1052
b0001001111111111 "
b110101011100 %
b1 &
#1053
b0 &
#1054
b110101011010 %
b1 &
#1055
b0 &
#1056
b0001010000000000 "
b110101011100 %
b1 &
#1057
b0 &
#1058
b110101011101 %
b1 &
#1059
b0 &
#1060
b0001010000000001 "
b110101011011 %
b1 &
#1061
b0 &
#1062
b0001010000000010 "
b110101011100 %
b1 &
#1063
b0 &
#1064
b110101011101 %
b1 &
#1065
b0 &
#1066
b0001010000000011 "
b110101011011 %
b1 &
#1067
b0 &
#1068
b110101011010 %
b1 &
#1069
b0 &
#1070
b0001010000000100 "
b110101011100 %
b1 &
#1071
b0 &
#1072
b110101011011 %
b1 &
#1073
b0 &
#1074
b0001010000000101 "
b110101011100 %
b1 &
#1075
b0 &
#1076
b0001010000000110 "
b1 &
#1077
b0 &
#1078
b1 &
#1079
b0 &
#1080
b0001010000000111 "
b1 &
#1081
b0 &
#1082
b1 &
#1083
b0 &
#1084
b0001010000001000 "
b1 &
#1085
b0 &
